<svg width="434" height="278" viewBox="0 0 434 278" fill="none" xmlns="http://www.w3.org/2000/svg">
<path d="M0 10C0 4.47715 4.47715 0 10 0H423.33C428.853 0 433.33 4.47715 433.33 10V268C433.33 273.523 428.853 278 423.33 278H9.99999C4.47714 278 0 273.523 0 268V10Z" fill="#F7F7F7"/>
<path d="M116.856 167.2V177.688C116.856 179.84 116.296 181.484 115.176 182.62C114.056 183.748 112.548 184.312 110.652 184.312C109.444 184.312 108.384 184.112 107.472 183.712C106.568 183.312 105.844 182.816 105.3 182.224L107.388 179.188C108.204 180.036 109.192 180.46 110.352 180.46C112.016 180.46 112.848 179.42 112.848 177.34V167.2H116.856ZM125.021 171.904C126.765 171.904 128.181 172.48 129.269 173.632C130.357 174.776 130.905 176.268 130.913 178.108C130.913 178.636 130.889 179.024 130.841 179.272H122.861C123.165 180.528 124.005 181.156 125.381 181.156C126.333 181.156 127.189 180.812 127.949 180.124L130.373 182.38C129.085 183.668 127.357 184.312 125.189 184.312C123.341 184.312 121.845 183.748 120.701 182.62C119.557 181.492 118.985 180.012 118.985 178.18C118.985 176.324 119.545 174.816 120.665 173.656C121.785 172.488 123.237 171.904 125.021 171.904ZM125.033 175.096C123.889 175.096 123.169 175.696 122.873 176.896H127.157C126.853 175.696 126.145 175.096 125.033 175.096ZM145.308 171.904C146.868 171.904 148.172 172.504 149.22 173.704C150.268 174.896 150.792 176.36 150.792 178.096C150.792 179.848 150.268 181.324 149.22 182.524C148.172 183.716 146.868 184.312 145.308 184.312C143.86 184.312 142.736 183.788 141.936 182.74V184H138.312V166.72H142.056V173.356C142.864 172.388 143.948 171.904 145.308 171.904ZM144.408 175.408C143.672 175.408 143.068 175.664 142.596 176.176C142.132 176.68 141.9 177.324 141.9 178.108C141.9 178.892 142.132 179.54 142.596 180.052C143.068 180.556 143.672 180.808 144.408 180.808C145.152 180.808 145.756 180.552 146.22 180.04C146.692 179.528 146.928 178.884 146.928 178.108C146.928 177.332 146.692 176.688 146.22 176.176C145.756 175.664 145.152 175.408 144.408 175.408ZM158.209 171.904C159.953 171.904 161.369 172.48 162.457 173.632C163.545 174.776 164.093 176.268 164.101 178.108C164.101 178.636 164.077 179.024 164.029 179.272H156.049C156.353 180.528 157.193 181.156 158.569 181.156C159.521 181.156 160.377 180.812 161.137 180.124L163.561 182.38C162.273 183.668 160.545 184.312 158.377 184.312C156.529 184.312 155.033 183.748 153.889 182.62C152.745 181.492 152.173 180.012 152.173 178.18C152.173 176.324 152.733 174.816 153.853 173.656C154.973 172.488 156.425 171.904 158.209 171.904ZM158.221 175.096C157.077 175.096 156.357 175.696 156.061 176.896H160.345C160.041 175.696 159.333 175.096 158.221 175.096ZM173.213 171.904C174.421 171.904 175.417 172.3 176.201 173.092C176.993 173.884 177.389 174.944 177.389 176.272V184H173.633V177.604C173.633 176.908 173.469 176.372 173.141 175.996C172.813 175.62 172.357 175.432 171.773 175.432C171.221 175.432 170.765 175.624 170.405 176.008C170.045 176.384 169.865 176.936 169.865 177.664V184H166.109V172.228H169.709V173.704C170.429 172.504 171.597 171.904 173.213 171.904ZM188.985 172.228V175.552H184.965V178.996C184.965 180.204 185.521 180.808 186.633 180.808C187.169 180.808 187.849 180.564 188.673 180.076L189.969 183.004C189.353 183.436 188.721 183.764 188.073 183.988C187.433 184.204 186.673 184.312 185.793 184.312C184.257 184.312 183.109 183.888 182.349 183.04C181.589 182.184 181.209 180.996 181.209 179.476V175.552H179.013V172.228H181.209V168.796H184.965V172.228H188.985ZM208.116 172.228V178.96C208.116 179.856 207.968 180.652 207.672 181.348C207.376 182.036 206.968 182.596 206.448 183.028C205.928 183.452 205.328 183.772 204.648 183.988C203.976 184.204 203.24 184.312 202.44 184.312C201.64 184.312 200.9 184.204 200.22 183.988C199.54 183.772 198.94 183.452 198.42 183.028C197.9 182.596 197.492 182.032 197.196 181.336C196.9 180.64 196.752 179.844 196.752 178.948V172.228H200.508V178.624C200.508 179.344 200.68 179.888 201.024 180.256C201.376 180.624 201.848 180.808 202.44 180.808C203.024 180.808 203.492 180.624 203.844 180.256C204.196 179.888 204.372 179.344 204.372 178.624V172.228H208.116ZM217.66 171.904C219.22 171.904 220.524 172.504 221.572 173.704C222.62 174.896 223.144 176.36 223.144 178.096C223.144 179.848 222.62 181.324 221.572 182.524C220.524 183.716 219.22 184.312 217.66 184.312C216.292 184.312 215.208 183.836 214.408 182.884V188.8H210.664V172.228H214.288V173.5C215.104 172.436 216.228 171.904 217.66 171.904ZM216.76 175.408C216.024 175.408 215.42 175.664 214.948 176.176C214.484 176.68 214.252 177.324 214.252 178.108C214.252 178.892 214.484 179.54 214.948 180.052C215.42 180.556 216.024 180.808 216.76 180.808C217.504 180.808 218.108 180.552 218.572 180.04C219.044 179.528 219.28 178.884 219.28 178.108C219.28 177.332 219.044 176.688 218.572 176.176C218.108 175.664 217.504 175.408 216.76 175.408ZM232.108 176.02V179.224H224.896V176.02H232.108ZM243.548 172.228V175.552H239.528V178.996C239.528 180.204 240.084 180.808 241.196 180.808C241.732 180.808 242.412 180.564 243.236 180.076L244.532 183.004C243.916 183.436 243.284 183.764 242.636 183.988C241.996 184.204 241.236 184.312 240.356 184.312C238.82 184.312 237.672 183.888 236.912 183.04C236.152 182.184 235.772 180.996 235.772 179.476V175.552H233.576V172.228H235.772V168.796H239.528V172.228H243.548ZM251.768 171.904C253.608 171.904 255.132 172.492 256.34 173.668C257.556 174.844 258.164 176.324 258.164 178.108C258.164 179.892 257.556 181.372 256.34 182.548C255.132 183.724 253.608 184.312 251.768 184.312C249.936 184.312 248.412 183.724 247.196 182.548C245.988 181.372 245.384 179.892 245.384 178.108C245.384 176.324 245.988 174.844 247.196 173.668C248.412 172.492 249.936 171.904 251.768 171.904ZM251.768 175.408C251.032 175.408 250.424 175.66 249.944 176.164C249.464 176.668 249.224 177.316 249.224 178.108C249.224 178.9 249.464 179.548 249.944 180.052C250.424 180.556 251.032 180.808 251.768 180.808C252.512 180.808 253.124 180.556 253.604 180.052C254.084 179.548 254.324 178.9 254.324 178.108C254.324 177.316 254.084 176.668 253.604 176.164C253.124 175.66 252.512 175.408 251.768 175.408ZM267.147 176.02V179.224H259.935V176.02H267.147ZM274.399 171.904C275.759 171.904 276.843 172.388 277.651 173.356V166.72H281.395V184H277.771V182.728C276.963 183.784 275.835 184.312 274.387 184.312C272.827 184.312 271.523 183.716 270.475 182.524C269.435 181.324 268.915 179.848 268.915 178.096C268.915 176.952 269.151 175.908 269.623 174.964C270.095 174.02 270.751 173.276 271.591 172.732C272.431 172.18 273.367 171.904 274.399 171.904ZM275.287 175.408C274.543 175.408 273.939 175.664 273.475 176.176C273.011 176.688 272.779 177.332 272.779 178.108C272.779 178.884 273.011 179.528 273.475 180.04C273.939 180.552 274.543 180.808 275.287 180.808C276.023 180.808 276.627 180.556 277.099 180.052C277.571 179.54 277.807 178.892 277.807 178.108C277.807 177.324 277.571 176.68 277.099 176.176C276.627 175.664 276.023 175.408 275.287 175.408ZM295.891 172.228V184H292.255V182.728C291.447 183.784 290.319 184.312 288.871 184.312C287.311 184.312 286.007 183.716 284.959 182.524C283.919 181.324 283.399 179.848 283.399 178.096C283.399 176.952 283.635 175.908 284.107 174.964C284.579 174.02 285.235 173.276 286.075 172.732C286.915 172.18 287.851 171.904 288.883 171.904C290.315 171.904 291.439 172.436 292.255 173.5V172.228H295.891ZM289.771 175.408C289.027 175.408 288.423 175.664 287.959 176.176C287.495 176.688 287.263 177.332 287.263 178.108C287.263 178.884 287.495 179.528 287.959 180.04C288.423 180.552 289.027 180.808 289.771 180.808C290.507 180.808 291.111 180.556 291.583 180.052C292.055 179.54 292.291 178.892 292.291 178.108C292.291 177.324 292.055 176.68 291.583 176.176C291.111 175.664 290.507 175.408 289.771 175.408ZM307.556 172.228V175.552H303.536V178.996C303.536 180.204 304.092 180.808 305.204 180.808C305.74 180.808 306.42 180.564 307.244 180.076L308.54 183.004C307.924 183.436 307.292 183.764 306.644 183.988C306.004 184.204 305.244 184.312 304.364 184.312C302.828 184.312 301.68 183.888 300.92 183.04C300.16 182.184 299.78 180.996 299.78 179.476V175.552H297.583V172.228H299.78V168.796H303.536V172.228H307.556ZM315.427 171.904C317.171 171.904 318.587 172.48 319.675 173.632C320.763 174.776 321.311 176.268 321.319 178.108C321.319 178.636 321.295 179.024 321.247 179.272H313.267C313.571 180.528 314.411 181.156 315.787 181.156C316.739 181.156 317.595 180.812 318.355 180.124L320.779 182.38C319.491 183.668 317.763 184.312 315.595 184.312C313.747 184.312 312.251 183.748 311.107 182.62C309.963 181.492 309.391 180.012 309.391 178.18C309.391 176.324 309.951 174.816 311.071 173.656C312.191 172.488 313.643 171.904 315.427 171.904ZM315.439 175.096C314.295 175.096 313.575 175.696 313.279 176.896H317.563C317.259 175.696 316.551 175.096 315.439 175.096ZM326.88 178.312H324.024L323.424 166.864H327.48L326.88 178.312ZM323.376 182.32C323.376 181.584 323.576 181.072 323.976 180.784C324.376 180.48 324.864 180.328 325.44 180.328C326 180.328 326.48 180.48 326.88 180.784C327.28 181.072 327.48 181.584 327.48 182.32C327.48 183.024 327.28 183.536 326.88 183.856C326.48 184.16 326 184.312 325.44 184.312C324.864 184.312 324.376 184.16 323.976 183.856C323.576 183.536 323.376 183.024 323.376 182.32Z" fill="black"/>
<path d="M100.43 204C100.321 203.665 100.177 203.365 99.998 203.1C99.8223 202.832 99.6118 202.603 99.3666 202.414C99.1246 202.225 98.8495 202.081 98.5413 201.982C98.233 201.882 97.895 201.832 97.5271 201.832C96.9239 201.832 96.3753 201.988 95.8815 202.3C95.3876 202.611 94.9949 203.07 94.7032 203.677C94.4115 204.283 94.2657 205.027 94.2657 205.909C94.2657 206.791 94.4132 207.535 94.7082 208.141C95.0032 208.748 95.4026 209.207 95.9063 209.518C96.4101 209.83 96.9769 209.986 97.6066 209.986C98.19 209.986 98.7037 209.862 99.1478 209.613C99.5953 209.361 99.9433 209.006 100.192 208.549C100.444 208.088 100.57 207.546 100.57 206.923L100.948 207.003H97.885V205.909H101.763V207.003C101.763 207.841 101.584 208.571 101.226 209.19C100.871 209.81 100.381 210.291 99.7544 210.632C99.1312 210.97 98.4153 211.139 97.6066 211.139C96.7051 211.139 95.913 210.927 95.2302 210.503C94.5508 210.079 94.0204 209.475 93.6393 208.693C93.2615 207.911 93.0725 206.983 93.0725 205.909C93.0725 205.104 93.1802 204.379 93.3957 203.737C93.6144 203.09 93.9227 202.54 94.3204 202.086C94.7181 201.632 95.1888 201.284 95.7323 201.042C96.2759 200.8 96.8741 200.679 97.5271 200.679C98.064 200.679 98.5645 200.76 99.0285 200.923C99.4958 201.082 99.9118 201.309 100.276 201.604C100.644 201.895 100.951 202.245 101.196 202.653C101.441 203.057 101.61 203.506 101.703 204H100.43ZM106.917 211.159C106.181 211.159 105.547 210.997 105.013 210.672C104.483 210.344 104.073 209.886 103.785 209.3C103.5 208.71 103.358 208.024 103.358 207.241C103.358 206.459 103.5 205.77 103.785 205.173C104.073 204.573 104.474 204.106 104.988 203.771C105.505 203.433 106.108 203.264 106.798 203.264C107.196 203.264 107.588 203.33 107.976 203.463C108.364 203.596 108.717 203.811 109.035 204.109C109.353 204.404 109.607 204.795 109.796 205.283C109.985 205.77 110.079 206.37 110.079 207.082V207.58H104.193V206.565H108.886C108.886 206.134 108.8 205.75 108.627 205.412C108.458 205.074 108.216 204.807 107.902 204.612C107.59 204.416 107.222 204.318 106.798 204.318C106.331 204.318 105.926 204.434 105.585 204.666C105.247 204.895 104.987 205.193 104.804 205.561C104.622 205.929 104.531 206.323 104.531 206.744V207.42C104.531 207.997 104.63 208.486 104.829 208.887C105.031 209.285 105.311 209.588 105.669 209.797C106.027 210.002 106.443 210.105 106.917 210.105C107.225 210.105 107.504 210.062 107.752 209.976C108.004 209.886 108.221 209.754 108.404 209.578C108.586 209.399 108.727 209.177 108.826 208.912L109.96 209.23C109.84 209.615 109.64 209.953 109.358 210.244C109.076 210.533 108.728 210.758 108.314 210.92C107.9 211.08 107.434 211.159 106.917 211.159ZM115.066 211.159C114.33 211.159 113.695 210.997 113.161 210.672C112.631 210.344 112.222 209.886 111.934 209.3C111.648 208.71 111.506 208.024 111.506 207.241C111.506 206.459 111.648 205.77 111.934 205.173C112.222 204.573 112.623 204.106 113.137 203.771C113.654 203.433 114.257 203.264 114.946 203.264C115.344 203.264 115.737 203.33 116.125 203.463C116.512 203.596 116.865 203.811 117.184 204.109C117.502 204.404 117.755 204.795 117.944 205.283C118.133 205.77 118.228 206.37 118.228 207.082V207.58H112.341V206.565H117.034C117.034 206.134 116.948 205.75 116.776 205.412C116.607 205.074 116.365 204.807 116.05 204.612C115.738 204.416 115.371 204.318 114.946 204.318C114.479 204.318 114.075 204.434 113.733 204.666C113.395 204.895 113.135 205.193 112.953 205.561C112.77 205.929 112.679 206.323 112.679 206.744V207.42C112.679 207.997 112.779 208.486 112.978 208.887C113.18 209.285 113.46 209.588 113.818 209.797C114.176 210.002 114.592 210.105 115.066 210.105C115.374 210.105 115.652 210.062 115.901 209.976C116.153 209.886 116.37 209.754 116.552 209.578C116.734 209.399 116.875 209.177 116.975 208.912L118.108 209.23C117.989 209.615 117.788 209.953 117.507 210.244C117.225 210.533 116.877 210.758 116.463 210.92C116.048 211.08 115.583 211.159 115.066 211.159ZM121.186 206.406V211H120.012V203.364H121.146V204.557H121.245C121.424 204.169 121.696 203.857 122.061 203.622C122.425 203.384 122.896 203.264 123.473 203.264C123.99 203.264 124.442 203.37 124.83 203.582C125.218 203.791 125.519 204.109 125.735 204.537C125.95 204.961 126.058 205.498 126.058 206.148V211H124.884V206.227C124.884 205.627 124.729 205.16 124.417 204.825C124.106 204.487 123.678 204.318 123.134 204.318C122.76 204.318 122.425 204.399 122.13 204.562C121.839 204.724 121.608 204.961 121.439 205.273C121.27 205.584 121.186 205.962 121.186 206.406ZM131.921 211V210.105L136.256 204.537V204.457H132.06V203.364H137.767V204.298L133.551 209.827V209.906H137.906V211H131.921ZM142.597 211.159C141.908 211.159 141.303 210.995 140.782 210.667C140.265 210.339 139.861 209.88 139.569 209.29C139.281 208.7 139.137 208.01 139.137 207.222C139.137 206.426 139.281 205.732 139.569 205.138C139.861 204.545 140.265 204.085 140.782 203.756C141.303 203.428 141.908 203.264 142.597 203.264C143.286 203.264 143.89 203.428 144.407 203.756C144.927 204.085 145.331 204.545 145.62 205.138C145.911 205.732 146.057 206.426 146.057 207.222C146.057 208.01 145.911 208.7 145.62 209.29C145.331 209.88 144.927 210.339 144.407 210.667C143.89 210.995 143.286 211.159 142.597 211.159ZM142.597 210.105C143.121 210.105 143.552 209.971 143.89 209.702C144.228 209.434 144.478 209.081 144.64 208.643C144.803 208.206 144.884 207.732 144.884 207.222C144.884 206.711 144.803 206.236 144.64 205.795C144.478 205.354 144.228 204.998 143.89 204.726C143.552 204.454 143.121 204.318 142.597 204.318C142.073 204.318 141.642 204.454 141.304 204.726C140.966 204.998 140.716 205.354 140.554 205.795C140.391 206.236 140.31 206.711 140.31 207.222C140.31 207.732 140.391 208.206 140.554 208.643C140.716 209.081 140.966 209.434 141.304 209.702C141.642 209.971 142.073 210.105 142.597 210.105ZM147.848 211V203.364H148.982V204.517H149.061C149.201 204.139 149.452 203.833 149.817 203.597C150.182 203.362 150.593 203.244 151.05 203.244C151.136 203.244 151.244 203.246 151.373 203.249C151.502 203.253 151.6 203.258 151.666 203.264V204.457C151.627 204.447 151.536 204.433 151.393 204.413C151.254 204.389 151.106 204.378 150.951 204.378C150.579 204.378 150.248 204.456 149.956 204.612C149.668 204.764 149.439 204.976 149.27 205.248C149.104 205.516 149.022 205.823 149.022 206.168V211H147.848ZM155.907 214.023C155.34 214.023 154.853 213.95 154.446 213.804C154.038 213.661 153.698 213.473 153.426 213.237C153.158 213.005 152.944 212.757 152.785 212.491L153.72 211.835C153.826 211.974 153.96 212.134 154.122 212.312C154.285 212.495 154.507 212.652 154.789 212.785C155.074 212.921 155.447 212.989 155.907 212.989C156.524 212.989 157.032 212.839 157.434 212.541C157.835 212.243 158.035 211.776 158.035 211.139V209.588H157.936C157.849 209.727 157.727 209.9 157.568 210.105C157.412 210.307 157.187 210.488 156.892 210.647C156.6 210.803 156.206 210.881 155.708 210.881C155.092 210.881 154.538 210.735 154.048 210.443C153.561 210.152 153.175 209.727 152.889 209.17C152.608 208.614 152.467 207.937 152.467 207.142C152.467 206.36 152.604 205.679 152.88 205.099C153.155 204.515 153.537 204.065 154.028 203.746C154.518 203.425 155.085 203.264 155.728 203.264C156.225 203.264 156.62 203.347 156.911 203.513C157.206 203.675 157.432 203.861 157.588 204.07C157.747 204.275 157.869 204.444 157.956 204.577H158.075V203.364H159.208V211.219C159.208 211.875 159.059 212.409 158.761 212.82C158.466 213.234 158.068 213.537 157.568 213.729C157.071 213.925 156.517 214.023 155.907 214.023ZM155.867 209.827C156.338 209.827 156.736 209.719 157.061 209.504C157.385 209.288 157.632 208.978 157.801 208.574C157.97 208.17 158.055 207.686 158.055 207.122C158.055 206.572 157.972 206.086 157.806 205.665C157.641 205.245 157.395 204.915 157.071 204.676C156.746 204.437 156.345 204.318 155.867 204.318C155.37 204.318 154.956 204.444 154.625 204.696C154.296 204.948 154.05 205.286 153.884 205.71C153.721 206.134 153.64 206.605 153.64 207.122C153.64 207.652 153.723 208.121 153.889 208.529C154.058 208.933 154.306 209.252 154.634 209.484C154.966 209.712 155.377 209.827 155.867 209.827ZM164.558 211.159C163.822 211.159 163.187 210.997 162.654 210.672C162.123 210.344 161.714 209.886 161.426 209.3C161.141 208.71 160.998 208.024 160.998 207.241C160.998 206.459 161.141 205.77 161.426 205.173C161.714 204.573 162.115 204.106 162.629 203.771C163.146 203.433 163.749 203.264 164.438 203.264C164.836 203.264 165.229 203.33 165.617 203.463C166.005 203.596 166.358 203.811 166.676 204.109C166.994 204.404 167.247 204.795 167.436 205.283C167.625 205.77 167.72 206.37 167.72 207.082V207.58H161.833V206.565H166.527C166.527 206.134 166.44 205.75 166.268 205.412C166.099 205.074 165.857 204.807 165.542 204.612C165.231 204.416 164.863 204.318 164.438 204.318C163.971 204.318 163.567 204.434 163.225 204.666C162.887 204.895 162.627 205.193 162.445 205.561C162.263 205.929 162.171 206.323 162.171 206.744V207.42C162.171 207.997 162.271 208.486 162.47 208.887C162.672 209.285 162.952 209.588 163.31 209.797C163.668 210.002 164.084 210.105 164.558 210.105C164.866 210.105 165.144 210.062 165.393 209.976C165.645 209.886 165.862 209.754 166.044 209.578C166.227 209.399 166.367 209.177 166.467 208.912L167.6 209.23C167.481 209.615 167.281 209.953 166.999 210.244C166.717 210.533 166.369 210.758 165.955 210.92C165.541 211.08 165.075 211.159 164.558 211.159ZM170.678 206.406V211H169.505V203.364H170.638V204.557H170.737C170.916 204.169 171.188 203.857 171.553 203.622C171.917 203.384 172.388 203.264 172.965 203.264C173.482 203.264 173.934 203.37 174.322 203.582C174.71 203.791 175.011 204.109 175.227 204.537C175.442 204.961 175.55 205.498 175.55 206.148V211H174.377V206.227C174.377 205.627 174.221 205.16 173.909 204.825C173.598 204.487 173.17 204.318 172.627 204.318C172.252 204.318 171.917 204.399 171.622 204.562C171.331 204.724 171.1 204.961 170.931 205.273C170.762 205.584 170.678 205.962 170.678 206.406ZM179.444 209.608L179.364 210.145C179.308 210.523 179.222 210.927 179.106 211.358C178.993 211.789 178.876 212.195 178.753 212.576C178.63 212.957 178.529 213.26 178.45 213.486H177.555C177.598 213.274 177.654 212.994 177.724 212.646C177.793 212.298 177.863 211.908 177.933 211.477C178.006 211.05 178.065 210.612 178.112 210.165L178.171 209.608H179.444ZM185.555 203.364H186.729V211.557C186.729 212.027 186.647 212.435 186.485 212.78C186.326 213.125 186.084 213.391 185.759 213.58C185.438 213.769 185.032 213.864 184.541 213.864C184.501 213.864 184.462 213.864 184.422 213.864C184.382 213.864 184.342 213.864 184.302 213.864V212.77C184.342 212.77 184.379 212.77 184.412 212.77C184.445 212.77 184.481 212.77 184.521 212.77C184.879 212.77 185.141 212.664 185.307 212.452C185.472 212.243 185.555 211.945 185.555 211.557V203.364ZM186.132 202.091C185.903 202.091 185.706 202.013 185.54 201.857C185.378 201.701 185.297 201.514 185.297 201.295C185.297 201.077 185.378 200.889 185.54 200.734C185.706 200.578 185.903 200.5 186.132 200.5C186.361 200.5 186.556 200.578 186.719 200.734C186.884 200.889 186.967 201.077 186.967 201.295C186.967 201.514 186.884 201.701 186.719 201.857C186.556 202.013 186.361 202.091 186.132 202.091ZM192.079 211.159C191.343 211.159 190.709 210.997 190.175 210.672C189.645 210.344 189.236 209.886 188.947 209.3C188.662 208.71 188.52 208.024 188.52 207.241C188.52 206.459 188.662 205.77 188.947 205.173C189.236 204.573 189.637 204.106 190.15 203.771C190.667 203.433 191.271 203.264 191.96 203.264C192.358 203.264 192.75 203.33 193.138 203.463C193.526 203.596 193.879 203.811 194.197 204.109C194.515 204.404 194.769 204.795 194.958 205.283C195.147 205.77 195.241 206.37 195.241 207.082V207.58H189.355V206.565H194.048C194.048 206.134 193.962 205.75 193.79 205.412C193.62 205.074 193.379 204.807 193.064 204.612C192.752 204.416 192.384 204.318 191.96 204.318C191.493 204.318 191.088 204.434 190.747 204.666C190.409 204.895 190.149 205.193 189.966 205.561C189.784 205.929 189.693 206.323 189.693 206.744V207.42C189.693 207.997 189.792 208.486 189.991 208.887C190.193 209.285 190.473 209.588 190.831 209.797C191.189 210.002 191.605 210.105 192.079 210.105C192.388 210.105 192.666 210.062 192.915 209.976C193.166 209.886 193.383 209.754 193.566 209.578C193.748 209.399 193.889 209.177 193.988 208.912L195.122 209.23C195.003 209.615 194.802 209.953 194.52 210.244C194.239 210.533 193.891 210.758 193.476 210.92C193.062 211.08 192.596 211.159 192.079 211.159ZM202.137 200.818V211H200.964V200.818H202.137ZM207.388 211.159C206.699 211.159 206.094 210.995 205.573 210.667C205.056 210.339 204.652 209.88 204.36 209.29C204.072 208.7 203.928 208.01 203.928 207.222C203.928 206.426 204.072 205.732 204.36 205.138C204.652 204.545 205.056 204.085 205.573 203.756C206.094 203.428 206.699 203.264 207.388 203.264C208.077 203.264 208.681 203.428 209.198 203.756C209.718 204.085 210.122 204.545 210.411 205.138C210.702 205.732 210.848 206.426 210.848 207.222C210.848 208.01 210.702 208.7 210.411 209.29C210.122 209.88 209.718 210.339 209.198 210.667C208.681 210.995 208.077 211.159 207.388 211.159ZM207.388 210.105C207.912 210.105 208.343 209.971 208.681 209.702C209.019 209.434 209.269 209.081 209.431 208.643C209.594 208.206 209.675 207.732 209.675 207.222C209.675 206.711 209.594 206.236 209.431 205.795C209.269 205.354 209.019 204.998 208.681 204.726C208.343 204.454 207.912 204.318 207.388 204.318C206.864 204.318 206.434 204.454 206.095 204.726C205.757 204.998 205.507 205.354 205.345 205.795C205.182 206.236 205.101 206.711 205.101 207.222C205.101 207.732 205.182 208.206 205.345 208.643C205.507 209.081 205.757 209.434 206.095 209.702C206.434 209.971 206.864 210.105 207.388 210.105ZM215.742 211.159C215.052 211.159 214.447 210.995 213.927 210.667C213.41 210.339 213.006 209.88 212.714 209.29C212.426 208.7 212.281 208.01 212.281 207.222C212.281 206.426 212.426 205.732 212.714 205.138C213.006 204.545 213.41 204.085 213.927 203.756C214.447 203.428 215.052 203.264 215.742 203.264C216.431 203.264 217.034 203.428 217.551 203.756C218.072 204.085 218.476 204.545 218.764 205.138C219.056 205.732 219.202 206.426 219.202 207.222C219.202 208.01 219.056 208.7 218.764 209.29C218.476 209.88 218.072 210.339 217.551 210.667C217.034 210.995 216.431 211.159 215.742 211.159ZM215.742 210.105C216.265 210.105 216.696 209.971 217.034 209.702C217.372 209.434 217.622 209.081 217.785 208.643C217.947 208.206 218.028 207.732 218.028 207.222C218.028 206.711 217.947 206.236 217.785 205.795C217.622 205.354 217.372 204.998 217.034 204.726C216.696 204.454 216.265 204.318 215.742 204.318C215.218 204.318 214.787 204.454 214.449 204.726C214.111 204.998 213.861 205.354 213.698 205.795C213.536 206.236 213.455 206.711 213.455 207.222C213.455 207.732 213.536 208.206 213.698 208.643C213.861 209.081 214.111 209.434 214.449 209.702C214.787 209.971 215.218 210.105 215.742 210.105ZM220.993 213.864V203.364H222.126V204.577H222.266C222.352 204.444 222.471 204.275 222.623 204.07C222.779 203.861 223.001 203.675 223.29 203.513C223.581 203.347 223.976 203.264 224.473 203.264C225.116 203.264 225.683 203.425 226.173 203.746C226.664 204.068 227.047 204.524 227.322 205.114C227.597 205.704 227.734 206.4 227.734 207.202C227.734 208.01 227.597 208.711 227.322 209.305C227.047 209.895 226.665 210.352 226.178 210.677C225.691 210.998 225.129 211.159 224.493 211.159C224.002 211.159 223.61 211.078 223.315 210.915C223.02 210.75 222.793 210.562 222.633 210.354C222.474 210.142 222.352 209.966 222.266 209.827H222.166V213.864H220.993ZM222.146 207.182C222.146 207.759 222.231 208.267 222.4 208.708C222.569 209.146 222.816 209.489 223.141 209.737C223.465 209.982 223.863 210.105 224.334 210.105C224.824 210.105 225.234 209.976 225.562 209.717C225.893 209.455 226.142 209.104 226.307 208.663C226.476 208.219 226.561 207.725 226.561 207.182C226.561 206.645 226.478 206.161 226.312 205.73C226.15 205.296 225.903 204.953 225.572 204.701C225.244 204.446 224.831 204.318 224.334 204.318C223.856 204.318 223.455 204.439 223.131 204.681C222.806 204.92 222.561 205.254 222.395 205.685C222.229 206.113 222.146 206.612 222.146 207.182ZM232.845 203.364V204.358H228.888V203.364H232.845ZM230.041 201.534H231.214V208.812C231.214 209.144 231.262 209.393 231.359 209.558C231.458 209.721 231.584 209.83 231.736 209.886C231.892 209.939 232.056 209.966 232.229 209.966C232.358 209.966 232.464 209.959 232.547 209.946C232.63 209.929 232.696 209.916 232.746 209.906L232.984 210.96C232.905 210.99 232.794 211.02 232.651 211.05C232.509 211.083 232.328 211.099 232.109 211.099C231.778 211.099 231.453 211.028 231.135 210.886C230.82 210.743 230.558 210.526 230.349 210.234C230.144 209.943 230.041 209.575 230.041 209.131V201.534ZM240.795 211.179C240.311 211.179 239.872 211.088 239.477 210.906C239.083 210.72 238.77 210.453 238.538 210.105C238.306 209.754 238.19 209.33 238.19 208.832C238.19 208.395 238.276 208.04 238.448 207.768C238.62 207.493 238.851 207.278 239.139 207.122C239.427 206.966 239.746 206.85 240.094 206.774C240.445 206.695 240.798 206.632 241.153 206.585C241.617 206.526 241.993 206.481 242.281 206.451C242.573 206.418 242.785 206.363 242.918 206.287C243.053 206.211 243.121 206.078 243.121 205.889V205.849C243.121 205.359 242.987 204.978 242.719 204.706C242.454 204.434 242.051 204.298 241.511 204.298C240.95 204.298 240.511 204.421 240.193 204.666C239.875 204.911 239.651 205.173 239.522 205.452L238.408 205.054C238.607 204.59 238.872 204.229 239.204 203.97C239.539 203.708 239.903 203.526 240.297 203.423C240.695 203.317 241.086 203.264 241.471 203.264C241.716 203.264 241.998 203.294 242.316 203.354C242.637 203.41 242.947 203.528 243.246 203.707C243.547 203.886 243.797 204.156 243.996 204.517C244.195 204.878 244.295 205.362 244.295 205.969V211H243.121V209.966H243.062C242.982 210.132 242.85 210.309 242.664 210.498C242.478 210.687 242.231 210.848 241.923 210.98C241.615 211.113 241.239 211.179 240.795 211.179ZM240.974 210.125C241.438 210.125 241.829 210.034 242.147 209.852C242.468 209.669 242.71 209.434 242.873 209.146C243.039 208.857 243.121 208.554 243.121 208.236V207.162C243.072 207.222 242.962 207.276 242.793 207.326C242.628 207.372 242.435 207.414 242.217 207.45C242.001 207.483 241.791 207.513 241.585 207.54C241.383 207.563 241.219 207.583 241.093 207.599C240.788 207.639 240.503 207.704 240.238 207.793C239.976 207.879 239.764 208.01 239.601 208.186C239.442 208.358 239.363 208.594 239.363 208.892C239.363 209.3 239.514 209.608 239.815 209.817C240.12 210.022 240.506 210.125 240.974 210.125ZM247.609 200.818V211H246.436V200.818H247.609ZM253.079 203.364V204.358H249.122V203.364H253.079ZM250.275 201.534H251.449V208.812C251.449 209.144 251.497 209.393 251.593 209.558C251.692 209.721 251.818 209.83 251.971 209.886C252.127 209.939 252.291 209.966 252.463 209.966C252.592 209.966 252.698 209.959 252.781 209.946C252.864 209.929 252.93 209.916 252.98 209.906L253.219 210.96C253.139 210.99 253.028 211.02 252.886 211.05C252.743 211.083 252.562 211.099 252.344 211.099C252.012 211.099 251.687 211.028 251.369 210.886C251.054 210.743 250.793 210.526 250.584 210.234C250.378 209.943 250.275 209.575 250.275 209.131V201.534ZM254.844 211V203.364H256.018V211H254.844ZM255.441 202.091C255.212 202.091 255.015 202.013 254.849 201.857C254.687 201.701 254.606 201.514 254.606 201.295C254.606 201.077 254.687 200.889 254.849 200.734C255.015 200.578 255.212 200.5 255.441 200.5C255.67 200.5 255.865 200.578 256.028 200.734C256.193 200.889 256.276 201.077 256.276 201.295C256.276 201.514 256.193 201.701 256.028 201.857C255.865 202.013 255.67 202.091 255.441 202.091ZM258.167 203.364H259.34V211.557C259.34 212.027 259.259 212.435 259.096 212.78C258.937 213.125 258.695 213.391 258.37 213.58C258.049 213.769 257.643 213.864 257.152 213.864C257.113 213.864 257.073 213.864 257.033 213.864C256.993 213.864 256.954 213.864 256.914 213.864V212.77C256.954 212.77 256.99 212.77 257.023 212.77C257.056 212.77 257.093 212.77 257.133 212.77C257.491 212.77 257.752 212.664 257.918 212.452C258.084 212.243 258.167 211.945 258.167 211.557V203.364ZM258.743 202.091C258.515 202.091 258.317 202.013 258.152 201.857C257.989 201.701 257.908 201.514 257.908 201.295C257.908 201.077 257.989 200.889 258.152 200.734C258.317 200.578 258.515 200.5 258.743 200.5C258.972 200.5 259.168 200.578 259.33 200.734C259.496 200.889 259.579 201.077 259.579 201.295C259.579 201.514 259.496 201.701 259.33 201.857C259.168 202.013 258.972 202.091 258.743 202.091ZM264.372 211.159C263.736 211.159 263.174 210.998 262.687 210.677C262.2 210.352 261.819 209.895 261.544 209.305C261.268 208.711 261.131 208.01 261.131 207.202C261.131 206.4 261.268 205.704 261.544 205.114C261.819 204.524 262.201 204.068 262.692 203.746C263.183 203.425 263.749 203.264 264.392 203.264C264.889 203.264 265.282 203.347 265.571 203.513C265.862 203.675 266.084 203.861 266.237 204.07C266.393 204.275 266.514 204.444 266.6 204.577H266.699V200.818H267.872V211H266.739V209.827H266.6C266.514 209.966 266.391 210.142 266.232 210.354C266.073 210.562 265.846 210.75 265.551 210.915C265.256 211.078 264.863 211.159 264.372 211.159ZM264.532 210.105C265.002 210.105 265.4 209.982 265.725 209.737C266.05 209.489 266.296 209.146 266.465 208.708C266.634 208.267 266.719 207.759 266.719 207.182C266.719 206.612 266.636 206.113 266.47 205.685C266.305 205.254 266.059 204.92 265.735 204.681C265.41 204.439 265.009 204.318 264.532 204.318C264.034 204.318 263.62 204.446 263.289 204.701C262.96 204.953 262.714 205.296 262.548 205.73C262.385 206.161 262.304 206.645 262.304 207.182C262.304 207.725 262.387 208.219 262.553 208.663C262.722 209.104 262.97 209.455 263.299 209.717C263.63 209.976 264.041 210.105 264.532 210.105ZM277.323 211.159C276.588 211.159 275.953 210.997 275.419 210.672C274.889 210.344 274.48 209.886 274.191 209.3C273.906 208.71 273.764 208.024 273.764 207.241C273.764 206.459 273.906 205.77 274.191 205.173C274.48 204.573 274.881 204.106 275.394 203.771C275.911 203.433 276.515 203.264 277.204 203.264C277.602 203.264 277.995 203.33 278.382 203.463C278.77 203.596 279.123 203.811 279.441 204.109C279.759 204.404 280.013 204.795 280.202 205.283C280.391 205.77 280.485 206.37 280.485 207.082V207.58H274.599V206.565H279.292C279.292 206.134 279.206 205.75 279.034 205.412C278.865 205.074 278.623 204.807 278.308 204.612C277.996 204.416 277.628 204.318 277.204 204.318C276.737 204.318 276.332 204.434 275.991 204.666C275.653 204.895 275.393 205.193 275.21 205.561C275.028 205.929 274.937 206.323 274.937 206.744V207.42C274.937 207.997 275.036 208.486 275.235 208.887C275.438 209.285 275.718 209.588 276.076 209.797C276.434 210.002 276.849 210.105 277.323 210.105C277.632 210.105 277.91 210.062 278.159 209.976C278.411 209.886 278.628 209.754 278.81 209.578C278.992 209.399 279.133 209.177 279.233 208.912L280.366 209.23C280.247 209.615 280.046 209.953 279.764 210.244C279.483 210.533 279.135 210.758 278.72 210.92C278.306 211.08 277.84 211.159 277.323 211.159ZM285.472 211.159C284.736 211.159 284.101 210.997 283.568 210.672C283.037 210.344 282.628 209.886 282.34 209.3C282.055 208.71 281.912 208.024 281.912 207.241C281.912 206.459 282.055 205.77 282.34 205.173C282.628 204.573 283.029 204.106 283.543 203.771C284.06 203.433 284.663 203.264 285.353 203.264C285.75 203.264 286.143 203.33 286.531 203.463C286.919 203.596 287.272 203.811 287.59 204.109C287.908 204.404 288.161 204.795 288.35 205.283C288.539 205.77 288.634 206.37 288.634 207.082V207.58H282.747V206.565H287.441C287.441 206.134 287.354 205.75 287.182 205.412C287.013 205.074 286.771 204.807 286.456 204.612C286.145 204.416 285.777 204.318 285.353 204.318C284.885 204.318 284.481 204.434 284.139 204.666C283.801 204.895 283.541 205.193 283.359 205.561C283.177 205.929 283.085 206.323 283.085 206.744V207.42C283.085 207.997 283.185 208.486 283.384 208.887C283.586 209.285 283.866 209.588 284.224 209.797C284.582 210.002 284.998 210.105 285.472 210.105C285.78 210.105 286.059 210.062 286.307 209.976C286.559 209.886 286.776 209.754 286.958 209.578C287.141 209.399 287.282 209.177 287.381 208.912L288.514 209.23C288.395 209.615 288.195 209.953 287.913 210.244C287.631 210.533 287.283 210.758 286.869 210.92C286.455 211.08 285.989 211.159 285.472 211.159ZM291.592 206.406V211H290.419V203.364H291.552V204.557H291.652C291.831 204.169 292.102 203.857 292.467 203.622C292.831 203.384 293.302 203.264 293.879 203.264C294.396 203.264 294.848 203.37 295.236 203.582C295.624 203.791 295.925 204.109 296.141 204.537C296.356 204.961 296.464 205.498 296.464 206.148V211H295.291V206.227C295.291 205.627 295.135 205.16 294.823 204.825C294.512 204.487 294.084 204.318 293.541 204.318C293.166 204.318 292.831 204.399 292.536 204.562C292.245 204.724 292.014 204.961 291.845 205.273C291.676 205.584 291.592 205.962 291.592 206.406ZM307.955 205.074L306.901 205.372C306.834 205.196 306.737 205.026 306.607 204.86C306.481 204.691 306.309 204.552 306.09 204.442C305.872 204.333 305.591 204.278 305.25 204.278C304.783 204.278 304.393 204.386 304.082 204.602C303.774 204.814 303.619 205.084 303.619 205.412C303.619 205.704 303.725 205.934 303.938 206.103C304.15 206.272 304.481 206.413 304.932 206.526L306.065 206.804C306.748 206.97 307.257 207.223 307.592 207.565C307.926 207.903 308.094 208.339 308.094 208.872C308.094 209.31 307.968 209.701 307.716 210.045C307.467 210.39 307.119 210.662 306.672 210.861C306.225 211.06 305.704 211.159 305.111 211.159C304.332 211.159 303.687 210.99 303.177 210.652C302.667 210.314 302.343 209.82 302.207 209.17L303.321 208.892C303.427 209.303 303.628 209.611 303.923 209.817C304.221 210.022 304.61 210.125 305.091 210.125C305.638 210.125 306.072 210.009 306.394 209.777C306.718 209.542 306.881 209.26 306.881 208.932C306.881 208.667 306.788 208.445 306.602 208.266C306.417 208.083 306.132 207.947 305.747 207.858L304.475 207.56C303.775 207.394 303.261 207.137 302.933 206.789C302.609 206.438 302.446 205.999 302.446 205.472C302.446 205.041 302.567 204.66 302.809 204.328C303.054 203.997 303.387 203.737 303.808 203.548C304.233 203.359 304.713 203.264 305.25 203.264C306.006 203.264 306.599 203.43 307.03 203.761C307.464 204.093 307.772 204.53 307.955 205.074ZM313.181 203.364V204.358H309.224V203.364H313.181ZM310.377 201.534H311.55V208.812C311.55 209.144 311.598 209.393 311.695 209.558C311.794 209.721 311.92 209.83 312.072 209.886C312.228 209.939 312.392 209.966 312.565 209.966C312.694 209.966 312.8 209.959 312.883 209.946C312.966 209.929 313.032 209.916 313.082 209.906L313.32 210.96C313.241 210.99 313.13 211.02 312.987 211.05C312.845 211.083 312.664 211.099 312.445 211.099C312.114 211.099 311.789 211.028 311.471 210.886C311.156 210.743 310.894 210.526 310.685 210.234C310.48 209.943 310.377 209.575 310.377 209.131V201.534ZM317.193 211.179C316.709 211.179 316.27 211.088 315.876 210.906C315.481 210.72 315.168 210.453 314.936 210.105C314.704 209.754 314.588 209.33 314.588 208.832C314.588 208.395 314.674 208.04 314.847 207.768C315.019 207.493 315.249 207.278 315.538 207.122C315.826 206.966 316.144 206.85 316.492 206.774C316.843 206.695 317.196 206.632 317.551 206.585C318.015 206.526 318.391 206.481 318.68 206.451C318.971 206.418 319.183 206.363 319.316 206.287C319.452 206.211 319.52 206.078 319.52 205.889V205.849C319.52 205.359 319.386 204.978 319.117 204.706C318.852 204.434 318.449 204.298 317.909 204.298C317.349 204.298 316.91 204.421 316.592 204.666C316.273 204.911 316.05 205.173 315.92 205.452L314.807 205.054C315.006 204.59 315.271 204.229 315.602 203.97C315.937 203.708 316.302 203.526 316.696 203.423C317.094 203.317 317.485 203.264 317.869 203.264C318.114 203.264 318.396 203.294 318.714 203.354C319.036 203.41 319.346 203.528 319.644 203.707C319.946 203.886 320.196 204.156 320.395 204.517C320.594 204.878 320.693 205.362 320.693 205.969V211H319.52V209.966H319.46C319.381 210.132 319.248 210.309 319.062 210.498C318.877 210.687 318.63 210.848 318.322 210.98C318.013 211.113 317.637 211.179 317.193 211.179ZM317.372 210.125C317.836 210.125 318.227 210.034 318.545 209.852C318.867 209.669 319.109 209.434 319.271 209.146C319.437 208.857 319.52 208.554 319.52 208.236V207.162C319.47 207.222 319.361 207.276 319.192 207.326C319.026 207.372 318.834 207.414 318.615 207.45C318.4 207.483 318.189 207.513 317.984 207.54C317.781 207.563 317.617 207.583 317.491 207.599C317.186 207.639 316.901 207.704 316.636 207.793C316.374 207.879 316.162 208.01 316 208.186C315.841 208.358 315.761 208.594 315.761 208.892C315.761 209.3 315.912 209.608 316.214 209.817C316.519 210.022 316.905 210.125 317.372 210.125ZM322.835 213.864V203.364H323.968V204.577H324.107C324.194 204.444 324.313 204.275 324.465 204.07C324.621 203.861 324.843 203.675 325.131 203.513C325.423 203.347 325.818 203.264 326.315 203.264C326.958 203.264 327.524 203.425 328.015 203.746C328.506 204.068 328.888 204.524 329.163 205.114C329.439 205.704 329.576 206.4 329.576 207.202C329.576 208.01 329.439 208.711 329.163 209.305C328.888 209.895 328.507 210.352 328.02 210.677C327.533 210.998 326.971 211.159 326.335 211.159C325.844 211.159 325.451 211.078 325.156 210.915C324.861 210.75 324.634 210.562 324.475 210.354C324.316 210.142 324.194 209.966 324.107 209.827H324.008V213.864H322.835ZM323.988 207.182C323.988 207.759 324.073 208.267 324.242 208.708C324.411 209.146 324.658 209.489 324.982 209.737C325.307 209.982 325.705 210.105 326.176 210.105C326.666 210.105 327.075 209.976 327.403 209.717C327.735 209.455 327.984 209.104 328.149 208.663C328.318 208.219 328.403 207.725 328.403 207.182C328.403 206.645 328.32 206.161 328.154 205.73C327.992 205.296 327.745 204.953 327.413 204.701C327.085 204.446 326.673 204.318 326.176 204.318C325.698 204.318 325.297 204.439 324.972 204.681C324.648 204.92 324.402 205.254 324.237 205.685C324.071 206.113 323.988 206.612 323.988 207.182ZM331.366 203.364H332.539V211.557C332.539 212.027 332.458 212.435 332.296 212.78C332.136 213.125 331.895 213.391 331.57 213.58C331.248 213.769 330.842 213.864 330.352 213.864C330.312 213.864 330.272 213.864 330.232 213.864C330.193 213.864 330.153 213.864 330.113 213.864V212.77C330.153 212.77 330.189 212.77 330.222 212.77C330.256 212.77 330.292 212.77 330.332 212.77C330.69 212.77 330.952 212.664 331.117 212.452C331.283 212.243 331.366 211.945 331.366 211.557V203.364ZM331.943 202.091C331.714 202.091 331.517 202.013 331.351 201.857C331.189 201.701 331.107 201.514 331.107 201.295C331.107 201.077 331.189 200.889 331.351 200.734C331.517 200.578 331.714 200.5 331.943 200.5C332.171 200.5 332.367 200.578 332.529 200.734C332.695 200.889 332.778 201.077 332.778 201.295C332.778 201.514 332.695 201.701 332.529 201.857C332.367 202.013 332.171 202.091 331.943 202.091ZM337.89 211.159C337.154 211.159 336.519 210.997 335.986 210.672C335.455 210.344 335.046 209.886 334.758 209.3C334.473 208.71 334.33 208.024 334.33 207.241C334.33 206.459 334.473 205.77 334.758 205.173C335.046 204.573 335.447 204.106 335.961 203.771C336.478 203.433 337.081 203.264 337.771 203.264C338.168 203.264 338.561 203.33 338.949 203.463C339.337 203.596 339.69 203.811 340.008 204.109C340.326 204.404 340.579 204.795 340.768 205.283C340.957 205.77 341.052 206.37 341.052 207.082V207.58H335.165V206.565H339.859C339.859 206.134 339.772 205.75 339.6 205.412C339.431 205.074 339.189 204.807 338.874 204.612C338.563 204.416 338.195 204.318 337.771 204.318C337.303 204.318 336.899 204.434 336.557 204.666C336.219 204.895 335.959 205.193 335.777 205.561C335.595 205.929 335.503 206.323 335.503 206.744V207.42C335.503 207.997 335.603 208.486 335.802 208.887C336.004 209.285 336.284 209.588 336.642 209.797C337 210.002 337.416 210.105 337.89 210.105C338.198 210.105 338.476 210.062 338.725 209.976C338.977 209.886 339.194 209.754 339.376 209.578C339.559 209.399 339.699 209.177 339.799 208.912L340.932 209.23C340.813 209.615 340.613 209.953 340.331 210.244C340.049 210.533 339.701 210.758 339.287 210.92C338.873 211.08 338.407 211.159 337.89 211.159ZM172.139 224.364L169.316 232H168.122L165.299 224.364H166.571L168.679 230.449H168.759L170.867 224.364H172.139ZM176.517 232.159C175.828 232.159 175.223 231.995 174.702 231.667C174.185 231.339 173.781 230.88 173.489 230.29C173.201 229.7 173.057 229.01 173.057 228.222C173.057 227.426 173.201 226.732 173.489 226.138C173.781 225.545 174.185 225.085 174.702 224.756C175.223 224.428 175.828 224.264 176.517 224.264C177.206 224.264 177.81 224.428 178.327 224.756C178.847 225.085 179.251 225.545 179.54 226.138C179.831 226.732 179.977 227.426 179.977 228.222C179.977 229.01 179.831 229.7 179.54 230.29C179.251 230.88 178.847 231.339 178.327 231.667C177.81 231.995 177.206 232.159 176.517 232.159ZM176.517 231.105C177.041 231.105 177.472 230.971 177.81 230.702C178.148 230.434 178.398 230.081 178.56 229.643C178.723 229.206 178.804 228.732 178.804 228.222C178.804 227.711 178.723 227.236 178.56 226.795C178.398 226.354 178.148 225.998 177.81 225.726C177.472 225.454 177.041 225.318 176.517 225.318C175.993 225.318 175.562 225.454 175.224 225.726C174.886 225.998 174.636 226.354 174.474 226.795C174.311 227.236 174.23 227.711 174.23 228.222C174.23 228.732 174.311 229.206 174.474 229.643C174.636 230.081 174.886 230.434 175.224 230.702C175.562 230.971 175.993 231.105 176.517 231.105ZM184.87 232.159C184.181 232.159 183.576 231.995 183.056 231.667C182.539 231.339 182.134 230.88 181.843 230.29C181.554 229.7 181.41 229.01 181.41 228.222C181.41 227.426 181.554 226.732 181.843 226.138C182.134 225.545 182.539 225.085 183.056 224.756C183.576 224.428 184.181 224.264 184.87 224.264C185.56 224.264 186.163 224.428 186.68 224.756C187.2 225.085 187.605 225.545 187.893 226.138C188.185 226.732 188.331 227.426 188.331 228.222C188.331 229.01 188.185 229.7 187.893 230.29C187.605 230.88 187.2 231.339 186.68 231.667C186.163 231.995 185.56 232.159 184.87 232.159ZM184.87 231.105C185.394 231.105 185.825 230.971 186.163 230.702C186.501 230.434 186.751 230.081 186.914 229.643C187.076 229.206 187.157 228.732 187.157 228.222C187.157 227.711 187.076 227.236 186.914 226.795C186.751 226.354 186.501 225.998 186.163 225.726C185.825 225.454 185.394 225.318 184.87 225.318C184.347 225.318 183.916 225.454 183.578 225.726C183.24 225.998 182.99 226.354 182.827 226.795C182.665 227.236 182.584 227.711 182.584 228.222C182.584 228.732 182.665 229.206 182.827 229.643C182.99 230.081 183.24 230.434 183.578 230.702C183.916 230.971 184.347 231.105 184.87 231.105ZM190.122 232V224.364H191.255V225.517H191.335C191.474 225.139 191.726 224.833 192.09 224.597C192.455 224.362 192.866 224.244 193.323 224.244C193.41 224.244 193.517 224.246 193.647 224.249C193.776 224.253 193.874 224.258 193.94 224.264V225.457C193.9 225.447 193.809 225.433 193.666 225.413C193.527 225.389 193.38 225.378 193.224 225.378C192.853 225.378 192.521 225.456 192.23 225.612C191.941 225.764 191.713 225.976 191.544 226.248C191.378 226.516 191.295 226.823 191.295 227.168V232H190.122ZM202.37 232.159C201.681 232.159 201.076 231.995 200.556 231.667C200.039 231.339 199.634 230.88 199.343 230.29C199.054 229.7 198.91 229.01 198.91 228.222C198.91 227.426 199.054 226.732 199.343 226.138C199.634 225.545 200.039 225.085 200.556 224.756C201.076 224.428 201.681 224.264 202.37 224.264C203.06 224.264 203.663 224.428 204.18 224.756C204.7 225.085 205.105 225.545 205.393 226.138C205.685 226.732 205.831 227.426 205.831 228.222C205.831 229.01 205.685 229.7 205.393 230.29C205.105 230.88 204.7 231.339 204.18 231.667C203.663 231.995 203.06 232.159 202.37 232.159ZM202.37 231.105C202.894 231.105 203.325 230.971 203.663 230.702C204.001 230.434 204.251 230.081 204.414 229.643C204.576 229.206 204.657 228.732 204.657 228.222C204.657 227.711 204.576 227.236 204.414 226.795C204.251 226.354 204.001 225.998 203.663 225.726C203.325 225.454 202.894 225.318 202.37 225.318C201.847 225.318 201.416 225.454 201.078 225.726C200.74 225.998 200.49 226.354 200.327 226.795C200.165 227.236 200.084 227.711 200.084 228.222C200.084 228.732 200.165 229.206 200.327 229.643C200.49 230.081 200.74 230.434 201.078 230.702C201.416 230.971 201.847 231.105 202.37 231.105ZM207.622 234.864V224.364H208.755V225.577H208.894C208.981 225.444 209.1 225.275 209.252 225.07C209.408 224.861 209.63 224.675 209.919 224.513C210.21 224.347 210.605 224.264 211.102 224.264C211.745 224.264 212.312 224.425 212.802 224.746C213.293 225.068 213.675 225.524 213.951 226.114C214.226 226.704 214.363 227.4 214.363 228.202C214.363 229.01 214.226 229.711 213.951 230.305C213.675 230.895 213.294 231.352 212.807 231.677C212.32 231.998 211.758 232.159 211.122 232.159C210.631 232.159 210.238 232.078 209.943 231.915C209.648 231.75 209.421 231.562 209.262 231.354C209.103 231.142 208.981 230.966 208.894 230.827H208.795V234.864H207.622ZM208.775 228.182C208.775 228.759 208.86 229.267 209.029 229.708C209.198 230.146 209.445 230.489 209.769 230.737C210.094 230.982 210.492 231.105 210.963 231.105C211.453 231.105 211.862 230.976 212.191 230.717C212.522 230.455 212.771 230.104 212.936 229.663C213.105 229.219 213.19 228.725 213.19 228.182C213.19 227.645 213.107 227.161 212.941 226.73C212.779 226.296 212.532 225.953 212.201 225.701C211.872 225.446 211.46 225.318 210.963 225.318C210.485 225.318 210.084 225.439 209.759 225.681C209.435 225.92 209.189 226.254 209.024 226.685C208.858 227.113 208.775 227.612 208.775 228.182ZM222.974 232.159C222.338 232.159 221.776 231.998 221.289 231.677C220.801 231.352 220.42 230.895 220.145 230.305C219.87 229.711 219.733 229.01 219.733 228.202C219.733 227.4 219.87 226.704 220.145 226.114C220.42 225.524 220.803 225.068 221.294 224.746C221.784 224.425 222.351 224.264 222.994 224.264C223.491 224.264 223.884 224.347 224.172 224.513C224.464 224.675 224.686 224.861 224.838 225.07C224.994 225.275 225.115 225.444 225.201 225.577H225.301V221.818H226.474V232H225.34V230.827H225.201C225.115 230.966 224.992 231.142 224.833 231.354C224.674 231.562 224.447 231.75 224.152 231.915C223.857 232.078 223.465 232.159 222.974 232.159ZM223.133 231.105C223.604 231.105 224.001 230.982 224.326 230.737C224.651 230.489 224.898 230.146 225.067 229.708C225.236 229.267 225.321 228.759 225.321 228.182C225.321 227.612 225.238 227.113 225.072 226.685C224.906 226.254 224.661 225.92 224.336 225.681C224.011 225.439 223.61 225.318 223.133 225.318C222.636 225.318 222.222 225.446 221.89 225.701C221.562 225.953 221.315 226.296 221.149 226.73C220.987 227.161 220.906 227.645 220.906 228.182C220.906 228.725 220.989 229.219 221.154 229.663C221.323 230.104 221.572 230.455 221.9 230.717C222.232 230.976 222.643 231.105 223.133 231.105ZM231.987 232.159C231.252 232.159 230.617 231.997 230.083 231.672C229.553 231.344 229.144 230.886 228.855 230.3C228.57 229.71 228.428 229.024 228.428 228.241C228.428 227.459 228.57 226.77 228.855 226.173C229.144 225.573 229.545 225.106 230.059 224.771C230.576 224.433 231.179 224.264 231.868 224.264C232.266 224.264 232.659 224.33 233.046 224.463C233.434 224.596 233.787 224.811 234.105 225.109C234.424 225.404 234.677 225.795 234.866 226.283C235.055 226.77 235.149 227.37 235.149 228.082V228.58H229.263V227.565H233.956C233.956 227.134 233.87 226.75 233.698 226.412C233.529 226.074 233.287 225.807 232.972 225.612C232.66 225.416 232.292 225.318 231.868 225.318C231.401 225.318 230.996 225.434 230.655 225.666C230.317 225.895 230.057 226.193 229.875 226.561C229.692 226.929 229.601 227.323 229.601 227.744V228.42C229.601 228.997 229.701 229.486 229.899 229.887C230.102 230.285 230.382 230.588 230.74 230.797C231.098 231.002 231.514 231.105 231.987 231.105C232.296 231.105 232.574 231.062 232.823 230.976C233.075 230.886 233.292 230.754 233.474 230.578C233.656 230.399 233.797 230.177 233.897 229.912L235.03 230.23C234.911 230.615 234.71 230.953 234.429 231.244C234.147 231.533 233.799 231.758 233.384 231.92C232.97 232.08 232.505 232.159 231.987 232.159ZM240.872 232V224.364H242.005V225.517H242.085C242.224 225.139 242.476 224.833 242.84 224.597C243.205 224.362 243.616 224.244 244.073 224.244C244.16 224.244 244.267 224.246 244.397 224.249C244.526 224.253 244.624 224.258 244.69 224.264V225.457C244.65 225.447 244.559 225.433 244.416 225.413C244.277 225.389 244.13 225.378 243.974 225.378C243.603 225.378 243.271 225.456 242.98 225.612C242.691 225.764 242.463 225.976 242.294 226.248C242.128 226.516 242.045 226.823 242.045 227.168V232H240.872ZM249.05 232.159C248.314 232.159 247.679 231.997 247.146 231.672C246.616 231.344 246.206 230.886 245.918 230.3C245.633 229.71 245.49 229.024 245.49 228.241C245.49 227.459 245.633 226.77 245.918 226.173C246.206 225.573 246.607 225.106 247.121 224.771C247.638 224.433 248.241 224.264 248.931 224.264C249.328 224.264 249.721 224.33 250.109 224.463C250.497 224.596 250.85 224.811 251.168 225.109C251.486 225.404 251.74 225.795 251.929 226.283C252.117 226.77 252.212 227.37 252.212 228.082V228.58H246.326V227.565H251.019C251.019 227.134 250.933 226.75 250.76 226.412C250.591 226.074 250.349 225.807 250.034 225.612C249.723 225.416 249.355 225.318 248.931 225.318C248.463 225.318 248.059 225.434 247.718 225.666C247.38 225.895 247.119 226.193 246.937 226.561C246.755 226.929 246.664 227.323 246.664 227.744V228.42C246.664 228.997 246.763 229.486 246.962 229.887C247.164 230.285 247.444 230.588 247.802 230.797C248.16 231.002 248.576 231.105 249.05 231.105C249.358 231.105 249.637 231.062 249.885 230.976C250.137 230.886 250.354 230.754 250.536 230.578C250.719 230.399 250.86 230.177 250.959 229.912L252.093 230.23C251.973 230.615 251.773 230.953 251.491 231.244C251.209 231.533 250.861 231.758 250.447 231.92C250.033 232.08 249.567 232.159 249.05 232.159ZM259.406 226.074L258.352 226.372C258.286 226.196 258.188 226.026 258.059 225.86C257.933 225.691 257.76 225.552 257.541 225.442C257.323 225.333 257.043 225.278 256.701 225.278C256.234 225.278 255.844 225.386 255.533 225.602C255.225 225.814 255.071 226.084 255.071 226.412C255.071 226.704 255.177 226.934 255.389 227.103C255.601 227.272 255.932 227.413 256.383 227.526L257.517 227.804C258.199 227.97 258.708 228.223 259.043 228.565C259.378 228.903 259.545 229.339 259.545 229.872C259.545 230.31 259.419 230.701 259.167 231.045C258.919 231.39 258.571 231.662 258.123 231.861C257.676 232.06 257.155 232.159 256.562 232.159C255.783 232.159 255.139 231.99 254.628 231.652C254.118 231.314 253.795 230.82 253.659 230.17L254.772 229.892C254.878 230.303 255.079 230.611 255.374 230.817C255.672 231.022 256.062 231.125 256.542 231.125C257.089 231.125 257.523 231.009 257.845 230.777C258.17 230.542 258.332 230.26 258.332 229.932C258.332 229.667 258.239 229.445 258.054 229.266C257.868 229.083 257.583 228.947 257.198 228.858L255.926 228.56C255.226 228.394 254.713 228.137 254.384 227.789C254.06 227.438 253.897 226.999 253.897 226.472C253.897 226.041 254.018 225.66 254.26 225.328C254.505 224.997 254.839 224.737 255.259 224.548C255.684 224.359 256.164 224.264 256.701 224.264C257.457 224.264 258.05 224.43 258.481 224.761C258.915 225.093 259.224 225.53 259.406 226.074ZM264.632 224.364V225.358H260.675V224.364H264.632ZM261.828 222.534H263.002V229.812C263.002 230.144 263.05 230.393 263.146 230.558C263.245 230.721 263.371 230.83 263.524 230.886C263.679 230.939 263.843 230.966 264.016 230.966C264.145 230.966 264.251 230.959 264.334 230.946C264.417 230.929 264.483 230.916 264.533 230.906L264.771 231.96C264.692 231.99 264.581 232.02 264.438 232.05C264.296 232.083 264.115 232.099 263.896 232.099C263.565 232.099 263.24 232.028 262.922 231.886C262.607 231.743 262.345 231.526 262.136 231.234C261.931 230.943 261.828 230.575 261.828 230.131V222.534ZM267.252 232.08C267.007 232.08 266.796 231.992 266.621 231.816C266.445 231.64 266.357 231.43 266.357 231.185C266.357 230.939 266.445 230.729 266.621 230.553C266.796 230.378 267.007 230.29 267.252 230.29C267.497 230.29 267.708 230.378 267.884 230.553C268.059 230.729 268.147 230.939 268.147 231.185C268.147 231.347 268.106 231.496 268.023 231.632C267.943 231.768 267.836 231.877 267.7 231.96C267.567 232.04 267.418 232.08 267.252 232.08Z" fill="black" fill-opacity="0.7"/>
<rect x="169.5" y="43.5" width="96" height="96" rx="48" stroke="#09C677" stroke-width="3"/>
<path d="M212.3 97.5812L204.971 90.2526L201.824 93.3995L212.3 103.875L233.903 82.2719L230.756 79.125L212.3 97.5812Z" fill="#09C677"/>
</svg>
