<?xml version="1.0" encoding="utf-8"?>
<!-- Generator: Adobe Illustrator 22.0.1, SVG Export Plug-In . SVG Version: 6.00 Build 0)  -->
<svg version="1.1" id="Laag_1" xmlns="http://www.w3.org/2000/svg" xmlns:xlink="http://www.w3.org/1999/xlink" x="0px" y="0px"
	 viewBox="0 0 184.8 27.7" style="enable-background:new 0 0 184.8 27.7;" xml:space="preserve">
<style type="text/css">
	.st0{fill:#FFFFFF;}
	.st1{fill:#30B2A4;}
</style>
<g>
	<path class="st0" d="M11.4,11.1c-1.2-0.6-3-1.2-4.6-1.2c-1.5,0-2.2,0.5-2.2,1.3s1,1,2.4,1.2l1.3,0.2c3.1,0.5,4.9,1.9,4.9,4.3
		c0,3-2.5,4.9-6.7,4.9c-2,0-4.6-0.4-6.5-1.7l1.5-3c1.2,0.8,2.8,1.4,4.9,1.4c1.8,0,2.7-0.5,2.7-1.4c0-0.7-0.7-1.1-2.4-1.3l-1.2-0.2
		c-3.4-0.5-5-1.9-5-4.4c0-3,2.3-4.8,6.1-4.8c2.3,0,4.1,0.4,6.1,1.4L11.4,11.1z"/>
	<path class="st0" d="M20.1,8.6c1-1.4,2.6-1.9,4.2-1.9c3.3,0,5.7,2.3,5.7,5.7v9.3h-3.9v-8c0-2.1-1-3.3-2.8-3.3
		c-1.7,0-3.1,1.1-3.1,3.3v8h-3.9V0h3.9v8.6H20.1z"/>
	<path class="st0" d="M48.8,14.3c0,4.4-3.3,7.6-7.9,7.6c-4.5,0-7.8-3.3-7.8-7.6c0-4.4,3.3-7.6,7.8-7.6C45.4,6.7,48.8,10,48.8,14.3z
		 M37,14.3c0,2.4,1.6,4,3.9,4c2.2,0,3.9-1.6,3.9-4s-1.7-4-3.9-4C38.7,10.3,37,12,37,14.3z"/>
	<path class="st0" d="M67.2,14.3c0,4.4-3,7.6-7,7.6c-2,0-3.3-0.8-4.3-1.9v7.5H52V7.1h3.8v1.6c0.9-1.2,2.3-2,4.3-2
		C64.2,6.7,67.2,10,67.2,14.3z M55.7,14.3c0,2.3,1.5,4,3.7,4c2.3,0,3.8-1.8,3.8-4s-1.4-4-3.8-4C57.2,10.3,55.7,12,55.7,14.3z"/>
	<path class="st0" d="M93.9,12.4v9.3H90v-8c0-2.1-1.1-3.3-2.8-3.3c-1.7,0-3.1,1.1-3.1,3.3v8h-3.9v-8c0-2.1-1.1-3.3-2.8-3.3
		c-1.7,0-3.1,1.1-3.1,3.3v8h-3.9V7.1h3.8v1.7c1-1.5,2.6-2.1,4.3-2.1c2.1,0,3.8,0.9,4.8,2.5c1.1-1.8,3-2.5,4.9-2.5
		C91.6,6.7,93.9,9,93.9,12.4z"/>
	<path class="st0" d="M112.7,14.3c0,4.4-3.3,7.6-7.9,7.6c-4.5,0-7.8-3.3-7.8-7.6c0-4.4,3.3-7.6,7.8-7.6
		C109.4,6.7,112.7,10,112.7,14.3z M101,14.3c0,2.4,1.7,4,3.9,4c2.2,0,3.9-1.6,3.9-4s-1.7-4-3.9-4C102.7,10.3,101,12,101,14.3z"/>
	<path class="st0" d="M129.7,12.4v9.3h-3.9v-8c0-2.1-1.1-3.3-2.8-3.3c-1.7,0-3.1,1.1-3.1,3.3v8H116V7.1h3.8v1.7
		c1-1.5,2.6-2.1,4.3-2.1C127.3,6.7,129.7,9,129.7,12.4z"/>
	<path class="st0" d="M137.6,12.3h1.4l4.1-5.2h4.8l-5.7,6.8l5.8,7.7h-4.8l-4.2-5.9h-1.3v5.9h-3.9V0h3.9v12.3H137.6z"/>
	<path class="st0" d="M162.9,14.3c0,0.4,0,1-0.1,1.3h-10.3c0.4,2.1,1.9,3,3.7,3c1.3,0,2.6-0.5,3.7-1.4l2.3,2.5
		c-1.7,1.5-3.8,2.2-6.2,2.2c-4.5,0-7.5-3-7.5-7.6s3-7.7,7.3-7.7C160,6.7,162.9,9.8,162.9,14.3z M152.5,13h6.4
		c-0.4-1.9-1.5-2.9-3.2-2.9C153.9,10.1,152.9,11.2,152.5,13z"/>
	<path class="st0" d="M168.9,27.7h-4.3l5.1-9.1l-6.3-11.4h4.4l4,7.5l3.9-7.5h4.3L168.9,27.7z"/>
	<path class="st1" d="M184.8,19.1c0,1.6-1.3,2.9-2.9,2.9c-1.6,0-2.9-1.4-2.9-2.9c0-1.6,1.4-2.9,2.9-2.9
		C183.5,16.2,184.8,17.5,184.8,19.1z"/>
</g>
</svg>
