<svg width="139" height="30" viewBox="0 0 139 30" fill="none" xmlns="http://www.w3.org/2000/svg">
<path d="M21.8542 19.4204C21.8542 25.6787 17.9304 29.9502 11.9205 29.9502C8.59269 29.9502 6.05959 28.6091 4.51986 26.1753V29.8012H0V0.595947H4.51986V12.4668C6.05959 10.033 8.59269 8.69195 11.8212 8.69195C17.7814 8.69195 21.8542 13.0131 21.8542 19.4204ZM17.2847 19.2217C17.2847 15.3476 14.6523 12.4668 10.9271 12.4668C7.20197 12.4668 4.56952 15.2979 4.56952 19.2217C4.56952 23.2946 7.20197 26.076 10.9271 26.076C14.6523 26.076 17.2847 23.2449 17.2847 19.2217Z" fill="black"/>
<path d="M38.3443 27.2184C36.8542 29.0562 34.4701 29.9502 31.4403 29.9502C26.9205 29.9502 24.0894 27.1688 24.0894 23.4436C24.0894 19.6191 26.9701 17.1854 31.9867 17.1357H38.3443V16.49C38.3443 13.8576 36.6555 12.2682 33.3277 12.2682C31.341 12.2682 29.2549 12.9635 27.1688 14.4039L25.3311 11.2748C28.2615 9.53637 30.3476 8.64233 34.3211 8.64233C39.735 8.64233 42.7648 11.3741 42.7648 15.9933V29.8012H38.2946V27.2184H38.3443ZM38.2946 22.4502V20.5132H32.6324C29.7019 20.5132 28.3112 21.3079 28.3112 23.2946C28.3112 25.182 29.8509 26.4237 32.384 26.4237C35.5628 26.4237 38.0463 24.735 38.2946 22.4502Z" fill="black"/>
<path d="M61.6389 10.7781L59.9998 14.1059C58.1621 12.9635 55.8277 12.2682 53.9899 12.2682C52.2019 12.2682 50.9105 12.8642 50.9105 14.3542C50.9105 18.2284 62.0363 16.1423 61.9866 23.7416C61.9866 28.0131 58.1621 29.9502 53.9403 29.9502C50.8608 29.9502 47.5827 28.9072 45.4966 27.0198L47.086 23.7913C48.8741 25.3807 51.8045 26.3741 54.0893 26.3741C56.0264 26.3741 57.5164 25.7284 57.5164 24.139C57.5164 19.8675 46.49 22.2516 46.5396 14.7019C46.5396 10.4304 50.2151 8.64233 54.2383 8.64233C56.9204 8.64233 59.7515 9.43703 61.6389 10.7781Z" fill="black"/>
<path d="M70.4798 23.9403V29.8012H65.96V0.595947H70.4798V18.2283L79.7182 8.84096H84.9334L77.1851 16.937L85.5294 29.8012H80.1652L74.0063 20.1654L70.4798 23.9403Z" fill="black"/>
<path d="M105.794 21.0595H89.9998C90.6952 24.288 93.1786 26.2748 96.5064 26.2748C98.7912 26.2748 100.877 25.4304 102.417 23.841L104.801 26.3741C102.765 28.6092 99.7846 29.9006 96.1588 29.9006C89.7018 29.9006 85.48 25.6291 85.48 19.3211C85.48 12.9635 89.8508 8.69203 96.0594 8.64236C103.361 8.69203 106.391 13.5099 105.794 21.0595ZM89.4038 1.98675L94.023 0L98.1952 5.81124H94.172L89.4038 1.98675ZM101.871 17.7317C101.722 14.3543 99.4866 12.3178 96.0594 12.3178C92.7316 12.3178 90.4469 14.4039 89.9005 17.7317H101.871Z" fill="black"/>
<path d="M121.589 28.4603C119.95 29.4537 118.211 30 116.423 30C113.294 30 110.562 28.2119 110.562 23.8908V13.0133H107.632V9.63584H110.562V3.87427H115.032V9.63584H121.191V13.0133H115.032V23.0464C115.032 25.2318 115.877 25.8775 117.268 25.8775C118.211 25.8775 119.205 25.5795 120.397 24.9835L121.589 28.4603Z" fill="black"/>
<path d="M138.576 10.7781L136.937 14.1059C135.099 12.9635 132.765 12.2682 130.927 12.2682C129.139 12.2682 127.847 12.8642 127.847 14.3542C127.847 18.2284 138.973 16.1423 138.924 23.7416C138.924 28.0131 135.099 29.9502 130.877 29.9502C127.798 29.9502 124.52 28.9072 122.434 27.0198L124.023 23.7913C125.811 25.3807 128.742 26.3741 131.026 26.3741C132.963 26.3741 134.453 25.7284 134.453 24.139C134.453 19.8675 123.427 22.2516 123.477 14.7019C123.477 10.4304 127.152 8.64233 131.175 8.64233C133.857 8.64233 136.689 9.43703 138.576 10.7781Z" fill="black"/>
</svg>
