<svg width="100" height="102" viewBox="0 0 100 102" fill="none" xmlns="http://www.w3.org/2000/svg">
<path d="M23.522 51.1128C24.223 49.6067 24.9348 48.1059 25.6119 46.5811L12.8484 37.6509C12.0108 40.0884 11.417 42.6029 11.0757 45.1576L23.522 51.1128Z" fill="black"/>
<path d="M25.4225 39.426C25.6704 38.6769 26.0356 37.8932 26.5901 37.464C27.6564 36.643 27.715 35.71 27.5711 34.553H26.4648C26.6624 33.7484 26.93 32.9626 27.2645 32.2045L21.1333 23.8235C19.2687 25.8423 17.6195 28.0499 16.2124 30.4105L25.4225 39.426Z" fill="black"/>
<path d="M22.6513 55.9643L10.7861 52.5442C10.9082 54.8787 11.2356 57.198 11.7645 59.4751L22.4753 60.7066C22.23 59.1292 22.2897 57.5193 22.6513 55.9643Z" fill="black"/>
<path d="M31.6077 26.4654C32.8676 25.3495 34.1873 24.303 35.561 23.3305L35.1051 23.0933C35.7653 22.4627 36.4878 21.9009 37.2617 21.4165L34.9985 14.1284C32.3453 15.225 29.8216 16.6117 27.4731 18.263L31.6077 26.4654Z" fill="black"/>
<path d="M64.9713 23.0932L64.5101 23.3384C64.8193 23.5597 65.1285 23.7836 65.4324 24.0075L68.5193 15.7437C65.9729 14.3933 63.2845 13.3294 60.5035 12.5715L59.104 19.793C61.3023 20.3916 63.3181 21.5254 64.9713 23.0932Z" fill="black"/>
<path d="M51.7336 19.2783L51.9495 11.2172C51.3151 11.1888 50.6762 11.1737 50.0329 11.1719C49.5424 11.1719 49.0439 11.1719 48.5507 11.1985C46.7985 11.2627 45.0523 11.4408 43.3232 11.7317L44.2136 18.236C45.4452 18.452 46.7007 18.6013 47.8283 19.0704C49.2038 19.6515 50.3927 19.7262 51.7336 19.2783Z" fill="black"/>
<path d="M27.5455 68.0267C27.4869 68.2507 27.4202 68.4986 27.3189 68.8798C26.183 67.8947 25.3015 66.6502 24.7492 65.2517L13.8037 65.7849C14.6128 67.7056 15.5737 69.5589 16.6774 71.3269L28.6171 68.7518C28.2653 68.5066 27.9081 68.2649 27.5455 68.0267Z" fill="black"/>
<path d="M44.31 18.948L44.326 18.916H44.3047L44.31 18.948Z" fill="black"/>
<path d="M73.6276 34.5132H72.4814C72.4494 35.3449 72.4014 36.078 72.8386 36.7551L81.2276 26.532C79.5463 24.3335 77.6358 22.3202 75.5283 20.5261L70.73 28.8485C72.0869 30.5097 73.0746 32.4407 73.6276 34.5132Z" fill="black"/>
<path d="M74.2487 45.1764C74.1661 45.5816 74.2069 46.0022 74.366 46.384C74.7152 47.1117 75.0724 47.8341 75.4323 48.5672L88.0732 40.722C87.4382 38.201 86.5532 35.7497 85.4314 33.4045L74.8458 42.6759C74.6832 43.513 74.4033 44.334 74.2487 45.1764Z" fill="black"/>
<path d="M65.0971 74.4351C64.4549 75.1989 63.8586 76 63.311 76.8342L70.4472 83.9864C71.8462 83.132 73.1897 82.19 74.4698 81.166L65.0971 74.4351Z" fill="black"/>
<path d="M69.9544 69.842C68.9958 70.5728 68.0783 71.356 67.2061 72.1879L78.3088 77.6606C79.5869 76.3319 80.7707 74.9156 81.8515 73.4221L69.9544 69.842Z" fill="black"/>
<path d="M89.2617 48.9959C89.2617 48.6893 89.2351 48.3854 89.2164 48.0789L76.6528 53.245C77.1745 54.7019 77.5243 56.2148 77.6951 57.7528L89.0058 55.1803C89.2526 53.1287 89.3382 51.0609 89.2617 48.9959Z" fill="black"/>
<path d="M76.1896 62.4287C75.8137 64.0894 75.2965 65.6649 74.3662 67.0644L84.9332 68.3972C86.0363 66.2635 86.9402 64.0327 87.6335 61.7329L76.1896 62.4287Z" fill="black"/>
<path d="M31.9624 71.3613L20.1479 76.0557C21.3423 77.4506 22.6339 78.7592 24.0133 79.9716L34.3589 73.7178C33.6056 72.8873 32.8055 72.1006 31.9624 71.3613Z" fill="black"/>
<path d="M61.6881 79.7053C61.6587 79.7639 61.6267 79.8226 61.6001 79.8812C61.4108 79.6546 61.3148 79.5507 61.2295 79.436C61.1442 79.3214 61.0563 79.1961 60.9257 79.0095L58.6758 80.7316L62.1412 87.8277C63.5616 87.3634 64.9545 86.8187 66.3131 86.1963L61.6881 79.7053Z" fill="black"/>
<path d="M36.2942 76.1355L28.1211 83.133C29.4825 84.0441 30.8999 84.8686 32.3649 85.6015L37.9923 78.9052C37.4879 77.9455 36.9206 77.0203 36.2942 76.1355Z" fill="black"/>
<path d="M55.796 81.678L54.0046 82.7443C53.9326 82.3417 53.8953 82.1365 53.8287 81.7686C53.5018 81.9423 53.1643 82.0954 52.8184 82.2271L53.7354 89.5685C55.1514 89.4337 56.5592 89.2228 57.9525 88.9368L55.796 81.678Z" fill="black"/>
<path d="M42.5929 80.6996C42.5369 80.8782 42.4649 81.1101 42.3583 81.4593L40.8761 80.3184L36.6616 87.4358C38.0684 87.9397 39.5032 88.3616 40.9588 88.6994L43.7898 81.39L42.5929 80.6996Z" fill="black"/>
<path d="M46.7679 82.0029L45.2324 89.451C46.6439 89.6155 48.0632 89.7044 49.4843 89.7175L49.7508 82.6987C48.7238 82.6409 47.7145 82.4055 46.7679 82.0029Z" fill="black"/>
<path fill-rule="evenodd" clip-rule="evenodd" d="M25.9001 51.8934L25.2577 52.0134C25.2577 51.8988 25.231 51.8081 25.2577 51.7468C26.0387 50.0594 26.8571 48.3827 27.5955 46.6819C27.7507 46.3344 27.7854 45.9451 27.6941 45.5757C27.1877 43.9602 26.7318 42.3261 27.2143 40.6521C27.4409 39.8524 27.8034 38.9407 28.4086 38.4715C29.3869 37.7144 29.4455 36.8561 29.3096 35.7871H28.2913C29.4908 30.9568 32.9776 28.1285 36.6803 25.4361L36.2618 25.2175C38.6236 22.9596 41.4893 21.944 44.6508 21.5921C44.6881 21.5148 44.7255 21.4402 44.7654 21.3655C44.6128 21.2977 44.4642 21.2211 44.3203 21.1363C44.2342 21.0773 44.1616 21.0007 44.1073 20.9116C44.0531 20.8224 44.0185 20.7227 44.0057 20.6191C45.3386 20.9017 46.7541 20.9977 48.0043 21.5148C49.4305 22.1066 50.6354 22.1333 52.0669 21.5148C53.2984 20.9817 54.7139 20.8937 56.1214 20.7551C55.8948 20.9977 55.6656 21.2349 55.3484 21.5735C58.5926 21.9387 61.4582 22.9543 63.8174 25.2095L63.3935 25.4361C67.1256 28.1018 70.5377 30.9622 71.8012 35.7418H70.7349C70.6923 36.7601 70.631 37.6078 71.6173 38.4075C72.9502 39.4738 73.1927 41.1346 72.9955 42.7767C72.8835 43.723 72.5396 44.6427 72.3637 45.5757C72.2889 45.9457 72.3251 46.3297 72.4677 46.6793C73.294 48.4013 74.1711 50.0994 75.1334 52.0107L74.2031 51.9307C75.248 54.8417 76.1144 57.7287 75.2347 60.9569L74.4616 60.0239C73.9418 62.8229 73.2727 65.454 71.0175 67.4559L70.7776 66.6722C66.5124 69.4579 62.935 72.8647 60.7012 77.6017C60.5279 77.3938 60.4346 77.2951 60.3599 77.1912C60.2853 77.0872 60.2027 76.9699 60.0934 76.7993L57.1211 79.0705C57.0358 78.7586 56.9798 78.556 56.9212 78.3508L53.6983 80.2381L53.5357 79.3397C51.1792 80.5953 48.8307 80.4673 46.4262 79.2971C46.4502 79.6036 46.4662 79.8009 46.5062 80.2887L43.1767 78.3508L42.9608 79.0518L40.0285 76.7913L39.3807 77.591C37.1468 72.8514 33.5694 69.4606 29.2989 66.6615C29.2456 66.8668 29.1843 67.0961 29.0936 67.4613C26.8118 65.5073 26.1613 62.8709 25.6282 60.0586L24.8285 60.9436C23.9675 57.7287 24.8125 54.863 25.9001 51.8934ZM41.9238 72.7127C42.294 72.4715 42.5984 72.142 42.8096 71.7539C43.0209 71.3659 43.1323 70.9314 43.134 70.4895C43.1553 69.5059 43.4326 69.1273 44.4242 69.1833C45.5425 69.229 46.6513 69.408 47.7271 69.7165C49.1892 70.1983 50.7655 70.2104 52.2348 69.7511C53.3349 69.4342 54.4686 69.2481 55.6123 69.1966C56.6786 69.13 56.9451 69.4925 56.9451 70.5295C56.9611 71.4758 57.393 72.1796 58.23 72.7767C58.1261 71.889 57.6969 71.0867 58.23 70.2603L59.9148 72.3715L60.0454 72.2676C59.9707 71.8277 59.8961 71.3879 59.8161 70.9107L60.3946 71.012C60.216 70.5695 60.0587 70.1723 59.9148 69.8124L60.7305 69.3886C60.5523 69.0693 60.3547 68.7612 60.1387 68.4662C59.9744 68.3194 59.7847 68.2037 59.5789 68.125C57.9981 67.2613 56.3027 67.3733 54.5966 67.5172C53.6023 67.6025 52.6 67.6292 51.603 67.6825V67.4293C54.6366 66.6509 57.6569 65.3367 60.9677 67.4853C61.1223 66.3017 61.3249 65.2914 61.3729 64.2864C61.4729 62.7283 61.1192 61.1746 60.3546 59.8133C58.8458 57.0889 59.5895 55.087 61.6155 53.5728C62.7084 52.7571 64.0973 52.3439 65.3315 51.7068C65.6274 51.5522 66.0273 51.2403 66.0486 50.9764C66.1173 50.1888 66.0814 49.3955 65.942 48.6173C65.7634 47.6843 65.4088 46.7832 65.1582 45.8609C64.7525 44.3462 63.7922 43.0395 62.4678 42.2C61.1434 41.3605 59.5517 41.0497 58.0088 41.3292C56.1396 41.6636 54.3625 42.3905 52.7946 43.4617C51.8589 44.0749 50.9792 44.7759 50.0516 45.4504C49.881 45.3091 49.7157 45.1838 49.5451 45.0345C47.7591 43.5977 45.8531 42.3688 43.6485 41.6624C40.0018 40.5001 36.8722 41.6037 35.3448 44.8053C34.673 46.2181 34.3798 47.8175 33.9853 49.3503C33.8653 49.8088 33.9853 50.3286 33.9853 50.8218C33.9853 51.315 34.2518 51.5522 34.737 51.7442C35.9232 52.2266 37.1575 52.6772 38.2024 53.3756C40.5589 54.9297 41.1614 57.5501 39.6926 59.9226C38.9178 61.1884 38.5589 62.665 38.6663 64.1451C38.7143 65.2114 38.9328 66.2777 39.1088 67.5013C42.4143 65.35 45.4265 66.6695 48.4388 67.5679C47.4381 67.6395 46.4332 67.627 45.4345 67.5306C43.5232 67.352 41.6332 67.2853 39.9671 68.4582C39.6819 68.6608 39.5273 69.0474 39.3114 69.3486L40.1271 69.8817C39.9911 70.2043 39.8339 70.5775 39.6499 71.004L40.2364 70.9534C40.1564 71.4332 40.0844 71.8624 40.0098 72.2862L40.1644 72.3609L41.7958 70.3056L42.0624 70.3669C42.0357 71.1133 41.9824 71.873 41.9238 72.7127ZM29.0483 44.704L29.4802 42.9339L29.3176 42.87L28.8884 43.4191C28.6687 42.9892 28.5724 42.5068 28.61 42.0255C28.6477 41.5441 28.8178 41.0826 29.1016 40.6921C29.3149 40.4415 29.3682 40.0683 29.5148 39.7511L29.2989 39.6791C28.2726 40.5934 28.11 42.9579 29.0483 44.704ZM70.9962 44.56C71.9905 42.598 71.7959 40.3802 70.6283 39.7617C70.6862 40.121 70.8278 40.4615 71.0415 40.756C71.5453 41.3638 71.6573 42.622 71.1855 43.3951L70.7563 42.862L70.6043 42.9366L70.9962 44.56Z" fill="black"/>
<path fill-rule="evenodd" clip-rule="evenodd" d="M38.6078 47.9831L39.0316 47.394C38.7011 47.1567 38.2639 46.8395 37.6588 46.4076L39.1676 45.5066C39.1618 45.4838 39.1574 45.4607 39.1542 45.4373L37.1416 46.1624C37.6747 44.4803 39.4021 43.7019 40.9669 44.515C41.9532 45.0321 42.8196 45.7785 43.7473 46.413C44.6749 47.0474 45.4667 48.0657 46.7675 48.103C47.1994 48.103 47.6312 48.103 48.0577 48.103C48.151 49.1347 47.7752 49.8064 46.9755 50.2676C46.3464 50.6302 45.7812 51.11 45.1468 51.4592C44.5742 51.7395 43.9869 51.9887 43.3874 52.2056L43.2248 51.9097C44.0805 51.2673 44.9468 50.6355 45.7892 49.9717C45.9907 49.7735 46.1695 49.5536 46.3224 49.316C46.0958 49.1853 45.8719 49.0494 45.6399 48.9268C45.4682 48.8437 45.2899 48.7751 45.1068 48.7215C44.4723 48.5242 44.1845 48.7348 44.1365 49.3213C43.5873 49.188 43.0249 49.0547 42.4651 48.9161C41.9612 48.7881 41.4627 48.6495 40.9563 48.5296C40.767 48.4869 40.4364 48.0684 40.4231 48.6815C40.2258 48.6282 39.89 48.6015 39.8606 48.5189C39.7114 47.6499 39.0956 47.9351 38.5838 47.9591L38.6078 47.9831ZM40.9243 46.0744C40.3911 46.2824 40.2099 46.5649 40.3911 47.0981C40.7217 48.1164 42.5237 48.6175 43.686 47.8072C42.2598 47.8551 40.8949 47.9831 40.9243 46.0798V46.0744Z" fill="black"/>
<path fill-rule="evenodd" clip-rule="evenodd" d="M48.5744 60.8264C46.8284 60.5865 45.5035 59.9147 45.4289 57.9101C45.1623 58.23 45.1623 58.23 45.4769 60.16C44.5305 59.7628 43.7761 57.8888 44.3253 57.0811C44.5092 56.8145 45.1676 56.5479 45.4049 56.6812C46.5511 57.289 47.6334 58.0141 48.7264 58.7311C48.7788 58.7895 48.8176 58.8587 48.8402 58.9338C48.8628 59.0089 48.8685 59.0881 48.857 59.1657C48.7744 59.7281 48.6704 60.2853 48.5744 60.8264Z" fill="black"/>
<path fill-rule="evenodd" clip-rule="evenodd" d="M54.6153 60.2855C54.5087 59.4431 55.3777 58.726 54.7886 57.9237C54.5988 58.4685 54.379 59.0025 54.1302 59.5231C53.789 60.1522 53.3038 60.5761 52.4854 60.5174C52.1895 60.4988 51.875 60.7627 51.5204 60.9173C51.4111 60.2908 51.2912 59.691 51.2139 59.0859C51.214 59.0067 51.2318 58.9285 51.2659 58.8571C51.3 58.7856 51.3496 58.7226 51.4111 58.6727C52.4081 58.009 53.3731 57.2679 54.4447 56.7507C55.4097 56.2842 56.0628 56.892 55.8975 57.9556C55.7563 58.8487 55.4844 59.6857 54.6153 60.2855Z" fill="black"/>
<path fill-rule="evenodd" clip-rule="evenodd" d="M61.5221 47.9643C61.0103 47.9403 60.3945 47.6551 60.2452 48.5241C60.2293 48.6068 59.88 48.6334 59.6854 48.6867C59.6721 48.0736 59.3389 48.4921 59.1523 48.5348C58.6458 48.6494 58.1473 48.8014 57.6435 48.9213C57.0837 49.0599 56.5239 49.1879 55.9748 49.3265C55.9241 48.7401 55.6362 48.5268 55.0018 48.7267C54.8188 48.7806 54.6405 48.8493 54.4686 48.932C54.234 49.0493 54.0128 49.1986 53.7835 49.3212C53.9372 49.5582 54.116 49.7781 54.3167 49.977C55.159 50.6407 56.0254 51.2725 56.8838 51.9149L56.7185 52.2108C56.1199 51.9939 55.5334 51.7448 54.9618 51.4644C54.3247 51.1152 53.7622 50.6354 53.1304 50.2728C52.3307 49.8117 51.9548 49.1399 52.0481 48.1083C52.4747 48.1083 52.9092 48.1083 53.341 48.1083C54.6392 48.071 55.4043 47.0713 56.3586 46.4182C57.3129 45.7651 58.1527 45.0374 59.1416 44.5202C60.7038 43.7205 62.4365 44.4856 62.9643 46.1676L60.9543 45.4426C60.9486 45.4654 60.9442 45.4885 60.941 45.5119L62.4471 46.4129L61.0743 47.3992C61.2502 47.6418 61.3729 47.815 61.5008 47.9883L61.5221 47.9643ZM56.4279 47.8124C57.6008 48.6121 59.3922 48.1216 59.7228 47.1033C59.896 46.5702 59.7228 46.2876 59.1896 46.0797C59.2109 47.983 57.8381 47.855 56.4279 47.8124Z" fill="black"/>
<path d="M5.54513 31.6317C5.27074 31.3372 5.03431 31.0094 4.84137 30.6561C4.61479 30.2562 4.54015 29.955 4.61212 29.7524C4.65211 29.6431 4.70809 29.5072 4.7774 29.3472C4.8467 29.1873 4.91068 29.054 4.96666 28.942L5.08662 28.7128L10.594 31.5544C10.7037 31.6071 10.8003 31.6836 10.8766 31.7784C10.9464 31.8864 10.9748 32.0162 10.9565 32.1436C10.9327 32.2736 10.8942 32.4006 10.8419 32.5221C10.7699 32.7034 10.714 32.8446 10.6766 32.9459L11.0578 33.1432L13.0545 29.2592L12.6759 29.0567C12.6066 29.1606 12.516 29.2832 12.4094 29.4272C12.328 29.5348 12.2389 29.6363 12.1428 29.7311C12.0488 29.8179 11.9268 29.8681 11.7989 29.8724C11.6784 29.8651 11.5611 29.8314 11.455 29.7737L5.98497 26.9641L6.10493 26.7321C6.16091 26.6202 6.23288 26.4922 6.32352 26.3429C6.41415 26.1937 6.49146 26.0764 6.5581 25.9724C6.68072 25.7965 6.97129 25.6845 7.42713 25.6365C7.82794 25.5841 8.23388 25.5841 8.6347 25.6365L8.8293 25.258L6.838 24.2317L3.37256 30.976L5.36386 32.0023L5.54513 31.6317Z" fill="#231F20"/>
<path d="M8.29092 22.8027C8.4032 22.7089 8.52466 22.6267 8.65346 22.5574C8.76215 22.494 8.8882 22.467 9.01333 22.4801C9.12705 22.5054 9.23307 22.5575 9.32255 22.632L13.641 26.0975C13.7356 26.1758 13.809 26.2766 13.8543 26.3907C13.8997 26.5036 13.8997 26.6297 13.8543 26.7426C13.8046 26.8653 13.7421 26.9823 13.6677 27.0918C13.5717 27.2438 13.4971 27.3584 13.4438 27.4304L13.777 27.6969L16.4427 24.3994L16.1068 24.1329C16.011 24.2337 15.9085 24.3281 15.8003 24.4154C15.7079 24.4984 15.608 24.5725 15.5017 24.6367C15.3959 24.6997 15.2716 24.7242 15.1498 24.706C15.0353 24.6823 14.9282 24.6311 14.8379 24.5567L12.7613 22.8933L14.8566 20.2889L16.9599 21.9789C17.055 22.0476 17.1311 22.1394 17.1811 22.2455C17.2211 22.3612 17.2211 22.487 17.1811 22.6027C17.137 22.7189 17.0769 22.8284 17.0025 22.9279C16.9039 23.0746 16.8292 23.1945 16.7759 23.2612L17.1118 23.5277L19.7775 20.2276L19.4416 19.961C19.3697 20.0383 19.2684 20.1343 19.1404 20.2462C19.043 20.3358 18.9367 20.4153 18.8232 20.4835C18.7155 20.5468 18.59 20.573 18.466 20.5581C18.3529 20.5319 18.2478 20.4788 18.1594 20.4035L13.8223 16.9381C13.7309 16.8661 13.6563 16.7752 13.6037 16.6715C13.5784 16.6144 13.5654 16.5527 13.5654 16.4902C13.5654 16.4278 13.5784 16.366 13.6037 16.3089C13.6539 16.1829 13.7136 16.0608 13.7823 15.9437C13.857 15.8131 13.9263 15.7012 13.9929 15.6052L13.6597 15.3386L10.994 18.6388L11.3298 18.9054C11.4239 18.8105 11.5236 18.7215 11.6284 18.6388C11.7415 18.5575 11.862 18.487 11.9883 18.4282C12.098 18.365 12.2248 18.3379 12.3508 18.3509C12.4614 18.3746 12.5641 18.426 12.6494 18.5002L14.4301 19.9317L12.3322 22.5387L10.4955 21.0593C10.4051 20.9871 10.3314 20.8961 10.2795 20.7927C10.253 20.7355 10.2393 20.6732 10.2393 20.6101C10.2393 20.547 10.253 20.4847 10.2795 20.4275C10.3115 20.3475 10.3675 20.2356 10.4422 20.0916C10.5059 19.9743 10.5771 19.8612 10.6554 19.7531L10.3195 19.4865L7.65381 22.784L7.98969 23.0506C8.05633 22.9973 8.1523 22.9253 8.29092 22.8027Z" fill="#231F20"/>
<path d="M15.7862 14.1284C15.9107 14.0626 16.041 14.0081 16.1753 13.9658C16.2962 13.9238 16.4277 13.9238 16.5486 13.9658C16.6524 14.0171 16.7434 14.0909 16.8151 14.1818L20.3126 18.4469C20.3902 18.5368 20.4459 18.6436 20.4752 18.7588C20.491 18.8815 20.4637 19.0059 20.3979 19.1107C20.3293 19.2196 20.2479 19.3198 20.1553 19.4092C20.0327 19.5372 19.934 19.6385 19.8594 19.7078L20.126 20.041L25.8093 15.3893L24.3805 13.406L24.0686 13.6726C24.1524 13.9696 24.213 14.2726 24.2498 14.5789C24.3067 14.9143 24.3273 15.2548 24.3111 15.5946C24.2959 15.7095 24.2499 15.8182 24.1779 15.9091C24.0963 16.0339 24.0045 16.1516 23.9033 16.261C23.7946 16.3773 23.6789 16.4868 23.5567 16.5889L23.2022 16.8848C23.0324 17.025 22.8544 17.155 22.6691 17.274C22.5555 17.3503 22.4242 17.3962 22.2879 17.4073C22.16 17.4078 22.0358 17.3645 21.936 17.2847C21.7895 17.1671 21.6571 17.0329 21.5415 16.8848L20.118 15.1228L20.7417 14.6136C20.8892 14.4878 21.0545 14.3845 21.2322 14.307C21.3921 14.2399 21.5675 14.2187 21.7387 14.2457C21.9173 14.2883 22.0876 14.3604 22.2425 14.459C22.4217 14.5548 22.5898 14.6702 22.7437 14.8029L23.0662 14.5363L21.0003 11.9959L20.6751 12.2624C20.7675 12.4318 20.8417 12.6105 20.8963 12.7956C20.956 12.9576 20.9849 13.1294 20.9817 13.3021C20.9662 13.4813 20.9057 13.6537 20.8057 13.8032C20.6972 13.9555 20.568 14.0918 20.4219 14.2084L19.7981 14.7336L17.8841 12.3931L18.7664 11.6733C18.8651 11.5907 18.993 11.4894 19.1476 11.3694C19.2682 11.2692 19.3976 11.1799 19.5342 11.1028C19.8334 10.9765 20.1656 10.9513 20.4805 11.0309C20.8321 11.0856 21.1709 11.204 21.4801 11.3801L21.8054 11.1135L20.5391 9.56738L15.165 13.9738L15.4316 14.307C15.5116 14.2617 15.6289 14.1951 15.7862 14.1284Z" fill="#231F20"/>
<path d="M30.8215 12.5926L30.6482 12.2007C30.367 12.3172 30.0693 12.3891 29.7659 12.414C29.5686 12.414 29.446 12.358 29.3953 12.2514C29.3695 12.1917 29.3481 12.1302 29.3314 12.0674C29.2945 11.9177 29.2696 11.7653 29.2567 11.6116C29.2407 11.4436 29.2247 11.2517 29.2087 11.0385C29.1928 10.8252 29.1794 10.6333 29.1714 10.468L31.6186 9.32973L32.9061 10.5213C32.9455 10.5557 32.9813 10.5941 33.0127 10.6359C33.0307 10.6641 33.0467 10.6935 33.0607 10.7239C33.098 10.8012 33.0047 10.9212 32.7941 11.0864C32.6058 11.2287 32.4091 11.3596 32.205 11.4783L32.3836 11.8675L36.0357 10.1801L36.0543 10.2521L43.0385 8.44737L42.5587 5.97624L42.1695 6.07754C42.1178 6.42336 42.043 6.76534 41.9456 7.10118C41.8638 7.42168 41.7401 7.73 41.5777 8.01819C41.4451 8.19642 41.2579 8.32651 41.0446 8.38872C40.7776 8.49468 40.5043 8.58371 40.2262 8.6553C39.9979 8.7171 39.7666 8.76693 39.5331 8.80458C39.3923 8.82986 39.2473 8.81885 39.1119 8.77259C38.9941 8.72657 38.8986 8.63679 38.8453 8.52201C38.7628 8.35153 38.6985 8.17283 38.6534 7.98887L37.3632 3.00396C37.3318 2.88931 37.3263 2.76911 37.3472 2.65208C37.3621 2.58856 37.3905 2.52899 37.4305 2.47746C37.4706 2.42593 37.5213 2.38366 37.5791 2.35352C37.701 2.27884 37.8295 2.21549 37.963 2.16425L38.3522 2.01497L38.2456 1.59912L34.0844 2.66541L34.191 3.08393C34.287 3.08393 34.4149 3.06527 34.5802 3.05461C34.7234 3.04319 34.8674 3.04855 35.0094 3.0706C35.1372 3.08267 35.2573 3.13708 35.3506 3.22521C35.4186 3.3154 35.4668 3.41897 35.4919 3.52911L36.8754 8.87655C36.9055 8.99552 36.9055 9.12012 36.8754 9.23909C36.8354 9.34892 36.7605 9.44258 36.6621 9.50566C36.5621 9.56574 36.4568 9.6166 36.3476 9.65761L36.081 9.75891L36.041 9.67094C35.9236 9.7145 35.8033 9.75012 35.6811 9.77757C35.5563 9.8065 35.4277 9.81638 35.2999 9.80689C35.1637 9.79697 35.0303 9.7636 34.9054 9.70826C34.8003 9.65561 34.7026 9.58928 34.6148 9.51099C34.0817 9.01517 33.3966 8.38872 32.5916 7.62366C31.7865 6.8586 30.7149 5.84296 29.3154 4.53142L28.3131 4.99526C28.3664 6.34944 28.4197 7.58634 28.465 8.70861C28.5103 9.83088 28.5583 10.9505 28.6063 12.0674C28.6185 12.2464 28.6032 12.4262 28.561 12.6006C28.5182 12.765 28.4459 12.9204 28.3477 13.0591C28.2742 13.162 28.1841 13.2521 28.0811 13.3256C27.9705 13.4089 27.8537 13.4837 27.7319 13.5496L27.9132 13.9414L30.8215 12.5926ZM31.1814 8.93253L29.1341 9.88153L28.9582 6.83461L31.1814 8.93253Z" fill="#231F20"/>
<path d="M43.0706 1.08757C43.2124 1.10287 43.3525 1.13143 43.4891 1.17287C43.6134 1.20366 43.7217 1.2797 43.793 1.38613C43.8484 1.48604 43.8803 1.59726 43.8863 1.71135L44.3075 7.2214C44.3247 7.34194 44.3109 7.46487 44.2675 7.57861C44.2085 7.68597 44.1144 7.76975 44.0009 7.81586C43.8848 7.86479 43.763 7.89882 43.6384 7.91716L43.2172 7.99713L43.2492 8.42631L47.4823 8.10109L47.4423 7.67191C47.3268 7.67191 47.1856 7.66125 47.0185 7.63992C46.8943 7.62731 46.7713 7.60503 46.6506 7.57328C46.529 7.53975 46.4232 7.46419 46.3521 7.36002C46.2912 7.25712 46.2564 7.14089 46.2508 7.02147L46.0828 4.82758L46.7199 4.77693C47.1999 4.74505 47.6753 4.66285 48.1381 4.53169C48.5308 4.41725 48.9013 4.23697 49.2337 3.99854C49.5306 3.78356 49.7689 3.49762 49.9268 3.16683C50.0884 2.80399 50.151 2.40479 50.1081 2.00991C50.1035 1.7187 50.0213 1.43399 49.8699 1.18517C49.7185 0.93634 49.5035 0.732407 49.247 0.59441C48.7139 0.311843 47.9568 0.20788 46.9492 0.287852L42.644 0.618401L42.6787 1.04758C42.7693 1.06624 42.9106 1.06624 43.0706 1.08757ZM46.2454 0.844988C46.8479 0.800559 47.2789 0.910743 47.5383 1.17554C47.8343 1.53612 47.9955 1.98856 47.9942 2.45509C48.0312 2.68832 48.0173 2.92682 47.9533 3.15416C47.8894 3.3815 47.7769 3.59227 47.6236 3.77195C47.2589 4.10576 46.7851 4.29529 46.2908 4.3051L46.0615 4.32376L45.7949 0.892971L46.2454 0.844988Z" fill="#231F20"/>
<path d="M55.0477 7.88255C54.9114 7.85356 54.7769 7.81617 54.6452 7.77059C54.5271 7.7334 54.4122 7.68706 54.3013 7.63197C54.193 7.57348 54.1082 7.4793 54.0614 7.3654C54.0203 7.25572 54.0075 7.13746 54.0241 7.02152L54.3733 4.40644L57.6921 4.83296L57.3456 7.51201C57.3346 7.63109 57.2923 7.74514 57.223 7.84256C57.1446 7.93634 57.0363 8.00034 56.9164 8.02383C56.7954 8.04818 56.6714 8.05447 56.5485 8.04249L56.1433 8.02383L56.0874 8.45035L60.0406 8.96217L63.0262 10.0285L63.1675 9.62327C62.8785 9.50584 62.6095 9.34394 62.3705 9.14344C62.2292 9.00482 62.1812 8.87687 62.2185 8.77024C62.2319 8.73558 62.2585 8.67694 62.3012 8.5943C62.3804 8.46074 62.4695 8.33331 62.5677 8.2131C62.6717 8.08248 62.7943 7.94653 62.9329 7.77059C63.0716 7.59465 63.1995 7.46137 63.3035 7.33874L65.8546 8.23976L65.9425 9.99114C65.9499 10.0433 65.9499 10.0962 65.9425 10.1484C65.9383 10.1812 65.9303 10.2134 65.9186 10.2444C65.8892 10.3244 65.74 10.3457 65.468 10.311C65.2326 10.2818 64.9993 10.2373 64.7696 10.1777L64.6283 10.5856L68.6509 11.9958L68.7949 11.5879C68.6803 11.539 68.5697 11.4811 68.4643 11.4146C68.3536 11.3486 68.2538 11.2659 68.1684 11.1694C68.0801 11.0659 68.009 10.9489 67.9578 10.8228C67.9176 10.7122 67.8933 10.5964 67.8859 10.479C67.8414 9.74323 67.7979 8.82266 67.7552 7.71728C67.7126 6.61189 67.6468 5.10131 67.558 3.18554L66.5183 2.81767C65.612 3.82532 64.7838 4.74677 64.0339 5.58203L61.7894 8.08514C61.6748 8.2199 61.5399 8.33592 61.3895 8.42902C61.2452 8.51707 61.0863 8.57847 60.9203 8.61029C60.7933 8.63187 60.6635 8.63187 60.5365 8.61029L60.3285 8.57564V8.55698C60.2246 8.53565 60.0886 8.49833 59.9287 8.44768C59.8013 8.41181 59.678 8.36267 59.5608 8.30107C59.4493 8.24347 59.3608 8.14938 59.3102 8.0345C59.2735 7.92375 59.2643 7.80571 59.2836 7.69062L59.998 2.20189C60.0089 2.0828 60.0472 1.96784 60.1099 1.86601C60.1458 1.81499 60.1917 1.77186 60.2449 1.73931C60.2981 1.70676 60.3574 1.68546 60.4192 1.67674C60.5532 1.65418 60.6885 1.64082 60.8244 1.63676C60.9736 1.63676 61.1069 1.63676 61.2242 1.63676L61.2802 1.21024L57.0817 0.677094L57.039 1.10894C57.1647 1.14391 57.2884 1.18574 57.4096 1.23423C57.5365 1.27912 57.6589 1.33626 57.7748 1.40484C57.8894 1.46349 57.9827 1.55676 58.0413 1.67141C58.0778 1.77851 58.0878 1.89281 58.0707 2.00463L57.7774 4.27049L54.4586 3.84131L54.7598 1.51946C54.7739 1.40606 54.812 1.29698 54.8718 1.19958C54.9053 1.14783 54.9495 1.10391 55.0015 1.07079C55.0535 1.03767 55.112 1.01613 55.173 1.00764C55.2957 0.988514 55.4194 0.97694 55.5436 0.97299C55.6811 0.963746 55.8192 0.963746 55.9567 0.97299L56.0101 0.546474L51.7982 0L51.7449 0.426516C51.8675 0.455815 51.9885 0.491406 52.1074 0.533145C52.246 0.58129 52.3798 0.641964 52.5073 0.714414C52.6172 0.774128 52.7051 0.867576 52.7579 0.980987C52.7974 1.09388 52.8075 1.21498 52.7872 1.33286L52.0754 6.82692C52.0618 6.94578 52.0207 7.05985 51.9555 7.16014C51.8801 7.25607 51.7718 7.32066 51.6516 7.34141C51.5213 7.36335 51.3891 7.37139 51.2571 7.3654C51.0794 7.3654 50.9434 7.36007 50.8492 7.3494L50.7959 7.77592L54.9944 8.30907L55.0477 7.88255ZM65.7106 4.59571L65.8359 7.64797L63.7033 6.89623L65.7106 4.59571Z" fill="#231F20"/>
<path d="M73.7049 14.5606C73.5831 14.4395 73.4716 14.3084 73.3717 14.1687C73.2538 14.0307 73.1633 13.8715 73.1051 13.6995C73.0633 13.4991 73.0877 13.2905 73.1745 13.1051C73.3161 12.7865 73.4951 12.4858 73.7076 12.2094L76.4986 8.35475L74.9472 13.8621C74.8832 14.0861 74.8006 14.3953 74.6939 14.7498C74.5873 15.1044 74.5127 15.3629 74.4673 15.4802L75.0298 15.8881L81.2543 11.8895L77.8315 16.6452C77.7608 16.7509 77.662 16.8349 77.5462 16.8877C77.4259 16.9272 77.2961 16.9272 77.1757 16.8877C77.0538 16.8509 76.9366 16.7999 76.8265 16.7358C76.6612 16.6478 76.5279 16.5732 76.4186 16.5092L76.1681 16.8584L79.6015 19.3482L79.8681 19.0017C79.8015 18.9377 79.7081 18.847 79.5882 18.7351C79.4991 18.6479 79.4195 18.5514 79.3509 18.4472C79.2819 18.3415 79.25 18.2158 79.2603 18.09C79.2811 17.9765 79.3287 17.8696 79.3989 17.7781L82.6298 13.2917C82.7006 13.1944 82.7915 13.1134 82.8964 13.0544C82.9522 13.0261 83.0134 13.0101 83.0759 13.0073C83.1384 13.0045 83.2008 13.0152 83.2589 13.0384C83.3794 13.0793 83.4969 13.1283 83.6108 13.185C83.7227 13.239 83.8313 13.2995 83.936 13.3663L84.1866 13.0171L81.3769 10.9778C81.2801 11.0821 81.1758 11.1792 81.065 11.2684C80.8971 11.4123 80.7451 11.535 80.6118 11.6229L76.8265 14.0647L78.298 8.73328L75.3817 6.6167L75.1284 6.96591C75.2512 7.06642 75.3653 7.17699 75.4696 7.29646C75.5812 7.4241 75.6623 7.57541 75.7069 7.73897C75.7494 7.88885 75.7494 8.0476 75.7069 8.19747C75.6498 8.38935 75.5595 8.56978 75.4403 8.73062L73.1611 11.8708C72.9618 12.1586 72.735 12.4265 72.484 12.6706C72.341 12.821 72.145 12.9099 71.9376 12.9185C71.752 12.9132 71.5699 12.8668 71.4044 12.7825C71.2152 12.6919 71.0792 12.6226 70.9966 12.5799L70.73 12.9265L73.457 14.9044L73.7049 14.5606Z" fill="#231F20"/>
<path d="M85.7083 15.6104C85.7575 15.7299 85.7641 15.8626 85.727 15.9863C85.6782 16.0887 85.6083 16.1796 85.5217 16.2529L81.3738 19.9049C81.2864 19.9856 81.1815 20.0449 81.0673 20.0782C80.9453 20.0986 80.8199 20.076 80.7127 20.0142C80.6016 19.9495 80.4987 19.8716 80.4062 19.7823C80.2729 19.665 80.1716 19.5717 80.097 19.4971L79.7744 19.7823L84.6287 25.2923L86.5587 23.7915L86.2921 23.4903C85.9939 23.5859 85.6893 23.6599 85.3804 23.7116C85.0474 23.7809 84.7076 23.8131 84.3675 23.8075C84.2518 23.7978 84.1411 23.7563 84.0476 23.6876C83.9244 23.608 83.8076 23.5189 83.6984 23.421C83.5805 23.3151 83.4683 23.203 83.3625 23.0851L83.0506 22.7412C82.9044 22.579 82.7682 22.4081 82.6427 22.2294C82.5641 22.1199 82.5137 21.9926 82.4961 21.8589C82.4908 21.7308 82.5294 21.6048 82.6054 21.5017C82.7168 21.3502 82.8467 21.2132 82.9919 21.0938L84.6873 19.601L85.2205 20.2061C85.3509 20.35 85.4604 20.5115 85.5457 20.686C85.6182 20.8434 85.6449 21.0179 85.623 21.1898C85.5894 21.3703 85.5244 21.5435 85.4311 21.7016C85.3404 21.8829 85.2315 22.0544 85.1059 22.2134L85.3724 22.528L87.8249 20.3687L87.5583 20.0542C87.3896 20.1536 87.2109 20.2349 87.0252 20.2968C86.8649 20.3613 86.6941 20.3956 86.5214 20.3981C86.3416 20.3914 86.1668 20.3372 86.0149 20.2408C85.8586 20.1387 85.7177 20.0148 85.5964 19.8729L85.0632 19.2705L87.3344 17.2712L88.0835 18.1242C88.1688 18.2202 88.2754 18.3455 88.4007 18.4974C88.5013 18.6139 88.5906 18.7398 88.6673 18.8733C88.8043 19.1669 88.8427 19.497 88.7766 19.8143C88.7335 20.1681 88.627 20.5113 88.462 20.8273L88.7286 21.1418L90.2267 19.8089L85.6523 14.6028L85.3298 14.8854C85.3804 14.96 85.4471 15.0746 85.535 15.2266C85.6072 15.3475 85.6654 15.4763 85.7083 15.6104Z" fill="#231F20"/>
<path d="M86.5166 25.9565C86.3323 26.0187 86.1319 26.0131 85.9515 25.9405C85.8034 25.8652 85.6713 25.762 85.5623 25.6367C85.4482 25.5147 85.343 25.3846 85.2477 25.2475L84.8745 25.4634L86.5566 28.3797L86.9271 28.1638C86.8845 28.0411 86.8338 27.8705 86.7805 27.6519C86.7277 27.4795 86.7105 27.2981 86.7299 27.1188C86.772 26.9186 86.8788 26.7379 87.0337 26.6043C87.2946 26.3717 87.5818 26.1704 87.8894 26.0045L91.0723 24.1678L88.2653 31.4186L88.7558 32.2716L93.6048 29.4753C93.9085 29.2889 94.231 29.1352 94.5671 29.0168C94.7572 28.9468 94.9661 28.9468 95.1562 29.0168C95.3297 29.0934 95.4823 29.2104 95.6014 29.358L95.868 29.7099L96.2385 29.4966L94.5591 26.583L94.1859 26.7989C94.2312 26.9215 94.2792 27.0895 94.3325 27.3001C94.384 27.4728 94.4003 27.6541 94.3805 27.8332C94.3394 28.0313 94.2368 28.2114 94.0873 28.3477C93.8245 28.5838 93.5345 28.7878 93.2236 28.9555L90.6565 30.435L93.1063 24.0772L91.6348 21.5234L91.2509 21.7447C91.3178 21.9321 91.3652 22.126 91.3922 22.3232C91.4127 22.5015 91.401 22.6821 91.3575 22.8563C91.315 23.0196 91.2357 23.1709 91.1256 23.2988C91.0085 23.4322 90.8697 23.5449 90.7151 23.632L87.5029 25.498C87.1917 25.6861 86.861 25.8399 86.5166 25.9565Z" fill="#231F20"/>
<path d="M2.65791 64.8386L3.56692 64.6413C3.68644 64.616 3.80994 64.616 3.92946 64.6413C3.99456 64.6577 4.05528 64.6881 4.10733 64.7305C4.15937 64.7729 4.20149 64.8261 4.23068 64.8866C4.29332 64.9855 4.34686 65.0899 4.39063 65.1985C4.42528 65.2838 4.45994 65.3824 4.49726 65.4944L4.92644 65.3984L4.03875 61.3412L3.60957 61.4345C3.60957 61.5464 3.62556 61.701 3.62823 61.8637C3.63339 62.0111 3.62176 62.1587 3.59358 62.3035C3.57702 62.4316 3.52006 62.5511 3.43097 62.6447C3.33872 62.7181 3.22974 62.7676 3.11375 62.7887L1.51431 63.1352C1.33165 62.9904 1.17714 62.8133 1.05847 62.6127C0.896466 62.3597 0.783435 62.0785 0.725255 61.7837C0.649702 61.4541 0.668658 61.11 0.779945 60.7907C0.891231 60.4715 1.09033 60.1901 1.35437 59.979C1.92128 59.4618 2.77875 59.0771 3.92679 58.8247C5.01085 58.5901 5.89943 58.5964 6.59252 58.8434C6.91599 58.9432 7.20621 59.1292 7.43208 59.3814C7.65795 59.6335 7.81096 59.9424 7.87473 60.2749C7.94068 60.5476 7.94793 60.8312 7.896 61.107C7.84406 61.3827 7.73414 61.6443 7.5735 61.8743C7.11983 62.4621 6.54532 62.9457 5.88877 63.2925L5.99273 63.7776L8.83439 63.1059L8.73043 62.626L8.35456 62.3595C8.4323 62.0267 8.48047 61.6877 8.49851 61.3465C8.52373 60.9206 8.48783 60.4933 8.39188 60.0776C8.27518 59.4669 8.04846 58.8825 7.72278 58.3529C7.42629 57.8808 7.03173 57.4781 6.56586 57.172C6.1039 56.8693 5.58192 56.6701 5.03573 56.5882C4.45113 56.5006 3.8553 56.5232 3.27902 56.6548C2.67478 56.7715 2.10065 57.0101 1.59162 57.3559C1.15594 57.6612 0.792062 58.0579 0.525326 58.5182C0.260375 58.97 0.0924225 59.472 0.0321669 59.9923C-0.0313259 60.5426 -0.000676584 61.0997 0.122802 61.6397C0.277313 62.3079 0.52026 62.9525 0.845213 63.5564C1.10243 64.0924 1.42863 64.5925 1.81554 65.0439C1.97815 64.9985 2.11676 64.9639 2.22872 64.9372C2.34069 64.9106 2.48463 64.8786 2.65791 64.8386Z" fill="#231F20"/>
<path d="M6.98976 73.145C6.66932 73.1477 6.34921 73.1236 6.03277 73.0731C5.6877 73.0357 5.34791 72.9597 5.01979 72.8465C4.91227 72.8012 4.81983 72.7263 4.75322 72.6306C4.65997 72.5124 4.57534 72.3877 4.49997 72.2574C4.41766 72.1175 4.34291 71.9734 4.27605 71.8255L4.08412 71.3937C3.99266 71.1904 3.91517 70.9811 3.8522 70.7672C3.80856 70.6348 3.80029 70.4933 3.82821 70.3567C3.86259 70.2305 3.93988 70.1202 4.0468 70.0448C4.2032 69.9357 4.3724 69.8461 4.55062 69.7782L6.65655 68.8559L6.98176 69.613C7.06423 69.793 7.11905 69.9844 7.14437 70.1808C7.16595 70.3566 7.1373 70.535 7.06174 70.6952C6.97126 70.8591 6.85311 71.0061 6.71253 71.1298C6.56852 71.2785 6.40849 71.4108 6.23536 71.5243L6.40597 71.9161L9.46889 70.5966L9.29828 70.2047C9.10472 70.2472 8.9073 70.2695 8.70915 70.2714C8.52915 70.2853 8.34816 70.2645 8.17601 70.2101C8.00413 70.1459 7.85171 70.0385 7.7335 69.8982C7.61922 69.749 7.52594 69.5849 7.45626 69.4104L7.13104 68.6533L9.97004 67.4431L10.4312 68.5093C10.4819 68.6293 10.5458 68.7759 10.6205 68.9705C10.6817 69.1159 10.729 69.2667 10.7618 69.421C10.8018 69.7498 10.7345 70.0827 10.5698 70.37C10.4161 70.6996 10.2039 70.9986 9.94339 71.2524L10.1113 71.6469L11.9773 70.8472L9.18099 64.3162L8.77846 64.4894C8.80245 64.5774 8.83444 64.7107 8.8691 64.8866C8.89974 65.0268 8.91582 65.1697 8.91708 65.3131C8.92629 65.4446 8.89057 65.5752 8.81578 65.6837C8.73548 65.7666 8.63817 65.8312 8.53055 65.8729L3.35105 68.1042C3.24022 68.1559 3.11871 68.1805 2.9965 68.1761C2.87226 68.1572 2.75835 68.096 2.67395 68.0029C2.5882 67.9045 2.51314 67.7972 2.45003 67.683C2.35673 67.5257 2.28742 67.4004 2.23944 67.3071L1.83691 67.4804L4.80387 74.3739L7.15237 73.5289L6.98976 73.145Z" fill="#231F20"/>
<path d="M25.532 92.6317C25.2303 92.8219 24.9169 92.9929 24.5937 93.1435C24.2941 93.2932 23.9771 93.4051 23.65 93.4767C23.4264 93.4926 23.2034 93.4375 23.0129 93.3194C22.7523 93.1856 22.5012 93.0342 22.2611 92.8663C22.0601 92.7317 21.867 92.5857 21.6827 92.4291C21.5648 92.3391 21.4728 92.2196 21.4161 92.0825C21.3733 91.9614 21.38 91.8282 21.4348 91.712C21.5099 91.53 21.6075 91.358 21.7253 91.2002L24.7109 86.8711C24.7809 86.7701 24.8718 86.6856 24.9775 86.6231C25.0346 86.5946 25.0969 86.5779 25.1606 86.5743C25.2243 86.5706 25.2881 86.58 25.3481 86.6018C25.4858 86.6476 25.6196 86.7046 25.7479 86.7724L26.1264 86.975L26.3744 86.6125L22.7623 84.1174L22.749 84.1387L17.2469 78.7193L17.2149 78.7513L15.4769 76.2188L15.1117 76.4694C15.1841 76.6319 15.2473 76.7983 15.3009 76.9679C15.3656 77.1381 15.3973 77.319 15.3942 77.501C15.3644 77.7065 15.2713 77.8975 15.1277 78.0475C14.8793 78.3096 14.6001 78.5406 14.296 78.7353L11.8008 80.4493L13.7841 73.785L12.0807 71.3032L11.7102 71.5698C11.7933 71.7552 11.8559 71.9492 11.8968 72.1483C11.9288 72.3245 11.9288 72.5051 11.8968 72.6814C11.8683 72.8519 11.7988 73.0129 11.6942 73.1506C11.5876 73.2971 11.4558 73.4234 11.305 73.5238L8.20211 75.6563C7.90326 75.8769 7.58152 76.0646 7.24245 76.2162C7.0566 76.2961 6.84775 76.3047 6.65599 76.2401C6.4944 76.1804 6.34594 76.0898 6.21881 75.9736C6.09364 75.8578 5.97611 75.734 5.86693 75.603L5.50439 75.8536L7.45571 78.6793L7.81824 78.4314C7.76493 78.3114 7.69829 78.1408 7.62631 77.9222C7.56134 77.7521 7.52966 77.5711 7.53301 77.3891C7.55992 77.1819 7.65349 76.9892 7.79958 76.8399C8.04572 76.5828 8.3213 76.3555 8.62063 76.1628L11.7155 74.0303L9.44967 81.6516L10.0175 82.4779L14.7278 79.2418C15.0223 79.0306 15.3386 78.8518 15.6715 78.7086C15.858 78.6205 16.0699 78.6026 16.2686 78.658C16.4527 78.7206 16.6184 78.8277 16.7511 78.9698L16.8764 79.1058L15.6421 80.356L15.9514 80.6626C16.323 80.4828 16.7164 80.352 17.1216 80.2734C17.5801 80.1739 17.8974 80.1899 18.0733 80.3214C18.1693 80.396 18.2839 80.492 18.4172 80.6066C18.5505 80.7212 18.6651 80.8252 18.753 80.9158L18.9423 81.0998L14.5012 85.6022C14.4172 85.6932 14.3132 85.7635 14.1973 85.8074C14.0718 85.8463 13.936 85.8348 13.8188 85.7754C13.6957 85.714 13.581 85.637 13.4776 85.5462C13.323 85.4236 13.211 85.3276 13.1177 85.2583L12.8085 85.5702L15.986 88.6997L16.2926 88.3879C16.2126 88.2866 16.1193 88.1613 16.026 88.0067C15.9455 87.8935 15.8741 87.774 15.8128 87.6494C15.754 87.5331 15.7416 87.3987 15.7781 87.2736C15.8219 87.1582 15.8901 87.0536 15.978 86.967L20.3791 82.4966L20.5684 82.6832C20.659 82.7738 20.7657 82.8831 20.883 83.0164C21.0003 83.1497 21.0962 83.2617 21.1709 83.355C21.3068 83.5309 21.3281 83.8481 21.2375 84.3066C21.1633 84.7127 21.0379 85.1077 20.8643 85.4822L21.1762 85.7861L22.6743 84.2666L22.5251 84.4799L22.8076 84.7465C22.9082 84.8515 22.9975 84.9668 23.0742 85.0904C23.151 85.1972 23.1896 85.3268 23.1835 85.4582C23.1599 85.57 23.1126 85.6755 23.0449 85.7674L19.846 90.4111C19.7822 90.5219 19.6902 90.6139 19.5794 90.6777C19.4664 90.7258 19.3402 90.7333 19.2222 90.699C19.1087 90.6624 18.9989 90.6151 18.8943 90.5578C18.7344 90.4778 18.5984 90.4058 18.4838 90.3392L18.2332 90.7017L24.2844 94.9002L25.8839 92.8769L25.532 92.6317Z" fill="#231F20"/>
<path d="M35.3075 91.2424L28.8511 88.3101L28.6672 88.7099C28.7472 88.7579 28.8565 88.8352 29.0031 88.9418C29.1201 89.0246 29.2282 89.1193 29.3256 89.2244C29.4211 89.3147 29.4824 89.4353 29.4989 89.5656C29.4964 89.6814 29.4682 89.7953 29.4163 89.8988L27.0838 95.0357C27.0385 95.1484 26.9662 95.2482 26.8732 95.3263C26.7683 95.397 26.6417 95.4282 26.516 95.4142C26.386 95.4006 26.2581 95.372 26.1348 95.3289C25.957 95.2756 25.8211 95.2303 25.7269 95.193L25.543 95.5928L32.3752 98.6931L33.5428 96.4885L33.1696 96.3179C32.9335 96.5343 32.6803 96.7313 32.4125 96.907C32.1326 97.112 31.8304 97.2846 31.5115 97.4215C31.3993 97.4608 31.2785 97.4682 31.1623 97.4428C31.0142 97.4194 30.868 97.3846 30.7251 97.3389C30.5919 97.2962 30.4399 97.2402 30.2693 97.1683L29.8375 96.979C29.6328 96.89 29.4342 96.7876 29.243 96.6724C29.123 96.6022 29.0222 96.5032 28.9498 96.3845C28.8902 96.2678 28.8732 96.1339 28.9018 96.006C28.9411 95.8211 29.0038 95.6419 29.0884 95.4729L30.0427 93.3723L30.7918 93.7135C30.9736 93.7916 31.1425 93.8968 31.2929 94.0254C31.4267 94.1419 31.5254 94.2932 31.5782 94.4625C31.6216 94.6449 31.6334 94.8334 31.6128 95.0197C31.6054 95.2257 31.5759 95.4304 31.5249 95.6301L31.9141 95.8087L33.2922 92.7698L32.903 92.5939C32.7901 92.7545 32.6595 92.902 32.5138 93.0337C32.3911 93.1612 32.2466 93.2659 32.0873 93.3429C31.918 93.4094 31.7344 93.4314 31.5542 93.4069C31.3696 93.377 31.1901 93.3214 31.021 93.2417L30.272 92.9004L31.5488 90.0881L32.6151 90.5679C32.7351 90.6239 32.8817 90.6932 33.0656 90.7839C33.2094 90.8487 33.346 90.9283 33.4735 91.0211C33.7246 91.2372 33.8986 91.5291 33.9693 91.8528C34.0771 92.1974 34.1214 92.5587 34.0999 92.9191L34.4891 93.095L35.3075 91.2424Z" fill="#231F20"/>
<path d="M46.5492 93.9377L43.0838 93.2019C43.0339 93.3385 42.976 93.472 42.9105 93.6018C42.8307 93.7796 42.7418 93.9531 42.6439 94.1216L40.1275 97.9709L39.2851 92.3942L35.6837 91.6292L35.5931 92.0583C35.7475 92.1038 35.8988 92.159 36.0462 92.2236C36.2036 92.2973 36.3422 92.4057 36.4514 92.5408C36.552 92.664 36.6165 92.8125 36.638 92.97C36.6611 93.1723 36.6485 93.3772 36.6007 93.5751L35.777 97.4511C35.7114 97.803 35.6114 98.1477 35.4784 98.4801C35.4054 98.679 35.2597 98.8429 35.0706 98.9386C34.8949 99.0098 34.7054 99.0408 34.5161 99.0292C34.3002 99.0292 34.1456 99.0292 34.0523 99.0105L33.959 99.4397L37.3125 100.154L37.4058 99.725C37.2421 99.6616 37.0835 99.5858 36.9313 99.4984C36.7627 99.4183 36.6107 99.307 36.4834 99.1705C36.3611 99.0007 36.2966 98.796 36.2995 98.5867C36.3014 98.2274 36.3453 97.8695 36.4301 97.5204L37.4511 92.7674L38.2881 98.5654C38.3228 98.7973 38.3681 99.0985 38.4214 99.4984C38.4747 99.8982 38.5067 100.143 38.5147 100.271L39.2078 100.418L43.3583 94.1163L42.1108 99.9649C42.0883 100.093 42.0312 100.213 41.9455 100.311C41.852 100.401 41.7326 100.459 41.6043 100.477C41.475 100.491 41.3444 100.491 41.2151 100.477C41.0258 100.463 40.8685 100.45 40.7433 100.434L40.65 100.863L44.8911 101.764L44.9818 101.335L44.6059 101.191C44.4867 101.146 44.3723 101.089 44.2647 101.02C44.1564 100.951 44.0748 100.846 44.0328 100.725C44.0046 100.611 44.0046 100.492 44.0328 100.378L45.211 94.836C45.2344 94.7188 45.2826 94.6079 45.3523 94.5108C45.3927 94.4608 45.4434 94.4199 45.5008 94.3909C45.5583 94.362 45.6212 94.3456 45.6855 94.3429C45.8142 94.3348 45.9433 94.3348 46.072 94.3429C46.1988 94.3471 46.3252 94.3586 46.4506 94.3775L46.5492 93.9377Z" fill="#231F20"/>
<path d="M55.1725 101.17C54.9037 101.125 54.6588 100.988 54.4794 100.783C54.4014 100.692 54.3368 100.589 54.2875 100.479C53.9836 99.7917 53.6148 98.9254 53.1812 97.8804C52.7476 96.8354 52.1496 95.4137 51.3872 93.6152L50.2596 93.6339C49.7477 94.9188 49.2812 96.0944 48.86 97.1607C48.4389 98.2269 48.0186 99.2932 47.5992 100.36C47.5354 100.53 47.4455 100.689 47.3326 100.831C47.2251 100.967 47.0942 101.081 46.9461 101.17C46.8333 101.237 46.7097 101.284 46.5809 101.309C46.4423 101.341 46.3015 101.362 46.1597 101.372V101.812L49.4412 101.762V101.325C49.1293 101.316 48.8208 101.258 48.5268 101.154C48.3429 101.071 48.2603 100.97 48.2603 100.85C48.2603 100.813 48.2603 100.749 48.2763 100.653C48.3055 100.497 48.3456 100.344 48.3962 100.194C48.4495 100.032 48.5135 99.8477 48.5881 99.6398C48.6628 99.4318 48.7294 99.2506 48.7907 99.1066L51.5524 99.064L52.2615 100.709C52.2835 100.757 52.2996 100.808 52.3095 100.861C52.313 100.894 52.313 100.928 52.3095 100.962C52.3095 101.049 52.1735 101.124 51.9016 101.186C51.6668 101.243 51.428 101.283 51.1872 101.306V101.746L55.543 101.679V101.239C55.4179 101.226 55.2939 101.203 55.1725 101.17ZM49.0147 98.5255L50.1076 95.6119L51.3152 98.4908L49.0147 98.5255Z" fill="#231F20"/>
<path d="M62.9383 93.2015C62.9254 92.9954 62.988 92.7917 63.1143 92.6284C63.2407 92.4809 63.402 92.3672 63.5834 92.2978C63.77 92.2258 63.9113 92.1752 64.0126 92.1405L63.9166 91.7007L60.5658 92.4418L60.6591 92.8709C60.8369 92.8657 61.0149 92.8701 61.1923 92.8843C61.3756 92.8863 61.5567 92.9243 61.7254 92.9962C61.9052 93.0971 62.0488 93.2519 62.1359 93.4387C62.2851 93.7675 62.3943 94.1129 62.4611 94.4677L63.1143 97.424L57.6735 93.0842L54.7412 93.7346L54.8398 94.1745C55.0425 94.1673 55.2453 94.1816 55.445 94.2171C55.6245 94.2498 55.7963 94.3158 55.9514 94.4117C56.0993 94.5022 56.2235 94.6264 56.314 94.7743C56.4085 94.9288 56.4761 95.0983 56.5139 95.2754L57.3056 98.9861C57.398 99.3454 57.4516 99.7136 57.4656 100.084C57.4694 100.283 57.4023 100.477 57.2763 100.631C57.1567 100.757 57.0136 100.858 56.8551 100.929C56.7017 101.004 56.5431 101.067 56.3806 101.119L56.4766 101.548L59.8327 100.804L59.7368 100.375C59.5592 100.384 59.3812 100.384 59.2036 100.375C59.0204 100.372 58.8394 100.334 58.6705 100.263C58.4893 100.16 58.3462 100.001 58.2626 99.8098C58.115 99.4847 58.0076 99.1427 57.9427 98.7915L57.143 95.1261L63.3408 100.087L64.3218 99.8711L63.0876 94.2891C62.9971 93.9333 62.947 93.5685 62.9383 93.2015Z" fill="#231F20"/>
<path d="M67.293 89.5126C67.1236 89.4754 66.9467 89.4912 66.7866 89.5579C66.608 89.6234 66.4492 89.7335 66.3254 89.8778C66.1916 90.0566 66.1004 90.2636 66.0588 90.4829C66.0055 90.7015 65.9442 90.9681 65.8775 91.2827C65.8109 91.5972 65.7016 92.0131 65.563 92.5462L65.8616 92.6529C66.217 92.1837 66.536 91.7714 66.8185 91.416C67.1064 91.0614 67.3117 90.7948 67.437 90.6162C67.5352 90.4852 67.6101 90.3382 67.6582 90.1817C67.6882 90.0392 67.6724 89.8908 67.6129 89.7579C67.5844 89.6935 67.5401 89.6373 67.4842 89.5945C67.4283 89.5517 67.3626 89.5235 67.293 89.5126Z" fill="#231F20"/>
<path d="M77.469 91.0641C77.2341 90.6276 76.8583 90.2837 76.4027 90.0884C75.92 89.908 75.3967 89.8655 74.8912 89.9658C74.654 90.0031 74.3848 90.0564 74.0915 90.1231L73.2145 90.307C72.8323 90.4099 72.433 90.4326 72.0416 90.3736C71.8971 90.3449 71.7608 90.2846 71.6424 90.197C71.5239 90.1095 71.4263 89.9968 71.3565 89.8671C71.2728 89.7288 71.2208 89.5736 71.2042 89.4127C71.1877 89.2519 71.2069 89.0894 71.2605 88.9368C71.3797 88.5933 71.6244 88.3076 71.9456 88.1371C72.1941 87.9799 72.4784 87.8881 72.772 87.8705C73.0485 87.8632 73.3241 87.9065 73.585 87.9985C73.867 88.1064 74.1353 88.2469 74.3848 88.417C74.67 88.6036 74.9366 88.7929 75.1845 88.9901L75.603 88.7449L74.1848 86.415L73.761 86.6629L73.6383 87.1268C73.3092 87.1425 72.9824 87.1907 72.6627 87.2707C72.2516 87.366 71.8578 87.5243 71.4951 87.7399C71.1226 87.953 70.7891 88.228 70.5088 88.5529C70.2653 88.8271 70.0754 89.1445 69.949 89.4886C69.8441 89.7997 69.8042 90.1291 69.8317 90.4563C69.8538 90.7649 69.9449 91.0646 70.0983 91.3333C70.3338 91.7455 70.6863 92.0785 71.1112 92.2903C71.5789 92.5074 72.1028 92.5727 72.6094 92.4769C72.8573 92.4369 73.1159 92.3863 73.3878 92.3276L74.2835 92.1303C74.675 92.0233 75.0848 92.0006 75.4857 92.0637C75.6317 92.0919 75.7698 92.1516 75.8905 92.2386C76.0111 92.3256 76.1113 92.4379 76.1841 92.5675C76.2769 92.7188 76.3359 92.8884 76.3571 93.0646C76.3783 93.2408 76.3611 93.4195 76.3067 93.5885C76.1583 93.9875 75.8639 94.3153 75.483 94.5055C75.1878 94.687 74.851 94.7898 74.5047 94.8041C74.174 94.8095 73.8446 94.7618 73.529 94.6628C73.208 94.5634 72.9001 94.4255 72.612 94.2523C72.3339 94.0926 72.0667 93.9145 71.8123 93.7191L71.3938 93.9644L72.9186 96.4222L73.3318 96.1823L73.4677 95.6491C73.8545 95.6372 74.2384 95.579 74.6113 95.4758C75.0578 95.3578 75.4857 95.1784 75.8829 94.9427C76.2899 94.7133 76.6586 94.4219 76.9758 94.079C77.2427 93.7864 77.4541 93.4477 77.5996 93.0794C77.7286 92.7534 77.7823 92.4026 77.7569 92.053C77.7394 91.7054 77.6408 91.3668 77.469 91.0641Z" fill="#231F20"/>
<path d="M85.8293 83.8637C85.5031 83.4916 85.0606 83.2408 84.5738 83.152C84.0629 83.0839 83.5432 83.1596 83.073 83.3705C82.849 83.4638 82.6011 83.5731 82.3266 83.7038C82.052 83.8344 81.7801 83.9703 81.5135 84.0823C81.164 84.2675 80.7802 84.3791 80.3859 84.4102C80.2386 84.4136 80.0923 84.3852 79.957 84.3267C79.8217 84.2683 79.7007 84.1813 79.6022 84.0716C79.4895 83.9557 79.404 83.8161 79.3519 83.663C79.2998 83.51 79.2824 83.3472 79.301 83.1866C79.3391 82.8249 79.5136 82.4913 79.7888 82.2536C79.9976 82.047 80.2553 81.8966 80.5379 81.8164C80.8053 81.7445 81.084 81.7246 81.3589 81.7578C81.6578 81.7994 81.9511 81.8745 82.2333 81.9817C82.5531 82.1017 82.8544 82.2269 83.1396 82.3629L83.4915 82.0324L81.5855 80.0784L81.2309 80.4143L81.2123 80.8967C80.8952 80.9841 80.5879 81.1038 80.2953 81.254C79.9164 81.4394 79.5684 81.6822 79.2636 81.9737C78.947 82.265 78.6828 82.6086 78.4826 82.9893C78.3077 83.3102 78.1947 83.661 78.1494 84.0236C78.1163 84.3506 78.1508 84.6809 78.2507 84.994C78.3453 85.2923 78.5056 85.5655 78.7198 85.7937C79.0409 86.1435 79.4598 86.3888 79.9221 86.4974C80.4259 86.6055 80.951 86.5524 81.4229 86.3455C81.6548 86.2495 81.8974 86.1429 82.148 86.0256L82.9743 85.6337C83.3328 85.4408 83.7279 85.3255 84.1339 85.2952C84.2836 85.2899 84.4326 85.3173 84.5707 85.3753C84.7088 85.4332 84.8326 85.5205 84.9336 85.6311C85.0581 85.7572 85.1538 85.9087 85.214 86.0753C85.2743 86.2419 85.2978 86.4195 85.2829 86.5961C85.2283 87.0188 85.0147 87.4048 84.6857 87.6757C84.4387 87.9197 84.133 88.096 83.798 88.1875C83.4777 88.2681 83.1462 88.2951 82.8171 88.2675C82.482 88.2417 82.151 88.1773 81.8307 88.0755C81.5241 87.9795 81.2241 87.8637 80.9324 87.729L80.5778 88.0622L82.6171 90.1148L82.9637 89.7869L82.977 89.2325C83.3478 89.1334 83.7057 88.9912 84.0433 88.8086C84.4518 88.5953 84.8286 88.3261 85.1629 88.0089C85.5128 87.689 85.8098 87.3156 86.0426 86.9026C86.234 86.5564 86.363 86.1793 86.4238 85.7884C86.4764 85.4422 86.45 85.0886 86.3465 84.7541C86.2469 84.4206 86.0696 84.1154 85.8293 83.8637Z" fill="#231F20"/>
<path d="M93.7559 76.3759C93.663 76.476 93.5593 76.5654 93.4466 76.6425C93.3415 76.7155 93.2142 76.7494 93.0868 76.7385C92.9694 76.7198 92.8585 76.6722 92.7642 76.5999L88.1445 73.3077C88.0464 73.2378 87.9653 73.1467 87.9073 73.0411C87.8781 72.9847 87.8612 72.9228 87.8575 72.8595C87.8538 72.7961 87.8635 72.7326 87.8859 72.6732C87.9285 72.5415 87.9811 72.4132 88.0432 72.2894C88.1125 72.1508 88.1765 72.0228 88.2405 71.9295L87.8833 71.6763L85.3802 75.2004L85.7374 75.4669C85.8287 75.3732 85.9248 75.2842 86.0253 75.2004C86.1279 75.1089 86.2385 75.0268 86.3558 74.9551C86.4636 74.8831 86.5916 74.8476 86.721 74.8538C86.8349 74.8701 86.9424 74.9161 87.0329 74.9871L88.9362 76.336L86.9583 79.1216L85.0096 77.7381C84.9127 77.6669 84.8319 77.5761 84.7724 77.4716C84.742 77.4146 84.7243 77.3517 84.7206 77.2873C84.717 77.2229 84.7273 77.1584 84.751 77.0984C84.7929 76.9787 84.841 76.8612 84.895 76.7465C84.9533 76.6183 85.0192 76.4937 85.0923 76.3733L84.7324 76.12L82.2319 79.6441L82.5891 79.9107C82.6726 79.8166 82.7616 79.7276 82.8557 79.6441C82.9642 79.543 83.083 79.4537 83.2103 79.3775C83.3166 79.3047 83.4441 79.2691 83.5728 79.2763C83.6865 79.2948 83.7937 79.3416 83.8847 79.4122L88.499 82.6857C88.6001 82.7539 88.6832 82.8453 88.7416 82.9523C88.7928 83.0657 88.7994 83.1941 88.7603 83.3122C88.7172 83.4403 88.6609 83.5636 88.5924 83.68C88.5044 83.84 88.4324 83.9599 88.3818 84.0372L88.739 84.3038L91.2421 80.7771L90.8929 80.5052C90.8004 80.6139 90.7016 80.7172 90.597 80.8144C90.5077 80.9039 90.4104 80.9851 90.3064 81.057C90.2021 81.1268 90.0769 81.1588 89.9519 81.1476C89.8329 81.1321 89.72 81.0862 89.624 81.0143L87.4274 79.4522L89.4054 76.6665L91.6526 78.2659C91.755 78.3325 91.8385 78.4243 91.8952 78.5325C91.9394 78.6486 91.944 78.776 91.9085 78.8951C91.8733 79.0164 91.8193 79.1315 91.7486 79.2363C91.6579 79.3935 91.586 79.5028 91.538 79.5908L91.8978 79.8574L94.3983 76.3306L94.0411 76.0774C93.952 76.1825 93.8568 76.2822 93.7559 76.3759Z" fill="#231F20"/>
<path d="M96.3236 65.9738C95.9096 65.5864 95.4292 65.2767 94.9055 65.0594C94.3557 64.8168 93.7603 64.695 93.1594 64.7022C92.617 64.7115 92.0824 64.8332 91.5893 65.0594C91.1054 65.2866 90.67 65.6053 90.3071 65.9978C89.9172 66.4179 89.6057 66.9045 89.3874 67.4346C89.1582 67.9681 89.029 68.5391 89.0062 69.1193C88.9839 69.6651 89.0747 70.2097 89.2728 70.7188C89.4755 71.2351 89.7821 71.7042 90.1738 72.0969C90.6047 72.5279 91.1178 72.8678 91.6826 73.0966C92.2213 73.3312 92.8038 73.4484 93.3913 73.4405C93.9308 73.4329 94.4629 73.3131 94.9535 73.0886C95.4442 72.865 95.8855 72.546 96.2517 72.1502C97.0653 71.2539 97.5372 70.0997 97.5845 68.8901C97.5867 68.3356 97.4779 67.7864 97.2646 67.2746C97.0451 66.7802 96.7246 66.3371 96.3236 65.9738ZM96.6569 70.4922C96.5348 70.8103 96.3144 71.0811 96.0278 71.2652C95.7329 71.4399 95.3997 71.5396 95.0574 71.5558C94.6506 71.5766 94.2429 71.538 93.8472 71.4412C93.3856 71.3329 92.9343 71.1849 92.4983 70.9987C91.4125 70.5437 90.6412 70.0283 90.1845 69.4525C89.9671 69.2118 89.8242 68.9132 89.7731 68.5929C89.722 68.2725 89.7649 67.9443 89.8966 67.6478C90.0247 67.3136 90.2612 67.032 90.5683 66.8481C90.8782 66.6803 91.2237 66.5889 91.576 66.5815C91.9833 66.5719 92.3899 66.6203 92.7836 66.7255C93.221 66.8377 93.6496 66.9821 94.0658 67.1573C94.5206 67.3432 94.9585 67.5679 95.3746 67.8291C95.7202 68.0504 96.0325 68.3197 96.3023 68.6288C96.5311 68.8786 96.691 69.1836 96.7662 69.5138C96.8335 69.8433 96.7952 70.1857 96.6569 70.4922Z" fill="#231F20"/>
<path d="M99.5682 60.627C99.5309 60.7389 99.4802 60.8722 99.4109 61.0322C99.3648 61.1496 99.3087 61.2629 99.243 61.3707C99.1758 61.4814 99.0706 61.5638 98.9471 61.6026C98.8289 61.6321 98.7054 61.6321 98.5872 61.6026L96.388 61.1334L96.5239 60.4963C96.6308 60.0167 96.6862 59.527 96.6892 59.0355C96.6931 58.617 96.6237 58.2011 96.484 57.8066C96.3593 57.4539 96.1475 57.1385 95.8682 56.8896C95.56 56.6258 95.1875 56.4483 94.7885 56.3751C94.5021 56.296 94.1998 56.2946 93.9126 56.3709C93.6254 56.4473 93.3638 56.5987 93.1545 56.8096C92.7279 57.2415 92.4063 57.963 92.1895 58.9742L91.2725 63.29L91.7016 63.3833C91.7319 63.2998 91.7825 63.1772 91.8536 63.0155C91.9078 62.8795 91.9766 62.7499 92.0588 62.6289C92.1244 62.5167 92.2287 62.4324 92.3521 62.3917C92.467 62.3651 92.5864 62.3651 92.7013 62.3917L98.2193 63.5646C98.3423 63.584 98.4586 63.6335 98.5579 63.7085C98.6467 63.7971 98.7014 63.9141 98.7125 64.0391C98.7288 64.1665 98.7288 64.2955 98.7125 64.423C98.6938 64.6042 98.6805 64.7482 98.6672 64.8575L99.0964 64.9508L100 60.7096L99.5682 60.627ZM95.9188 60.7949L95.8682 61.0268L92.4347 60.2964L92.5307 59.8379C92.6622 59.2319 92.8941 58.8409 93.2264 58.665C93.6658 58.4803 94.1554 58.453 94.6126 58.5877C94.8517 58.6182 95.0813 58.7006 95.2853 58.829C95.4893 58.9575 95.6627 59.1289 95.7935 59.3314C96.0134 59.7874 96.058 60.3082 95.9188 60.7949Z" fill="#231F20"/>
</svg>
