<svg xmlns="http://www.w3.org/2000/svg" xmlns:xlink="http://www.w3.org/1999/xlink" width="952px" height="604px" viewBox="0 0 952 604" version="1.1">
<!-- Generator: Sketch 53.2 (72643) - https://sketchapp.com -->
<title>dashboards</title>
<desc>Created with Sketch.</desc>
<defs>
    <rect id="path-1" x="0" y="0" width="787" height="502" rx="15"/>
    <filter x="-5.7%" y="-9.0%" width="111.4%" height="117.9%" filterUnits="objectBoundingBox" id="filter-2">
        <feMorphology radius="2.5" operator="dilate" in="SourceAlpha" result="shadowSpreadOuter1"/>
        <feOffset dx="0" dy="0" in="shadowSpreadOuter1" result="shadowOffsetOuter1"/>
        <feGaussianBlur stdDeviation="12.5" in="shadowOffsetOuter1" result="shadowBlurOuter1"/>
        <feColorMatrix values="0 0 0 0 0   0 0 0 0 0   0 0 0 0 0  0 0 0 0.05 0" type="matrix" in="shadowBlurOuter1"/>
    </filter>
    <rect id="path-3" x="1.42108547e-14" y="0" width="169.666667" height="90"/>
    <filter x="-5.3%" y="-10.0%" width="110.6%" height="120.0%" filterUnits="objectBoundingBox" id="filter-4">
        <feMorphology radius="0.5" operator="dilate" in="SourceAlpha" result="shadowSpreadOuter1"/>
        <feOffset dx="0" dy="0" in="shadowSpreadOuter1" result="shadowOffsetOuter1"/>
        <feGaussianBlur stdDeviation="2.5" in="shadowOffsetOuter1" result="shadowBlurOuter1"/>
        <feColorMatrix values="0 0 0 0 0   0 0 0 0 0   0 0 0 0 0  0 0 0 0.07 0" type="matrix" in="shadowBlurOuter1"/>
    </filter>
    <rect id="path-5" x="1.42108547e-14" y="0" width="169.666667" height="90"/>
    <filter x="-5.3%" y="-10.0%" width="110.6%" height="120.0%" filterUnits="objectBoundingBox" id="filter-6">
        <feMorphology radius="0.5" operator="dilate" in="SourceAlpha" result="shadowSpreadOuter1"/>
        <feOffset dx="0" dy="0" in="shadowSpreadOuter1" result="shadowOffsetOuter1"/>
        <feGaussianBlur stdDeviation="2.5" in="shadowOffsetOuter1" result="shadowBlurOuter1"/>
        <feColorMatrix values="0 0 0 0 0   0 0 0 0 0   0 0 0 0 0  0 0 0 0.07 0" type="matrix" in="shadowBlurOuter1"/>
    </filter>
    <rect id="path-7" x="1.42108547e-14" y="0" width="205.296671" height="108.900002"/>
    <filter x="-13.9%" y="-26.2%" width="127.8%" height="152.3%" filterUnits="objectBoundingBox" id="filter-8">
        <feMorphology radius="2" operator="dilate" in="SourceAlpha" result="shadowSpreadOuter1"/>
        <feOffset dx="0" dy="0" in="shadowSpreadOuter1" result="shadowOffsetOuter1"/>
        <feGaussianBlur stdDeviation="7.5" in="shadowOffsetOuter1" result="shadowBlurOuter1"/>
        <feColorMatrix values="0 0 0 0 0   0 0 0 0 0   0 0 0 0 0  0 0 0 0.07 0" type="matrix" in="shadowBlurOuter1"/>
    </filter>
    <rect id="path-9" x="0" y="0" width="550.9" height="351.4" rx="10.5"/>
    <filter x="-6.0%" y="-9.4%" width="112.0%" height="118.8%" filterUnits="objectBoundingBox" id="filter-10">
        <feMorphology radius="2" operator="dilate" in="SourceAlpha" result="shadowSpreadOuter1"/>
        <feOffset dx="0" dy="0" in="shadowSpreadOuter1" result="shadowOffsetOuter1"/>
        <feGaussianBlur stdDeviation="9" in="shadowOffsetOuter1" result="shadowBlurOuter1"/>
        <feColorMatrix values="0 0 0 0 0   0 0 0 0 0   0 0 0 0 0  0 0 0 0.05 0" type="matrix" in="shadowBlurOuter1"/>
    </filter>
    <rect id="path-11" x="1.42108547e-14" y="0" width="118.766667" height="63"/>
    <filter x="-6.3%" y="-11.9%" width="112.6%" height="123.8%" filterUnits="objectBoundingBox" id="filter-12">
        <feMorphology radius="0.5" operator="dilate" in="SourceAlpha" result="shadowSpreadOuter1"/>
        <feOffset dx="0" dy="0" in="shadowSpreadOuter1" result="shadowOffsetOuter1"/>
        <feGaussianBlur stdDeviation="2" in="shadowOffsetOuter1" result="shadowBlurOuter1"/>
        <feColorMatrix values="0 0 0 0 0   0 0 0 0 0   0 0 0 0 0  0 0 0 0.07 0" type="matrix" in="shadowBlurOuter1"/>
    </filter>
    <rect id="path-13" x="1.42108547e-14" y="0" width="118.766667" height="63"/>
    <filter x="-6.3%" y="-11.9%" width="112.6%" height="123.8%" filterUnits="objectBoundingBox" id="filter-14">
        <feMorphology radius="0.5" operator="dilate" in="SourceAlpha" result="shadowSpreadOuter1"/>
        <feOffset dx="0" dy="0" in="shadowSpreadOuter1" result="shadowOffsetOuter1"/>
        <feGaussianBlur stdDeviation="2" in="shadowOffsetOuter1" result="shadowBlurOuter1"/>
        <feColorMatrix values="0 0 0 0 0   0 0 0 0 0   0 0 0 0 0  0 0 0 0.07 0" type="matrix" in="shadowBlurOuter1"/>
    </filter>
    <rect id="path-15" x="1.42108547e-14" y="0" width="143.70767" height="76.2300017"/>
    <filter x="-14.6%" y="-27.5%" width="129.2%" height="155.1%" filterUnits="objectBoundingBox" id="filter-16">
        <feMorphology radius="1.5" operator="dilate" in="SourceAlpha" result="shadowSpreadOuter1"/>
        <feOffset dx="0" dy="0" in="shadowSpreadOuter1" result="shadowOffsetOuter1"/>
        <feGaussianBlur stdDeviation="5.5" in="shadowOffsetOuter1" result="shadowBlurOuter1"/>
        <feColorMatrix values="0 0 0 0 0   0 0 0 0 0   0 0 0 0 0  0 0 0 0.07 0" type="matrix" in="shadowBlurOuter1"/>
    </filter>
</defs>
<g id="Page-1" stroke="none" stroke-width="1" fill="none" fill-rule="evenodd">
    <g id="Shopmonkey-Lightspeed-page" transform="translate(-78.000000, -959.000000)" fill-rule="nonzero">
        <g id="wat-en-voor-wie?" transform="translate(100.000000, 989.000000)">
            <g id="dashboards">
                <g id="dashboard" transform="translate(113.000000, 0.000000)">
                    <g id="bg">
                        <use fill="black" fill-opacity="1" filter="url(#filter-2)" xlink:href="#path-1"/>
                        <use fill="#FFFFFF" xlink:href="#path-1"/>
                    </g>
                    <g id="sidebar">
                        <path d="M15,0 L148,0 L148,502 L15,502 C6.71572875,502 1.01453063e-15,495.284271 0,487 L0,15 C-1.01453063e-15,6.71572875 6.71572875,1.52179594e-15 15,0 Z" id="Rectangle" fill="#232A3B"/>
                        <rect id="Rectangle" fill-opacity="0.5" fill="#5187E0" x="10" y="68" width="128" height="20" rx="3"/>
                        <rect id="Rectangle-Copy-5" fill-opacity="0.09" fill="#FFFFFF" x="10" y="180" width="128" height="20" rx="3"/>
                        <rect id="Rectangle-Copy-3" fill-opacity="0.09" fill="#FFFFFF" x="10" y="124" width="128" height="20" rx="3"/>
                        <rect id="Rectangle-Copy-6" fill-opacity="0.09" fill="#FFFFFF" x="10" y="236" width="128" height="20" rx="3"/>
                        <rect id="Rectangle-Copy-2" fill-opacity="0.09" fill="#FFFFFF" x="10" y="96" width="128" height="20" rx="3"/>
                        <rect id="Rectangle-Copy-7" fill-opacity="0.09" fill="#FFFFFF" x="10" y="208" width="128" height="20" rx="3"/>
                        <rect id="Rectangle-Copy-4" fill-opacity="0.09" fill="#FFFFFF" x="10" y="152" width="128" height="20" rx="3"/>
                        <rect id="Rectangle-Copy-8" fill-opacity="0.09" fill="#FFFFFF" x="10" y="264" width="128" height="20" rx="3"/>
                        <rect id="Rectangle-Copy-9" fill-opacity="0.09" fill="#FFFFFF" x="10" y="467" width="60" height="20" rx="3"/>
                        <rect id="Rectangle-Copy-10" fill-opacity="0.09" fill="#FFFFFF" x="78" y="467" width="60" height="20" rx="3"/>
                        <g id="logo" transform="translate(22.000000, 15.000000)">
                            <path d="M8.00448438,0 L9.11661286,1.92707763 C9.34030674,2.32507781 9.34030674,2.81080814 9.11661286,3.20880833 L2.54249854,14.6547531 L5.64569575,20.0326442 C5.99616653,20.6619937 6.58462676,21.1245226 7.27922666,21.3165971 C7.97382656,21.5086717 8.71649566,21.4142339 9.34083231,21.0544435 C9.76994179,20.812228 10.1261359,20.4593528 10.3722418,20.0326442 L13.4664702,14.6547531 L12.6323739,13.1937594 L9.11661286,19.3245552 C8.76456077,19.9379076 7.98198871,20.1504732 7.36770114,19.7996022 C7.17158043,19.6840046 7.00802601,19.5205529 6.8923559,19.3245552 L4.20172248,14.6637163 L10.3004916,4.03341829 L11.41262,5.96049592 C11.6363139,6.3584961 11.6363139,6.84422643 11.41262,7.24222662 L7.17038802,14.64579 L8.01345316,16.1067837 L12.6413426,8.03994712 L15.6548521,13.3192435 C16.1150493,14.1374324 16.1150493,15.1362212 15.6548521,15.9544101 L12.5516549,21.3502275 C11.616424,22.9885962 9.87394706,24 7.98654682,24 C6.0991466,24 4.3566696,22.9885962 3.42143879,21.3502275 L0.345147909,15.9723364 C-0.115049303,15.1541475 -0.115049303,14.1553588 0.345147909,13.3371698 L7.9955156,0" id="Path" fill="#EC4F52"/>
                            <path d="M23.168582,5.23031111 L21,5.23031111 L21,18.2724176 L23.168582,18.2724176 L23.168582,5.23031111 Z M24.7702732,6.31563326 C24.7649519,5.69253727 25.1952412,5.15266445 25.7973779,5.02695165 C26.3995145,4.90123884 27.0052772,5.22480694 27.2433392,5.79931181 C27.4814013,6.37381667 27.2852543,7.03875658 26.7751344,7.38652976 C26.2650147,7.73430293 25.5834363,7.66775059 25.1482003,7.22766867 C24.9089496,6.98575412 24.7731984,6.65815129 24.7702732,6.31563326 Z M24.9592368,18.2632972 L27.1458153,18.2632972 L27.1458153,9.21590588 L24.9592368,9.21590588 L24.9592368,18.2632972 Z M61.6721596,13.4112688 C60.7672861,12.9332834 59.7589728,12.6918921 58.7387251,12.7090015 C58.1448395,12.7090015 57.2090199,12.5265944 57.2090199,11.7331236 C57.2090199,11.1676617 57.7939072,10.8210882 58.8467042,10.8210882 C59.6582628,10.7764458 60.45322,11.0658556 61.0512793,11.6236794 L62.2840416,10.1644227 C61.3267784,9.31873924 60.0776935,8.8923553 58.8107112,8.97877667 C57.1820252,8.97877667 55.040438,9.70840501 55.040438,11.7878458 C55.0442222,12.6528599 55.4859491,13.4553124 56.2102125,13.9128883 C57.0885132,14.3577865 58.0539409,14.5977437 59.0356678,14.6151556 C59.6565481,14.678998 60.6823504,14.8340441 60.5203816,15.7187184 C60.4034042,16.3389025 59.6835429,16.5213096 59.1526453,16.5395503 C58.5902184,16.5745358 58.0258187,16.5222509 57.4789679,16.3845043 C56.9196285,16.2195781 56.3928712,15.9572551 55.922268,15.6092742 L54.7794883,17.0594105 L54.9144623,17.1779751 C56.3881923,18.3518084 58.3077773,18.7845433 60.1334562,18.3545008 C61.5315849,18.1426659 62.5868652,16.9584677 62.6529705,15.527191 C62.7112131,14.6902339 62.3320979,13.8836359 61.6541631,13.4021484 L61.6721596,13.4112688 Z M52.6738942,16.7584388 C52.4376985,16.7762482 52.2082654,16.6736544 52.0620121,16.4848282 C51.9076652,16.2277032 51.8383128,15.9273591 51.8640503,15.6275149 L51.8640503,11.149421 L53.6637034,11.149421 L53.8616652,9.20678553 L51.8820468,9.20678553 L51.8820468,6.72604919 L49.6774718,6.9631784 L49.6774718,9.21590588 L48.0127927,9.21590588 L48.0127927,11.149421 L49.6774718,11.149421 L49.6774718,15.6548759 C49.6238656,16.4161167 49.8515958,17.1703454 50.3163487,17.7707981 C50.8183041,18.2828933 51.5130107,18.5519251 52.2239809,18.5095468 C52.6021859,18.5063479 52.9779675,18.4479872 53.3397658,18.3362601 C53.694764,18.2311246 54.0316545,18.0711607 54.3385733,17.8620016 L53.5917173,16.430106 C53.3220358,16.6066288 53.012261,16.7102415 52.6918907,16.7310777 L52.6738942,16.7584388 Z M99.1049436,10.9396528 C100.549756,11.0417897 101.657591,12.2813702 101.61546,13.7487219 C101.760267,14.7468922 101.315907,15.7386923 100.479098,16.2850503 C99.6422894,16.8314082 98.5675978,16.8314082 97.7307888,16.2850503 C96.8939807,15.7386923 96.4496203,14.7468922 96.5944276,13.7487219 C96.5572063,12.2848577 97.6637059,11.0507916 99.1049436,10.9487732 L99.1049436,10.9396528 Z M98.9429748,18.5186671 C100.07519,18.5356898 101.145233,17.995109 101.813422,17.0685308 L101.885408,18.2724176 L104,18.2724176 L104,5.23943146 L101.813422,5.23943146 L101.813422,10.301228 C101.092508,9.42482456 100.003779,8.94754329 98.879987,9.01525809 C96.0455334,9.01525809 94.3808543,11.1585413 94.3808543,13.7852033 C94.3211454,15.0271423 94.7704765,16.2388778 95.622461,17.1335097 C96.4744456,18.0281416 97.6533282,18.5261227 98.879987,18.5095468 L98.9429748,18.5186671 Z M68.6998049,16.557791 C67.262138,16.4511398 66.1608062,15.2184192 66.1982871,13.7578423 C66.0672892,12.7691241 66.5142514,11.7932061 67.3438931,11.2564728 C68.1735349,10.7197394 69.2350731,10.7197394 70.0647148,11.2564728 C70.8943566,11.7932061 71.3413188,12.7691241 71.2103209,13.7578423 C71.2524527,15.225194 70.144617,16.4647745 68.6998049,16.5669113 L68.6998049,16.557791 Z M68.8617736,8.97877667 C67.7295592,8.96175399 66.6595159,9.5023348 65.991327,10.428913 L65.9373374,9.18854482 L63.8137467,9.18854482 L63.8137467,22.2306513 L66.0003252,21.9935221 L66.0003252,17.1962158 C66.7082916,18.0813533 67.7934615,18.5668001 68.9157632,18.5004264 C71.7502168,18.5004264 73.4148959,16.3389025 73.4148959,13.7122405 C73.4720435,12.4718431 73.0215724,11.2625332 72.169877,10.3699315 C71.3181816,9.47732971 70.1407824,8.98058369 68.9157632,8.99701738 L68.8617736,8.97877667 Z M43.7386167,8.97877667 C42.646439,8.95069912 41.611614,9.47342364 40.9761492,10.3741909 L40.9761492,5.22119075 L38.7895707,5.22119075 L38.7895707,18.2632972 L40.9761492,18.2632972 L40.9761492,13.7031201 C40.9291923,13.0781632 41.136087,12.4608776 41.5489137,11.9942358 C41.9617403,11.527594 42.5446844,11.252079 43.1627277,11.2315042 C44.3325022,11.2315042 45.1693408,11.9246511 45.1693408,13.5754352 L45.1693408,18.308899 L47.3559193,18.308899 L47.3559193,13.365667 C47.3559193,10.7207643 46.2491327,8.97877667 43.7566132,8.97877667 L43.7386167,8.97877667 Z M81.4593452,12.8366865 C81.135217,11.6649008 80.0864637,10.8509385 78.8858413,10.8393289 C77.6785303,10.8428305 76.6203112,11.6584361 76.2943408,12.8366865 L81.4593452,12.8366865 Z M76.2943408,14.5513131 C76.6321155,15.7974402 77.7840326,16.6341184 79.0568083,16.557791 C79.9294782,16.5444903 80.7699862,16.2217963 81.4323504,15.6457556 L82.8360798,17.0502901 C81.8028503,18.0268408 80.4331319,18.554003 79.0208153,18.5186671 C77.7433191,18.6030929 76.4908336,18.1319121 75.5770419,17.2231316 C74.66325,16.314351 74.1746962,15.0540402 74.2337381,13.7578423 C74.207217,12.5225892 74.6666697,11.3273965 75.5107296,10.4359528 C76.3547895,9.54450923 77.5140935,9.03007164 78.7328708,9.00613774 L78.876843,9.00613774 C81.5763226,9.00613774 83.7898959,10.8758103 83.5649393,14.5604334 L76.2763443,14.5604334 L76.2943408,14.5513131 Z M91.591392,12.8366865 C91.2672637,11.6649008 90.2185106,10.8509385 89.0178881,10.8393289 C87.8105772,10.8428305 86.752358,11.6584361 86.4263877,12.8366865 L91.591392,12.8366865 Z M86.4173894,14.5513131 C86.7551641,15.7974402 87.9070811,16.6341184 89.1798569,16.557791 C90.0553442,16.5450763 90.8988801,16.2224418 91.5643972,15.6457556 L92.9321336,17.0320494 C91.8966609,18.0108389 90.5232745,18.5381692 89.1078708,18.5004264 C87.8318834,18.5821421 86.5818554,18.1097581 85.6701031,17.2012982 C84.7583509,16.2928384 84.270992,15.0341094 84.3297918,13.7396016 C84.3008509,12.5036549 84.7595025,11.307061 85.6040742,10.4150768 C86.4486458,9.52309264 87.6093641,9.00940884 88.8289245,8.98789703 L88.9818951,8.98789703 C91.6813747,8.98789703 93.8859497,10.8575696 93.6699913,14.5421927 L86.3993929,14.5421927 L86.4173894,14.5513131 Z M32.9227016,16.2841804 C32.2515082,16.2475661 31.6241601,15.9347862 31.1858821,15.4182461 C30.7476042,14.9017059 30.5363957,14.2261903 30.6011492,13.5480741 C30.5466265,12.8722094 30.7614908,12.2023728 31.1977328,11.6882321 C31.6339748,11.1740914 32.2552359,10.858498 32.9227016,10.8119679 C33.5885573,10.8608175 34.2075234,11.1774086 34.641851,11.6912846 C35.0761786,12.2051608 35.2898293,12.8736831 35.2352559,13.5480741 C35.2974092,14.2241354 35.0864724,14.8968516 34.6506464,15.4125005 C34.2148204,15.9281495 33.5913492,16.2426662 32.9227016,16.2841804 Z M32.9227016,8.98789703 C31.7159503,8.94129977 30.5446719,9.40676498 29.6907508,10.2722721 C28.8368298,11.1377792 28.3775955,12.3249495 28.423569,13.5480741 C28.3180991,14.787202 28.758122,16.0102583 29.6257997,16.8897086 C30.4934773,17.7691589 31.7001612,18.2151521 32.9227016,18.1082512 C34.0294883,18.1082512 35.1812663,18.6828335 35.1812663,19.932322 C35.1657513,20.5056626 34.9110525,21.0454328 34.4804383,21.4175513 C34.0498242,21.7896698 33.4837029,21.9592174 32.9227016,21.8840778 C32.3559957,21.9556085 31.785024,21.7897348 31.3417463,21.4247925 C30.8984685,21.0598503 30.621248,20.5274231 30.5741544,19.9505627 L28.3965742,19.9505627 C28.3965742,22.3948177 30.3222029,24 32.8957069,24 C35.4692108,24 37.3498482,22.4586601 37.3498482,19.9596831 C37.4351189,18.6769583 36.7143023,17.4787797 35.5501951,16.9682069 C36.7660603,16.2963821 37.4938341,14.9771267 37.4218343,13.5754352 C37.4650835,12.3530891 37.0049721,11.1675459 36.151665,10.3026611 C35.2983579,9.43777637 34.1286849,8.97142211 32.9227016,9.01525809 L32.9227016,8.98789703 Z" id="Shape" fill="#FFFFFF"/>
                        </g>
                    </g>
                    <g id="values" transform="translate(198.000000, 66.000000)">
                        <g id="Group-4" transform="translate(0.000000, 9.000000)">
                            <g id="Rectangle">
                                <use fill="black" fill-opacity="1" filter="url(#filter-4)" xlink:href="#path-3"/>
                                <use fill="#FFFFFF" xlink:href="#path-3"/>
                            </g>
                            <g id="Group-3" transform="translate(61.000000, 30.000000)">
                                <path d="M7.9902513,5.51149877 L7.9902513,8.68199929 L9.64775157,8.68199929 L9.64775157,10.8239996 L7.9902513,10.8239996 L7.9902513,13 L5.69525092,13 L5.69525092,10.8239996 L0.416750057,10.8239996 L0.416750057,9.15799937 L4.59025074,1.10849805 L7.14025116,1.10849805 L3.16225051,8.68199929 L5.69525092,8.68199929 L5.69525092,5.51149877 L7.9902513,5.51149877 Z M18.4622514,1.09999805 L18.4622514,3.2334984 L13.6427506,3.2334984 L13.5917506,5.61349879 L14.9602508,5.61349879 C17.7312513,5.61349879 19.1252515,7.20299905 19.1252515,9.19199938 C19.1252515,11.7504998 17.1872512,13.2125 14.7817508,13.2125 C13.0052505,13.2125 11.5517503,12.5494999 10.5657501,11.4359997 L11.8577503,9.82949948 C12.5037504,10.5349996 13.6682506,11.0874997 14.7647508,11.0874997 C16.090751,11.0874997 16.7452511,10.3054996 16.7452511,9.3619994 C16.7452511,8.46949926 16.184251,7.68749913 14.3227507,7.68749913 L11.4922502,7.68749913 L11.6197503,1.09999805 L18.4622514,1.09999805 Z M25.3047509,0.887498015 C27.7102513,0.887498015 29.6652516,2.16249822 29.6652516,4.30449857 C29.6652516,5.6729988 28.8747515,6.52299894 27.8462513,6.99899902 C29.0192515,7.45799909 29.9542516,8.30799923 29.9542516,9.76149947 C29.9542516,11.9289998 27.8632513,13.2125 25.3047509,13.2125 C22.7462505,13.2125 20.6552501,11.9289998 20.6552501,9.76149947 C20.6552501,8.30799923 21.5817503,7.45799909 22.7547505,6.99899902 C21.7262503,6.52299894 20.9442502,5.6729988 20.9442502,4.30449857 C20.9442502,2.16249822 22.8992505,0.887498015 25.3047509,0.887498015 Z M25.3047509,7.93399917 C24.1147507,7.93399917 23.1287505,8.50349926 23.1287505,9.56599944 C23.1287505,10.6114996 24.1147507,11.1639997 25.3047509,11.1639997 C26.4862511,11.1639997 27.4807512,10.6114996 27.4807512,9.56599944 C27.4807512,8.50349926 26.4862511,7.93399917 25.3047509,7.93399917 Z M25.3047509,2.96149835 C24.2422507,2.96149835 23.3837506,3.49699844 23.3837506,4.4829986 C23.3837506,5.50299877 24.2422507,6.04699886 25.3047509,6.04699886 C26.3672511,6.04699886 27.2257512,5.50299877 27.2257512,4.4829986 C27.2257512,3.49699844 26.3672511,2.96149835 25.3047509,2.96149835 Z M32.9972504,13 L35.9127509,8.86049932 C35.7512508,8.88599933 35.5812508,8.89449933 35.3772508,8.89449933 C32.9632504,8.89449933 31.2547501,7.16899904 31.2547501,4.94199868 C31.2547501,2.6129983 33.1672504,0.887498015 35.7257508,0.887498015 C38.2672512,0.887498015 40.1967516,2.59599829 40.1967516,4.89949867 C40.1967516,5.98749885 39.7887515,6.98199901 39.0662514,8.06149919 L35.7682508,13 L32.9972504,13 Z M35.7257508,6.879999 C36.915751,6.879999 37.8082512,6.07249886 37.8082512,4.92499868 C37.8082512,3.76899849 36.915751,2.96999836 35.7257508,2.96999836 C34.5272506,2.96999836 33.6432505,3.76899849 33.6432505,4.92499868 C33.6432505,6.07249886 34.5272506,6.879999 35.7257508,6.879999 Z M46.5377509,0.912998019 L46.5377509,13 L44.2427505,13 L44.2427505,4.14299855 L41.3952501,5.29899874 L41.3952501,2.98699836 L46.5377509,0.912998019 Z" id="45891" fill="#333333"/>
                                <path d="M6.27,23.88 L7.84,23.88 L4.64,31 L3.39,31 L0.19,23.88 L1.81,23.88 L4.03,29.05 L6.27,23.88 Z M8.4,31 L8.4,23.88 L9.96,23.88 L9.96,31 L8.4,31 Z M13.88,31.09 C13.3399973,31.09 12.8216691,31.018334 12.325,30.875 C11.8283308,30.731666 11.4166683,30.5300013 11.09,30.27 L11.59,29.15 C12.2766701,29.6300024 13.0433291,29.87 13.89,29.87 C14.3433356,29.87 14.6916654,29.7983341 14.935,29.655 C15.1783345,29.511666 15.3,29.3100013 15.3,29.05 C15.3,28.8233322 15.1883344,28.6450007 14.965,28.515 C14.7416655,28.3849994 14.3500028,28.2600006 13.79,28.14 C13.1633302,28.0133327 12.6650018,27.8583342 12.295,27.675 C11.9249981,27.4916657 11.6550008,27.2683346 11.485,27.005 C11.3149991,26.7416653 11.23,26.4133353 11.23,26.02 C11.23,25.5933312 11.3483321,25.2100017 11.585,24.87 C11.8216678,24.5299983 12.1533312,24.265001 12.58,24.075 C13.0066688,23.884999 13.4999972,23.79 14.06,23.79 C14.5666692,23.79 15.053331,23.8633326 15.52,24.01 C15.986669,24.1566674 16.3599986,24.3566654 16.64,24.61 L16.14,25.73 C15.5133302,25.2499976 14.8233371,25.01 14.07,25.01 C13.669998,25.01 13.3500012,25.0899992 13.11,25.25 C12.8699988,25.4100008 12.75,25.6266653 12.75,25.9 C12.75,26.0600008 12.7949995,26.1933328 12.885,26.3 C12.9750004,26.4066672 13.1266656,26.5016662 13.34,26.585 C13.5533344,26.6683338 13.8566647,26.7499996 14.25,26.83 C15.1633379,27.030001 15.8216646,27.2899984 16.225,27.61 C16.6283353,27.9300016 16.83,28.3666639 16.83,28.92 C16.83,29.58667 16.5700026,30.1149981 16.05,30.505 C15.5299974,30.895002 14.8066713,31.09 13.88,31.09 Z M17.96,31 L17.96,23.88 L19.52,23.88 L19.52,31 L17.96,31 Z M22.59,31 L22.59,25.15 L20.36,25.15 L20.36,23.88 L26.4,23.88 L26.4,25.15 L24.17,25.15 L24.17,31 L22.59,31 Z M30.09,31.09 C29.3833298,31.09 28.768336,30.9416681 28.245,30.645 C27.7216641,30.3483319 27.3183348,29.9233361 27.035,29.37 C26.7516652,28.8166639 26.61,28.1700037 26.61,27.43 C26.61,26.6899963 26.7516652,26.0466694 27.035,25.5 C27.3183348,24.9533306 27.7216641,24.5316682 28.245,24.235 C28.768336,23.9383318 29.3833298,23.79 30.09,23.79 C30.7966702,23.79 31.4099974,23.9383318 31.93,24.235 C32.4500026,24.5316682 32.8499986,24.9533306 33.13,25.5 C33.4100014,26.0466694 33.55,26.6899963 33.55,27.43 C33.55,28.1700037 33.4100014,28.8166639 33.13,29.37 C32.8499986,29.9233361 32.4500026,30.3483319 31.93,30.645 C31.4099974,30.9416681 30.7966702,31.09 30.09,31.09 Z M30.09,29.87 C30.690003,29.87 31.1583316,29.6600021 31.495,29.24 C31.8316683,28.8199979 32,28.2166706 32,27.43 C32,26.6433294 31.8316683,26.0433354 31.495,25.63 C31.1583316,25.2166646 30.690003,25.01 30.09,25.01 C29.489997,25.01 29.0216683,25.2166646 28.685,25.63 C28.3483316,26.0433354 28.18,26.6433294 28.18,27.43 C28.18,28.2233373 28.3483316,28.8283312 28.685,29.245 C29.0216683,29.6616688 29.489997,29.87 30.09,29.87 Z M40.78,31 L39.13,31 L38.22,28.63 C38.1466663,28.4433324 38.0350007,28.3133337 37.885,28.24 C37.7349993,28.1666663 37.5466678,28.13 37.32,28.13 L36.31,28.13 L36.31,31 L34.77,31 L34.77,23.88 L37.94,23.88 C38.7666708,23.88 39.3933312,24.0599982 39.82,24.42 C40.2466688,24.7800018 40.46,25.2966633 40.46,25.97 C40.46,26.4433357 40.3350012,26.8499983 40.085,27.19 C39.8349987,27.5300017 39.476669,27.7733326 39.01,27.92 C39.4300021,28.0066671 39.7333324,28.2966642 39.92,28.79 L40.78,31 Z M37.71,26.94 C38.1566689,26.94 38.4833323,26.8650008 38.69,26.715 C38.8966677,26.5649992 39,26.3300016 39,26.01 C39,25.6899984 38.8966677,25.4550007 38.69,25.305 C38.4833323,25.1549992 38.1566689,25.08 37.71,25.08 L36.29,25.08 L36.29,26.94 L37.71,26.94 Z M44.29,31.09 C43.7499973,31.09 43.2316691,31.018334 42.735,30.875 C42.2383308,30.731666 41.8266683,30.5300013 41.5,30.27 L42,29.15 C42.6866701,29.6300024 43.4533291,29.87 44.3,29.87 C44.7533356,29.87 45.1016654,29.7983341 45.345,29.655 C45.5883345,29.511666 45.71,29.3100013 45.71,29.05 C45.71,28.8233322 45.5983344,28.6450007 45.375,28.515 C45.1516655,28.3849994 44.7600028,28.2600006 44.2,28.14 C43.5733302,28.0133327 43.0750018,27.8583342 42.705,27.675 C42.3349981,27.4916657 42.0650008,27.2683346 41.895,27.005 C41.7249991,26.7416653 41.64,26.4133353 41.64,26.02 C41.64,25.5933312 41.7583321,25.2100017 41.995,24.87 C42.2316678,24.5299983 42.5633312,24.265001 42.99,24.075 C43.4166688,23.884999 43.9099972,23.79 44.47,23.79 C44.9766692,23.79 45.463331,23.8633326 45.93,24.01 C46.396669,24.1566674 46.7699986,24.3566654 47.05,24.61 L46.55,25.73 C45.9233302,25.2499976 45.2333371,25.01 44.48,25.01 C44.079998,25.01 43.7600012,25.0899992 43.52,25.25 C43.2799988,25.4100008 43.16,25.6266653 43.16,25.9 C43.16,26.0600008 43.2049995,26.1933328 43.295,26.3 C43.3850004,26.4066672 43.5366656,26.5016662 43.75,26.585 C43.9633344,26.6683338 44.2666647,26.7499996 44.66,26.83 C45.5733379,27.030001 46.2316646,27.2899984 46.635,27.61 C47.0383353,27.9300016 47.24,28.3666639 47.24,28.92 C47.24,29.58667 46.9800026,30.1149981 46.46,30.505 C45.9399974,30.895002 45.2166713,31.09 44.29,31.09 Z" id="VISITORS" fill="#AAAAAA"/>
                            </g>
                        </g>
                        <g id="Group-4-Copy-2" transform="translate(360.000000, 9.000000)">
                            <g id="Rectangle">
                                <use fill="black" fill-opacity="1" filter="url(#filter-6)" xlink:href="#path-5"/>
                                <use fill="#FFFFFF" xlink:href="#path-5"/>
                            </g>
                            <g id="Group-3" transform="translate(59.000000, 30.000000)">
                                <path d="M2.17450034,4.38949859 L0.695500093,2.93599835 C1.3415002,2.09449821 2.5485004,0.887498015 4.75850076,0.887498015 C7.24900117,0.887498015 8.79600142,2.45149827 8.79600142,4.72949864 C8.79600142,6.18299888 8.0565013,7.19449905 7.07900114,8.20599921 L4.53750072,10.8494996 L9.08500147,10.8494996 L9.08500147,13 L1.22250018,13 L1.22250018,11.2064997 L5.43000087,6.896999 C6.05900097,6.2594989 6.40750103,5.60499879 6.40750103,4.85699867 C6.40750103,3.8199985 5.68500091,3.08049837 4.58850073,3.08049837 C3.45800055,3.08049837 2.78650044,3.69249847 2.17450034,4.38949859 Z M15.698001,0.887498015 C18.5370014,0.887498015 20.8320018,3.19949839 20.8320018,7.04999902 C20.8320018,10.9004997 18.5370014,13.2125 15.698001,13.2125 C12.8505005,13.2125 10.5725001,10.9004997 10.5725001,7.04999902 C10.5725001,3.19949839 12.8505005,0.887498015 15.698001,0.887498015 Z M15.698001,3.08899838 C14.1765007,3.08899838 12.9610005,4.4489986 12.9610005,7.04999902 C12.9610005,9.65099945 14.1765007,11.0109997 15.698001,11.0109997 C17.2280012,11.0109997 18.4350014,9.65099945 18.4350014,7.04999902 C18.4350014,4.4489986 17.2280012,3.08899838 15.698001,3.08899838 Z M23.8920004,9.91449949 C24.7675005,9.91449949 25.5325007,10.6709996 25.5325007,11.5549998 C25.5325007,12.4474999 24.7675005,13.2125 23.8920004,13.2125 C23.0080002,13.2125 22.2345001,12.4474999 22.2345001,11.5549998 C22.2345001,10.6709996 23.0080002,9.91449949 23.8920004,9.91449949 Z M30.9215009,0.912998019 L30.9215009,13 L28.6265005,13 L28.6265005,4.14299855 L25.7790001,5.29899874 L25.7790001,2.98699836 L30.9215009,0.912998019 Z M34.3640003,4.38949859 L32.8850001,2.93599835 C33.5310002,2.09449821 34.7380004,0.887498015 36.9480008,0.887498015 C39.4385012,0.887498015 40.9855014,2.45149827 40.9855014,4.72949864 C40.9855014,6.18299888 40.2460013,7.19449905 39.2685011,8.20599921 L36.7270007,10.8494996 L41.2745015,10.8494996 L41.2745015,13 L33.4120002,13 L33.4120002,11.2064997 L37.6195009,6.896999 C38.248501,6.2594989 38.597001,5.60499879 38.597001,4.85699867 C38.597001,3.8199985 37.8745009,3.08049837 36.7780007,3.08049837 C35.6475005,3.08049837 34.9760004,3.69249847 34.3640003,4.38949859 Z M49.8680013,5.51149877 L49.8680013,8.68199929 L51.5255016,8.68199929 L51.5255016,10.8239996 L49.8680013,10.8239996 L49.8680013,13 L47.5730009,13 L47.5730009,10.8239996 L42.2945001,10.8239996 L42.2945001,9.15799937 L46.4680007,1.10849805 L49.0180012,1.10849805 L45.0400005,8.68199929 L47.5730009,8.68199929 L47.5730009,5.51149877 L49.8680013,5.51149877 Z" id="20.124" fill="#333333"/>
                                <path d="M8.815,31.09 C8.1083298,31.09 7.49333595,30.9416681 6.97,30.645 C6.44666405,30.3483319 6.04333475,29.9233361 5.76,29.37 C5.47666525,28.8166639 5.335,28.1700037 5.335,27.43 C5.335,26.6899963 5.47666525,26.0466694 5.76,25.5 C6.04333475,24.9533306 6.44666405,24.5316682 6.97,24.235 C7.49333595,23.9383318 8.1083298,23.79 8.815,23.79 C9.5216702,23.79 10.1349974,23.9383318 10.655,24.235 C11.1750026,24.5316682 11.5749986,24.9533306 11.855,25.5 C12.1350014,26.0466694 12.275,26.6899963 12.275,27.43 C12.275,28.1700037 12.1350014,28.8166639 11.855,29.37 C11.5749986,29.9233361 11.1750026,30.3483319 10.655,30.645 C10.1349974,30.9416681 9.5216702,31.09 8.815,31.09 Z M8.815,29.87 C9.415003,29.87 9.88333165,29.6600021 10.22,29.24 C10.5566683,28.8199979 10.725,28.2166706 10.725,27.43 C10.725,26.6433294 10.5566683,26.0433354 10.22,25.63 C9.88333165,25.2166646 9.415003,25.01 8.815,25.01 C8.214997,25.01 7.74666835,25.2166646 7.41,25.63 C7.07333165,26.0433354 6.905,26.6433294 6.905,27.43 C6.905,28.2233373 7.07333165,28.8283312 7.41,29.245 C7.74666835,29.6616688 8.214997,29.87 8.815,29.87 Z M19.505,31 L17.855,31 L16.945,28.63 C16.8716663,28.4433324 16.7600007,28.3133337 16.61,28.24 C16.4599992,28.1666663 16.2716678,28.13 16.045,28.13 L15.035,28.13 L15.035,31 L13.495,31 L13.495,23.88 L16.665,23.88 C17.4916708,23.88 18.1183312,24.0599982 18.545,24.42 C18.9716688,24.7800018 19.185,25.2966633 19.185,25.97 C19.185,26.4433357 19.0600012,26.8499983 18.81,27.19 C18.5599987,27.5300017 18.201669,27.7733326 17.735,27.92 C18.1550021,28.0066671 18.4583324,28.2966642 18.645,28.79 L19.505,31 Z M16.435,26.94 C16.8816689,26.94 17.2083323,26.8650008 17.415,26.715 C17.6216677,26.5649992 17.725,26.3300016 17.725,26.01 C17.725,25.6899984 17.6216677,25.4550007 17.415,25.305 C17.2083323,25.1549992 16.8816689,25.08 16.435,25.08 L15.015,25.08 L15.015,26.94 L16.435,26.94 Z M20.575,23.88 L23.325,23.88 C24.1050039,23.88 24.7749972,24.0199986 25.335,24.3 C25.8950028,24.5800014 26.3233318,24.986664 26.62,25.52 C26.9166681,26.053336 27.065,26.6899963 27.065,27.43 C27.065,28.1766704 26.9183348,28.816664 26.625,29.35 C26.3316652,29.883336 25.9050028,30.2916653 25.345,30.575 C24.7849972,30.8583348 24.1116706,31 23.325,31 L20.575,31 L20.575,23.88 Z M23.225,29.74 C24.7450076,29.74 25.505,28.9700077 25.505,27.43 C25.505,25.9033257 24.7450076,25.14 23.225,25.14 L22.135,25.14 L22.135,29.74 L23.225,29.74 Z M28.285,31 L28.285,23.88 L33.195,23.88 L33.195,25.09 L29.805,25.09 L29.805,26.77 L32.985,26.77 L32.985,27.99 L29.805,27.99 L29.805,29.79 L33.195,29.79 L33.195,31 L28.285,31 Z M40.285,31 L38.635,31 L37.725,28.63 C37.6516663,28.4433324 37.5400007,28.3133337 37.39,28.24 C37.2399992,28.1666663 37.0516678,28.13 36.825,28.13 L35.815,28.13 L35.815,31 L34.275,31 L34.275,23.88 L37.445,23.88 C38.2716708,23.88 38.8983312,24.0599982 39.325,24.42 C39.7516688,24.7800018 39.965,25.2966633 39.965,25.97 C39.965,26.4433357 39.8400013,26.8499983 39.59,27.19 C39.3399987,27.5300017 38.981669,27.7733326 38.515,27.92 C38.9350021,28.0066671 39.2383324,28.2966642 39.425,28.79 L40.285,31 Z M37.215,26.94 C37.6616689,26.94 37.9883323,26.8650008 38.195,26.715 C38.4016677,26.5649992 38.505,26.3300016 38.505,26.01 C38.505,25.6899984 38.4016677,25.4550007 38.195,25.305 C37.9883323,25.1549992 37.6616689,25.08 37.215,25.08 L35.795,25.08 L35.795,26.94 L37.215,26.94 Z M43.795,31.09 C43.2549973,31.09 42.7366691,31.018334 42.24,30.875 C41.7433308,30.731666 41.3316683,30.5300013 41.005,30.27 L41.505,29.15 C42.1916701,29.6300024 42.9583291,29.87 43.805,29.87 C44.2583356,29.87 44.6066654,29.7983341 44.85,29.655 C45.0933345,29.511666 45.215,29.3100013 45.215,29.05 C45.215,28.8233322 45.1033344,28.6450007 44.88,28.515 C44.6566655,28.3849994 44.2650028,28.2600006 43.705,28.14 C43.0783302,28.0133327 42.5800019,27.8583342 42.21,27.675 C41.8399981,27.4916657 41.5700008,27.2683346 41.4,27.005 C41.2299991,26.7416653 41.145,26.4133353 41.145,26.02 C41.145,25.5933312 41.2633321,25.2100017 41.5,24.87 C41.7366679,24.5299983 42.0683312,24.265001 42.495,24.075 C42.9216688,23.884999 43.4149972,23.79 43.975,23.79 C44.4816692,23.79 44.968331,23.8633326 45.435,24.01 C45.901669,24.1566674 46.2749986,24.3566654 46.555,24.61 L46.055,25.73 C45.4283302,25.2499976 44.7383371,25.01 43.985,25.01 C43.584998,25.01 43.2650012,25.0899992 43.025,25.25 C42.7849988,25.4100008 42.665,25.6266653 42.665,25.9 C42.665,26.0600008 42.7099995,26.1933328 42.8,26.3 C42.8900005,26.4066672 43.0416656,26.5016662 43.255,26.585 C43.4683344,26.6683338 43.7716647,26.7499996 44.165,26.83 C45.0783379,27.030001 45.7366646,27.2899984 46.14,27.61 C46.5433353,27.9300016 46.745,28.3666639 46.745,28.92 C46.745,29.58667 46.4850026,30.1149981 45.965,30.505 C45.4449974,30.895002 44.7216713,31.09 43.795,31.09 Z" id="ORDERS" fill="#AAAAAA"/>
                            </g>
                        </g>
                        <g id="Group-4-Copy" transform="translate(162.000000, 0.000000)">
                            <g id="Rectangle">
                                <use fill="black" fill-opacity="1" filter="url(#filter-8)" xlink:href="#path-7"/>
                                <use fill="#FFFFFF" xlink:href="#path-7"/>
                            </g>
                            <g id="Group-3" transform="translate(44.460001, 36.880001)">
                                <path d="M10.1687795,9.05959424 L10.1687795,10.9623196 L4.95428355,10.9623196 C5.60223867,12.4536449 6.84672391,13.3073 8.39975919,13.3073 C9.75737945,13.3073 10.7653096,12.7004849 11.5263998,11.8468298 L13.0485801,13.8421201 C11.8760898,15.0763204 10.3744796,15.8271255 8.4203292,15.8271255 C5.2216936,15.8271255 2.84585816,13.9861102 2.00248801,10.9623196 L0.212897674,10.9623196 L0.212897674,9.05959424 L1.69393795,9.05959424 C1.67336795,8.8333242 1.67336795,8.60705415 1.67336795,8.37049911 C1.67336795,8.14422907 1.67336795,7.90767402 1.69393795,7.68140398 L0.212897674,7.68140398 L0.212897674,5.77867863 L2.00248801,5.77867863 C2.84585816,2.75488807 5.2216936,0.913872726 8.4203292,0.913872726 C10.3333396,0.913872726 11.8966598,1.63382286 13.0897201,2.86802309 L11.5058298,4.90445347 C10.7447396,4.04051331 9.74709444,3.43369819 8.38947419,3.43369819 C6.8055839,3.43369819 5.58166867,4.31820836 4.94399855,5.77867863 L10.1687795,5.77867863 L10.1687795,7.68140398 L4.49145847,7.68140398 C4.47088846,7.90767402 4.46060346,8.13394407 4.46060346,8.37049911 C4.46060346,8.60705415 4.47088846,8.8436092 4.49145847,9.05959424 L10.1687795,9.05959424 Z M19.2915739,0.913872726 C22.3256494,0.913872726 24.3929348,2.55947303 24.3929348,5.04844349 C24.3929348,6.57062378 23.5804197,7.69168898 22.2433694,8.3190741 C23.7552647,8.91560421 24.7117699,10.0675244 24.7117699,11.6205597 C24.7117699,14.4592202 22.1302344,15.8271255 19.4047089,15.8271255 C17.2448585,15.8271255 15.4655531,15.0557504 14.3753429,13.7392701 L16.0312282,11.9188248 C16.8643134,12.7930499 18.0676586,13.297015 19.3018589,13.297015 C20.7006191,13.297015 21.8216843,12.6901999 21.8216843,11.4251447 C21.8216843,10.1909444 20.5566291,9.54298933 19.0035938,9.54298933 L17.3271385,9.54298933 L17.3271385,7.07458887 L19.0138788,7.07458887 C20.4126391,7.07458887 21.5337043,6.45748875 21.5337043,5.24385853 C21.5337043,4.08165331 20.4846341,3.4439832 19.1475838,3.4439832 C17.8105336,3.4439832 16.8231734,4.13307832 16.2369283,4.90445347 L14.488478,3.14571814 C15.4346981,1.8703779 16.9980184,0.913872726 19.2915739,0.913872726 Z M35.850425,1.17099777 L35.850425,3.75253325 L30.0188289,3.75253325 L29.9571189,6.63233379 L31.6130042,6.63233379 C34.9659148,6.63233379 36.6526551,8.55562914 36.6526551,10.9623196 C36.6526551,14.0581052 34.3076747,15.8271255 31.3970192,15.8271255 C29.2474538,15.8271255 27.4887184,15.0248953 26.2956582,13.6775601 L27.8589785,11.7336947 C28.6406387,12.5873499 30.0496839,13.255875 31.3764492,13.255875 C32.9809095,13.255875 33.7728546,12.3096548 33.7728546,11.1680196 C33.7728546,10.0880944 33.0940445,9.14187425 30.8416291,9.14187425 L27.4167234,9.14187425 L27.5709985,1.17099777 L35.850425,1.17099777 Z M46.9479401,1.17099777 L43.3996144,6.1797937 C43.5950295,6.1592237 43.8212995,6.1386537 44.0681396,6.1386537 C46.9890801,6.1386537 49.0563655,8.22650908 49.0563655,10.9211796 C49.0563655,13.7392701 46.7319551,15.8271255 43.6361695,15.8271255 C40.5609539,15.8271255 38.2365435,13.7598401 38.2365435,10.9726046 C38.2365435,9.65612435 38.7302236,8.46306413 39.6044487,7.14658388 L43.5950295,1.17099777 L46.9479401,1.17099777 Z M43.6361695,8.57619915 C42.2065542,8.57619915 41.126629,9.55327433 41.126629,10.9417496 C41.126629,12.3405098 42.2065542,13.3073 43.6361695,13.3073 C45.0863547,13.3073 46.1662799,12.3405098 46.1662799,10.9417496 C46.1662799,9.55327433 45.0863547,8.57619915 43.6361695,8.57619915 Z M52.5944042,11.8365448 C53.6537593,11.8365448 54.5794095,12.7519099 54.5794095,13.8215501 C54.5794095,14.9014753 53.6537593,15.8271255 52.5944042,15.8271255 C51.524764,15.8271255 50.5888288,14.9014753 50.5888288,13.8215501 C50.5888288,12.7519099 51.524764,11.8365448 52.5944042,11.8365448 Z M61.1001,0.944727732 L61.1001,15.5700004 L58.3231495,15.5700004 L58.3231495,4.85302846 L54.8776738,6.25178872 L54.8776738,3.4542682 L61.1001,0.944727732 Z M70.0480503,0.913872726 C73.4832409,0.913872726 76.2601914,3.71139325 76.2601914,8.37049911 C76.2601914,13.029605 73.4832409,15.8271255 70.0480503,15.8271255 C66.6025746,15.8271255 63.8461941,13.029605 63.8461941,8.37049911 C63.8461941,3.71139325 66.6025746,0.913872726 70.0480503,0.913872726 Z M70.0480503,3.57768822 C68.2070349,3.57768822 66.7362796,5.22328853 66.7362796,8.37049911 C66.7362796,11.5177097 68.2070349,13.16331 70.0480503,13.16331 C71.8993506,13.16331 73.3598209,11.5177097 73.3598209,8.37049911 C73.3598209,5.22328853 71.8993506,3.57768822 70.0480503,3.57768822 Z M82.4517602,0.913872726 C85.4858358,0.913872726 87.5531212,2.55947303 87.5531212,5.04844349 C87.5531212,6.57062378 86.740606,7.69168898 85.4035558,8.3190741 C86.9154511,8.91560421 87.8719562,10.0675244 87.8719562,11.6205597 C87.8719562,14.4592202 85.2904208,15.8271255 82.5648952,15.8271255 C80.4050448,15.8271255 78.6257395,15.0557504 77.5355293,13.7392701 L79.1914146,11.9188248 C80.0244998,12.7930499 81.227845,13.297015 82.4620452,13.297015 C83.8608055,13.297015 84.9818707,12.6901999 84.9818707,11.4251447 C84.9818707,10.1909444 83.7168155,9.54298933 82.1637802,9.54298933 L80.4873249,9.54298933 L80.4873249,7.07458887 L82.1740652,7.07458887 C83.5728254,7.07458887 84.6938906,6.45748875 84.6938906,5.24385853 C84.6938906,4.08165331 83.6448204,3.4439832 82.3077702,3.4439832 C80.9707199,3.4439832 79.9833598,4.13307832 79.3971147,4.90445347 L77.6486643,3.14571814 C78.5948845,1.8703779 80.1582048,0.913872726 82.4517602,0.913872726 Z M90.3197848,12.3199398 L93.3332903,12.3199398 L91.89339,18.449801 L89.6306896,18.449801 L90.3197848,12.3199398 Z M99.7099906,0.913872726 C102.744066,0.913872726 104.811352,2.55947303 104.811352,5.04844349 C104.811352,6.57062378 103.998836,7.69168898 102.661786,8.3190741 C104.173681,8.91560421 105.130187,10.0675244 105.130187,11.6205597 C105.130187,14.4592202 102.548651,15.8271255 99.8231256,15.8271255 C97.6632752,15.8271255 95.8839699,15.0557504 94.7937597,13.7392701 L96.449645,11.9188248 C97.2827301,12.7930499 98.4860754,13.297015 99.7202756,13.297015 C101.119036,13.297015 102.240101,12.6901999 102.240101,11.4251447 C102.240101,10.1909444 100.975046,9.54298933 99.4220105,9.54298933 L97.7455552,9.54298933 L97.7455552,7.07458887 L99.4322955,7.07458887 C100.831056,7.07458887 101.952121,6.45748875 101.952121,5.24385853 C101.952121,4.08165331 100.903051,3.4439832 99.5660006,3.4439832 C98.2289503,3.4439832 97.2415901,4.13307832 96.655345,4.90445347 L94.9068947,3.14571814 C95.8531149,1.8703779 97.4164352,0.913872726 99.7099906,0.913872726 Z M116.813947,1.17099777 L116.813947,3.34113318 L110.848646,15.5700004 L107.578015,15.5700004 L113.502176,3.76281825 L106.66265,3.76281825 L106.66265,1.17099777 L116.813947,1.17099777 Z" id="€356.103,37" fill="#333333"/>
                                <path d="M37.7937008,37.1400009 L35.7972008,37.1400009 L34.6961008,34.2723008 C34.607367,34.046433 34.4722517,33.8891346 34.2907508,33.8004008 C34.1092499,33.711667 33.8813688,33.6673008 33.6071008,33.6673008 L32.3850007,33.6673008 L32.3850007,37.1400009 L30.5216007,37.1400009 L30.5216007,28.5248007 L34.3573008,28.5248007 C35.3575725,28.5248007 36.1158316,28.7425985 36.6321008,29.1782007 C37.1483701,29.6138029 37.4065008,30.2389633 37.4065008,31.0537008 C37.4065008,31.626437 37.2552523,32.1184987 36.9527508,32.5299008 C36.6502493,32.9413029 36.2166703,33.2357333 35.6520008,33.4132008 C36.1602033,33.518068 36.527233,33.8689645 36.7531008,34.4659008 L37.7937008,37.1400009 Z M34.0790008,32.2274008 C34.6194701,32.2274008 35.0147329,32.1366517 35.2648008,31.9551508 C35.5148687,31.7736499 35.6399008,31.4893027 35.6399008,31.1021008 C35.6399008,30.7148988 35.5148687,30.4305517 35.2648008,30.2490507 C35.0147329,30.0675498 34.6194701,29.9768007 34.0790008,29.9768007 L32.3608007,29.9768007 L32.3608007,32.2274008 L34.0790008,32.2274008 Z M39.0884009,37.1400009 L39.0884009,28.5248007 L45.029501,28.5248007 L45.029501,29.9889007 L40.9276009,29.9889007 L40.9276009,32.0217008 L44.775401,32.0217008 L44.775401,33.4979008 L40.9276009,33.4979008 L40.9276009,35.6759009 L45.029501,35.6759009 L45.029501,37.1400009 L39.0884009,37.1400009 Z M52.7009012,28.5248007 L54.6006012,28.5248007 L50.7286011,37.1400009 L49.2161011,37.1400009 L45.344101,28.5248007 L47.304301,28.5248007 L49.9905011,34.7805008 L52.7009012,28.5248007 Z M55.2782012,37.1400009 L55.2782012,28.5248007 L61.2193013,28.5248007 L61.2193013,29.9889007 L57.1174013,29.9889007 L57.1174013,32.0217008 L60.9652013,32.0217008 L60.9652013,33.4979008 L57.1174013,33.4979008 L57.1174013,35.6759009 L61.2193013,35.6759009 L61.2193013,37.1400009 L55.2782012,37.1400009 Z M68.2131015,28.5248007 L69.9918015,28.5248007 L69.9918015,37.1400009 L68.5882015,37.1400009 L64.2927014,31.6466008 L64.2927014,37.1400009 L62.5261014,37.1400009 L62.5261014,28.5248007 L63.9176014,28.5248007 L68.2131015,34.0061008 L68.2131015,28.5248007 Z M75.3763017,37.2489009 C74.1662956,37.2489009 73.2467048,36.9383373 72.6175016,36.3172009 C71.9882984,35.6960644 71.6737016,34.7845402 71.6737016,33.5826008 L71.6737016,28.5248007 L73.5250016,28.5248007 L73.5250016,33.6673008 C73.5250016,34.3529709 73.6843167,34.8752824 74.0029516,35.2342509 C74.3215866,35.5932193 74.7793653,35.7727009 75.3763017,35.7727009 C75.973238,35.7727009 76.4290001,35.5932193 76.7436017,35.2342509 C77.0582033,34.8752824 77.2155017,34.3529709 77.2155017,33.6673008 L77.2155017,28.5248007 L79.0789017,28.5248007 L79.0789017,33.5826008 C79.0789017,34.7764735 78.7622882,35.6859811 78.1290517,36.3111509 C77.4958152,36.9363207 76.578241,37.2489009 75.3763017,37.2489009 Z M80.7487018,37.1400009 L80.7487018,28.5248007 L86.6898019,28.5248007 L86.6898019,29.9889007 L82.5879018,29.9889007 L82.5879018,32.0217008 L86.4357019,32.0217008 L86.4357019,33.4979008 L82.5879018,33.4979008 L82.5879018,35.6759009 L86.6898019,35.6759009 L86.6898019,37.1400009 L80.7487018,37.1400009 Z" id="REVENUE" fill="#AAAAAA"/>
                            </g>
                        </g>
                    </g>
                    <g id="stats" transform="translate(198.000000, 205.000000)">
                        <rect id="Rectangle" stroke="#EEEEEE" fill="#FFFFFF" x="0.5" y="0.5" width="367" height="111" rx="5"/>
                        <rect id="Rectangle" fill="#EEEEEE" x="30" y="0" width="1" height="92"/>
                        <rect id="Rectangle-Copy-11" fill="#EEEEEE" x="92" y="0" width="1" height="92"/>
                        <rect id="Rectangle-Copy-12" fill="#EEEEEE" x="152" y="0" width="1" height="92"/>
                        <rect id="Rectangle-Copy-13" fill="#EEEEEE" x="214" y="0" width="1" height="92"/>
                        <rect id="Rectangle-Copy-14" fill="#EEEEEE" x="276" y="0" width="1" height="92"/>
                        <rect id="Rectangle-Copy-15" fill="#EEEEEE" x="337" y="0" width="1" height="92"/>
                        <path d="" id="Path-2" stroke="#EEEEEE"/>
                        <polyline id="Path-3" stroke="#5187E0" stroke-width="2" points="31 70 92 76 153 60 215 62 276 32 337 26"/>
                        <circle id="Oval" stroke="#5187E0" stroke-width="2" fill="#F7F7F7" cx="31" cy="70" r="5"/>
                        <circle id="Oval-Copy" stroke="#5187E0" stroke-width="2" fill="#F7F7F7" cx="153" cy="60" r="5"/>
                        <circle id="Oval-Copy-3" stroke="#5187E0" stroke-width="2" fill="#F7F7F7" cx="276" cy="32" r="5"/>
                        <circle id="Oval" stroke="#5187E0" stroke-width="2" fill="#F7F7F7" cx="92" cy="76" r="5"/>
                        <circle id="Oval-Copy-2" stroke="#5187E0" stroke-width="2" fill="#F7F7F7" cx="215" cy="62" r="5"/>
                        <circle id="Oval-Copy-4" stroke="#5187E0" stroke-width="2" fill="#F7F7F7" cx="337" cy="26" r="5"/>
                        <path d="M27.1520006,99.3999991 L27.1520006,102.96 C27.1520006,104.364 26.3120005,105.1 25.1440003,105.1 C24.2160002,105.1 23.6600001,104.696 23.356,104.324 L24.0040001,103.512 C24.2320002,103.792 24.5760002,104.032 25.0920003,104.032 C25.6840004,104.032 26.0360005,103.664 26.0360005,102.856 L26.0360005,99.3999991 L27.1520006,99.3999991 Z M31.2160006,99.3999991 L33.396001,105 L32.2040008,105 L31.7160007,103.696 L29.3280003,103.696 L28.8400002,105 L27.676,105 L29.8560004,99.3999991 L31.2160006,99.3999991 Z M30.5240005,100.503999 L29.7120003,102.668 L31.3320006,102.668 L30.5240005,100.503999 Z M39.1240009,99.3999991 L39.1240009,105 L38.0760008,105 L35.2360003,101.259999 L35.2320003,105 L34.1160001,105 L34.1160001,99.3999991 L35.1600003,99.3999991 L38.0040007,103.14 L38.0040007,99.3999991 L39.1240009,99.3999991 Z" id="JAN" fill="#555555"/>
                        <path d="M89.0640007,101.703999 L89.0640007,102.732 L86.2560003,102.732 L86.2560003,105 L85.1400001,105 L85.1400001,99.3999991 L89.2520008,99.3999991 L89.2520008,100.427999 L86.2560003,100.427999 L86.2560003,101.703999 L89.0640007,101.703999 Z M94.4520008,103.976 L94.4520008,105 L90.2680001,105 L90.2680001,99.3999991 L94.4200008,99.3999991 L94.4200008,100.423999 L91.3840003,100.423999 L91.3840003,101.663999 L94.2800008,101.663999 L94.2800008,102.688 L91.3840003,102.688 L91.3840003,103.976 L94.4520008,103.976 Z M95.5960001,99.3999991 L97.8840005,99.3999991 C99.1880007,99.3999991 100.008001,99.8839992 100.008001,100.951999 C100.008001,101.515999 99.6640008,101.968 99.1960007,102.14 C99.7080008,102.312 100.128001,102.792 100.128001,103.396 C100.128001,104.472 99.3640007,105 98.0200005,105 L95.5960001,105 L95.5960001,99.3999991 Z M97.9640005,102.672 L96.7120003,102.672 L96.7120003,104.016 L97.9640005,104.02 C98.5800006,104.02 98.9680007,103.876 98.9680007,103.34 C98.9680007,102.816 98.5800006,102.672 97.9640005,102.672 Z M97.8520005,100.383999 L96.7120003,100.383999 L96.7120003,101.691999 L97.8560005,101.691999 C98.4120006,101.691999 98.8440006,101.575999 98.8440006,101.031999 C98.8440006,100.503999 98.4040006,100.383999 97.8520005,100.383999 Z" id="FEB" fill="#555555"/>
                        <path d="M149.926001,99.3999991 L149.926001,105 L148.810001,105 L148.810001,100.771999 L147.426001,104.46 L146.246001,104.46 L144.862,100.803999 L144.862,105 L143.746,105 L143.746,99.3999991 L145.382,99.3999991 L146.838001,103.18 L148.290001,99.3999991 L149.926001,99.3999991 Z M154.186001,99.3999991 L156.366001,105 L155.174001,105 L154.686001,103.696 L152.298,103.696 L151.81,105 L150.646,105 L152.826,99.3999991 L154.186001,99.3999991 Z M153.494,100.503999 L152.682,102.668 L154.302001,102.668 L153.494,100.503999 Z M157.086,99.3999991 L159.454,99.3999991 C160.790001,99.3999991 161.506001,100.031999 161.506001,101.103999 C161.506001,102.024 160.866001,102.652 159.790001,102.756 L161.514001,105 L160.162001,105 L158.53,102.772 L158.202,102.772 L158.202,105 L157.086,105 L157.086,99.3999991 Z M159.434,100.427999 L158.202,100.427999 L158.202,101.799999 L159.434,101.799999 C160.042001,101.799999 160.358001,101.575999 160.358001,101.103999 C160.358001,100.639999 160.026001,100.427999 159.434,100.427999 Z" id="MAR" fill="#555555"/>
                        <path d="M209.818001,99.3999991 L211.998001,105 L210.806001,105 L210.318001,103.696 L207.93,103.696 L207.442,105 L206.278,105 L208.458,99.3999991 L209.818001,99.3999991 Z M209.126,100.503999 L208.314,102.668 L209.934001,102.668 L209.126,100.503999 Z M215.01,102.952 L213.834,102.952 L213.834,105 L212.718,105 L212.718,99.3999991 L215.002,99.3999991 C216.338001,99.3999991 217.050001,100.095999 217.050001,101.179999 C217.050001,102.256 216.338001,102.952 215.01,102.952 Z M214.982,100.427999 L213.834,100.427999 L213.834,101.931999 L214.982,101.931999 C215.590001,101.931999 215.906001,101.683999 215.906001,101.179999 C215.906001,100.679999 215.590001,100.427999 214.982,100.427999 Z M218.002,99.3999991 L220.37,99.3999991 C221.706001,99.3999991 222.422001,100.031999 222.422001,101.103999 C222.422001,102.024 221.782001,102.652 220.706001,102.756 L222.430001,105 L221.078001,105 L219.446,102.772 L219.118,102.772 L219.118,105 L218.002,105 L218.002,99.3999991 Z M220.35,100.427999 L219.118,100.427999 L219.118,101.799999 L220.35,101.799999 C220.958001,101.799999 221.274001,101.575999 221.274001,101.103999 C221.274001,100.639999 220.942001,100.427999 220.35,100.427999 Z" id="APR" fill="#555555"/>
                        <path d="M275.226001,99.3999991 L275.226001,105 L274.110001,105 L274.110001,100.771999 L272.726001,104.46 L271.546001,104.46 L270.162,100.803999 L270.162,105 L269.046,105 L269.046,99.3999991 L270.682,99.3999991 L272.138001,103.18 L273.590001,99.3999991 L275.226001,99.3999991 Z M279.486001,99.3999991 L281.666001,105 L280.474001,105 L279.986001,103.696 L277.598,103.696 L277.11,105 L275.946,105 L278.126,99.3999991 L279.486001,99.3999991 Z M278.794,100.503999 L277.982,102.668 L279.602001,102.668 L278.794,100.503999 Z M286.566001,99.3999991 L284.438001,102.792 L284.438001,105 L283.322,105 L283.322,102.788 L281.166,99.3999991 L282.478,99.3999991 L283.886,101.775999 L285.294001,99.3999991 L286.566001,99.3999991 Z" id="MAY" fill="#555555"/>
                        <path d="M333.030001,99.3999991 L333.030001,102.96 C333.030001,104.364 332.190001,105.1 331.022,105.1 C330.094,105.1 329.538,104.696 329.234,104.324 L329.882,103.512 C330.11,103.792 330.454,104.032 330.97,104.032 C331.562,104.032 331.914,103.664 331.914,102.856 L331.914,99.3999991 L333.030001,99.3999991 Z M339.030001,99.3999991 L339.030001,102.764 C339.030001,104.312 338.042001,105.1 336.618,105.1 C335.194,105.1 334.206,104.312 334.206,102.764 L334.206,99.3999991 L335.326,99.3999991 L335.326,102.708 C335.326,103.628 335.846,104.032 336.618,104.032 C337.390001,104.032 337.910001,103.628 337.910001,102.708 L337.910001,99.3999991 L339.030001,99.3999991 Z M345.246001,99.3999991 L345.246001,105 L344.198001,105 L341.358,101.259999 L341.354,105 L340.238,105 L340.238,99.3999991 L341.282,99.3999991 L344.126001,103.14 L344.126001,99.3999991 L345.246001,99.3999991 Z" id="JUN" fill="#555555"/>
                    </g>
                    <g id="banner" transform="translate(576.000000, 205.000000)">
                        <rect id="Rectangle" fill="#F7F7F7" x="0" y="0" width="152" height="112" rx="5"/>
                        <g id="Group-2" transform="translate(10.000000, 82.000000)" fill="#000000" fill-opacity="0.05">
                            <rect id="Rectangle" x="0" y="0" width="80" height="8" rx="3"/>
                            <rect id="Rectangle-Copy" x="0" y="12" width="127" height="8" rx="3"/>
                        </g>
                    </g>
                    <g id="bugfixes" transform="translate(198.000000, 327.000000)">
                        <rect id="Rectangle" fill="#F7F7F7" x="0" y="0" width="530" height="109" rx="5"/>
                        <rect id="Rectangle" fill-opacity="0.07" fill="#000000" x="0" y="49" width="530" height="1"/>
                        <rect id="Rectangle-Copy-17" fill-opacity="0.07" fill="#000000" x="0" y="79" width="530" height="1"/>
                        <path d="M5,0 L525,0 C527.761424,-5.07265313e-16 530,2.23857625 530,5 L530,20 L0,20 L0,5 C-3.38176876e-16,2.23857625 2.23857625,5.07265313e-16 5,0 Z" id="Rectangle" fill-opacity="0.04" fill="#000000"/>
                        <rect id="Rectangle" fill-opacity="0.08" fill="#000000" x="9" y="30" width="25" height="9" rx="3"/>
                        <rect id="Rectangle-Copy-16" fill-opacity="0.05" fill="#000000" x="114" y="30" width="349" height="9" rx="3"/>
                        <rect id="Rectangle" fill-opacity="0.08" fill="#000000" x="9" y="60" width="25" height="9" rx="3"/>
                        <rect id="Rectangle-Copy-16" fill-opacity="0.05" fill="#000000" x="114" y="60" width="349" height="9" rx="3"/>
                        <rect id="Rectangle" fill-opacity="0.08" fill="#000000" x="9" y="90" width="25" height="9" rx="3"/>
                        <rect id="Rectangle-Copy-16" fill-opacity="0.05" fill="#000000" x="114" y="90" width="349" height="9" rx="3"/>
                    </g>
                </g>
                <g id="dashboard" transform="translate(0.000000, 201.000000)">
                    <g id="bg">
                        <use fill="black" fill-opacity="1" filter="url(#filter-10)" xlink:href="#path-9"/>
                        <use fill="#FFFFFF" xlink:href="#path-9"/>
                    </g>
                    <g id="sidebar">
                        <path d="M10.5,0 L103.6,0 L103.6,351.4 L10.5,351.4 C4.70101013,351.4 2.48652828e-15,346.69899 1.77635684e-15,340.9 L1.77635684e-15,10.5 C1.0661854e-15,4.70101013 4.70101013,2.841614e-15 10.5,1.77635684e-15 Z" id="Rectangle" fill="#232A3B"/>
                        <rect id="Rectangle" fill-opacity="0.5" fill="#5187E0" x="7" y="47.6" width="89.6" height="14" rx="2.1"/>
                        <rect id="Rectangle-Copy-5" fill-opacity="0.09" fill="#FFFFFF" x="7" y="126" width="89.6" height="14" rx="2.1"/>
                        <rect id="Rectangle-Copy-3" fill-opacity="0.09" fill="#FFFFFF" x="7" y="86.8" width="89.6" height="14" rx="2.1"/>
                        <rect id="Rectangle-Copy-6" fill-opacity="0.09" fill="#FFFFFF" x="7" y="165.2" width="89.6" height="14" rx="2.1"/>
                        <rect id="Rectangle-Copy-2" fill-opacity="0.09" fill="#FFFFFF" x="7" y="67.2" width="89.6" height="14" rx="2.1"/>
                        <rect id="Rectangle-Copy-7" fill-opacity="0.09" fill="#FFFFFF" x="7" y="145.6" width="89.6" height="14" rx="2.1"/>
                        <rect id="Rectangle-Copy-4" fill-opacity="0.09" fill="#FFFFFF" x="7" y="106.4" width="89.6" height="14" rx="2.1"/>
                        <rect id="Rectangle-Copy-8" fill-opacity="0.09" fill="#FFFFFF" x="7" y="184.8" width="89.6" height="14" rx="2.1"/>
                        <rect id="Rectangle-Copy-9" fill-opacity="0.09" fill="#FFFFFF" x="7" y="326.9" width="42" height="14" rx="2.1"/>
                        <rect id="Rectangle-Copy-10" fill-opacity="0.09" fill="#FFFFFF" x="54.6" y="326.9" width="42" height="14" rx="2.1"/>
                        <g id="logo" transform="translate(15.400000, 10.500000)">
                            <path d="M5.60313906,0 L6.381629,1.34895434 C6.53821472,1.62755447 6.53821472,1.9675657 6.381629,2.24616583 L1.77974897,10.2583272 L3.95198702,14.0228509 C4.19731657,14.4633956 4.60923873,14.7871658 5.09545866,14.921618 C5.58167859,15.0560702 6.10154696,14.9899637 6.53858262,14.7381104 C6.83895925,14.5685596 7.08829514,14.3215469 7.26056925,14.0228509 L9.42652915,10.2583272 L8.8426617,9.23563157 L6.381629,13.5271886 C6.13519254,13.9565353 5.5873921,14.1053313 5.15739079,13.8597216 C5.0201063,13.7788032 4.90561821,13.664387 4.82464913,13.5271886 L2.94120573,10.2646014 L7.21034409,2.8233928 L7.98883403,4.17234714 C8.14541975,4.45094727 8.14541975,4.7909585 7.98883403,5.06955863 L5.01927161,10.252053 L5.60941721,11.2747486 L8.84893985,5.62796299 L10.9583964,9.32347046 C11.2805345,9.89620271 11.2805345,10.5953548 10.9583964,11.1680871 L8.7861584,14.9451592 C8.13149683,16.0920173 6.91176294,16.8 5.59058278,16.8 C4.26940262,16.8 3.04966872,16.0920173 2.39500715,14.9451592 L0.241603536,11.1806355 C-0.0805345121,10.6079032 -0.0805345121,9.90875113 0.241603536,9.33601887 L5.59686092,0" id="Path" fill="#EC4F52"/>
                            <path d="M16.2180074,3.66121778 L14.7,3.66121778 L14.7,12.7906923 L16.2180074,12.7906923 L16.2180074,3.66121778 Z M17.3391912,4.42094328 C17.3354663,3.98477609 17.6366688,3.60686512 18.0581645,3.51886616 C18.4796602,3.43086719 18.903694,3.65736486 19.0703374,4.05951827 C19.2369809,4.46167167 19.099678,4.92712961 18.7425941,5.17057083 C18.3855103,5.41401205 17.9084054,5.36742541 17.6037402,5.05936807 C17.4362647,4.89002788 17.3412388,4.6607059 17.3391912,4.42094328 Z M17.4714657,12.7843081 L19.0020707,12.7843081 L19.0020707,6.45113412 L17.4714657,6.45113412 L17.4714657,12.7843081 Z M43.1705117,9.38788816 C42.5371003,9.05329835 41.8312809,8.88432448 41.1171075,8.89630107 C40.7013877,8.89630107 40.046314,8.76861611 40.046314,8.21318654 C40.046314,7.81736317 40.455735,7.57476175 41.192693,7.57476175 C41.760784,7.54351207 42.317254,7.74609894 42.7358955,8.13657557 L43.5988291,7.1150959 C42.9287448,6.52311747 42.0543855,6.22464871 41.1674978,6.28514367 C40.0274176,6.28514367 38.5283066,6.79588351 38.5283066,8.25149203 C38.5309555,8.85700194 38.8401644,9.41871865 39.3471487,9.7390218 C39.9619592,10.0504506 40.6377586,10.2184206 41.3249675,10.2306089 C41.7595837,10.2752986 42.4776453,10.3838308 42.3642671,11.0031029 C42.2823829,11.4372317 41.7784801,11.5649167 41.4068517,11.5776852 C41.0131529,11.602175 40.6180731,11.5655756 40.2352775,11.469153 C39.84374,11.3537047 39.4750098,11.1700785 39.1455876,10.9264919 L38.3456418,11.9415873 L38.4401236,12.0245826 C39.4717346,12.8462659 40.8154441,13.1491803 42.0934193,12.8481505 C43.0721094,12.6998661 43.8108056,11.8709274 43.8570794,10.8690337 C43.8978492,10.2831637 43.6324685,9.71854515 43.1579141,9.38150391 L43.1705117,9.38788816 Z M36.8717259,11.7309071 C36.7063889,11.7433737 36.5457858,11.6715581 36.4434085,11.5393797 C36.3353656,11.3593922 36.286819,11.1491514 36.3048352,10.9392604 L36.3048352,7.80459468 L37.5645924,7.80459468 L37.7031657,6.44474987 L36.3174328,6.44474987 L36.3174328,4.70823444 L34.7742303,4.87422488 L34.7742303,6.45113412 L33.6089549,6.45113412 L33.6089549,7.80459468 L34.7742303,7.80459468 L34.7742303,10.9584132 C34.7367059,11.4912817 34.8961171,12.0192418 35.2214441,12.4395587 C35.5728129,12.7980253 36.0591075,12.9863475 36.5567866,12.9566828 C36.8215302,12.9544435 37.0845773,12.9135911 37.3378361,12.835382 C37.5863348,12.7617872 37.8221582,12.6498125 38.0370013,12.5034011 L37.5142021,11.5010742 C37.3254251,11.6246402 37.1085827,11.697169 36.8843235,11.7117544 L36.8717259,11.7309071 Z M69.3734605,7.65775698 C70.3848289,7.72925276 71.1603139,8.59695914 71.1308218,9.62410534 C71.2321869,10.3228246 70.9211346,11.0170846 70.3353689,11.3995352 C69.7496026,11.7819857 68.9973185,11.7819857 68.4115522,11.3995352 C67.8257865,11.0170846 67.5147342,10.3228246 67.6160993,9.62410534 C67.5900444,8.59940041 68.3645941,7.73555414 69.3734605,7.66414122 L69.3734605,7.65775698 Z M69.2600824,12.963067 C70.0526328,12.9749829 70.801663,12.5965763 71.2693951,11.9479716 L71.3197853,12.7906923 L72.8,12.7906923 L72.8,3.66760202 L71.2693951,3.66760202 L71.2693951,7.21085962 C70.7647559,6.59737719 70.0026456,6.2632803 69.2159909,6.31068066 C67.2318734,6.31068066 66.066598,7.81097893 66.066598,9.64964233 C66.0248018,10.5189996 66.3393335,11.3672145 66.9357227,11.9934568 C67.5321119,12.6196991 68.3573297,12.9682859 69.2159909,12.9566828 L69.2600824,12.963067 Z M48.0898634,11.5904537 C47.0834966,11.5157978 46.3125644,10.6528934 46.338801,9.63048958 C46.2471024,8.93838686 46.559976,8.25524425 47.1407252,7.87953094 C47.7214744,7.50381756 48.4645511,7.50381756 49.0453004,7.87953094 C49.6260496,8.25524425 49.9389232,8.93838686 49.8472246,9.63048958 C49.8767169,10.6576358 49.1012319,11.5253422 48.0898634,11.5968379 L48.0898634,11.5904537 Z M48.2032415,6.28514367 C47.4106914,6.27322779 46.6616612,6.65163436 46.1939289,7.30023909 L46.1561362,6.43198137 L44.6696227,6.43198137 L44.6696227,15.5614559 L46.2002277,15.3954655 L46.2002277,12.0373511 C46.6958041,12.6569473 47.4554231,12.9967601 48.2410343,12.9502985 C50.2251518,12.9502985 51.3904271,11.4372317 51.3904271,9.59856834 C51.4304305,8.7302902 51.1151007,7.88377327 50.5189139,7.25895203 C49.9227271,6.6341308 49.0985477,6.28640858 48.2410343,6.29791217 L48.2032415,6.28514367 Z M30.6170317,6.28514367 C29.8525073,6.26548938 29.1281298,6.63139655 28.6833044,7.2619336 L28.6833044,3.65483353 L27.1526995,3.65483353 L27.1526995,12.7843081 L28.6833044,12.7843081 L28.6833044,9.5921841 C28.6504346,9.15471423 28.7952609,8.72261429 29.0842396,8.39596507 C29.3732182,8.06931579 29.7812791,7.87645533 30.2139094,7.86205291 C31.0327515,7.86205291 31.6185386,8.34725575 31.6185386,9.50280463 L31.6185386,12.8162293 L33.1491435,12.8162293 L33.1491435,9.35596692 C33.1491435,7.50453503 32.3743929,6.28514367 30.6296292,6.28514367 L30.6170317,6.28514367 Z M57.0215416,8.98568054 C56.7946519,8.16543058 56.0605246,7.59565695 55.2200889,7.58753025 C54.3749712,7.58998135 53.6342178,8.16090524 53.4060386,8.98568054 L57.0215416,8.98568054 Z M53.4060386,10.1859192 C53.6424808,11.0582081 54.4488228,11.6438829 55.3397658,11.5904537 C55.9506347,11.5811432 56.5389903,11.3552574 57.0026453,10.9520289 L57.9852559,11.9352031 C57.2619952,12.6187886 56.3031923,12.9878021 55.3145707,12.963067 C54.4203234,13.022165 53.5435835,12.6923385 52.9039293,12.0561921 C52.264275,11.4200457 51.9222874,10.5378282 51.9636167,9.63048958 C51.9450519,8.76581241 52.2666688,7.92917753 52.8575107,7.30516697 C53.4483526,6.68115646 54.2598655,6.32105015 55.1130095,6.30429642 L55.2137901,6.30429642 C57.1034258,6.30429642 58.6529271,7.61306724 58.4954575,10.1923034 L53.393441,10.1923034 L53.4060386,10.1859192 Z M64.1139744,8.98568054 C63.8870846,8.16543058 63.1529574,7.59565695 62.3125217,7.58753025 C61.467404,7.58998135 60.7266506,8.16090524 60.4984714,8.98568054 L64.1139744,8.98568054 Z M60.4921726,10.1859192 C60.7286148,11.0582081 61.5349568,11.6438829 62.4258998,11.5904537 C63.0387409,11.5815534 63.6292161,11.3557092 64.0950781,10.9520289 L65.0524935,11.9224346 C64.3276626,12.6075872 63.3662922,12.9767184 62.3755095,12.9502985 C61.4823183,13.0074994 60.6072988,12.6768306 59.9690722,12.0409087 C59.3308456,11.4049869 58.9896944,10.5238766 59.0308543,9.61772109 C59.0105956,8.75255845 59.3316517,7.9149427 59.9228519,7.29055374 C60.5140521,6.66616485 61.3265549,6.30658619 62.1802472,6.29152792 L62.2873265,6.29152792 C64.1769623,6.29152792 65.7201648,7.60029874 65.5689939,10.1795349 L60.479575,10.1795349 L60.4921726,10.1859192 Z M23.0458912,11.3989263 C22.5760557,11.3732962 22.1369121,11.1543503 21.8301175,10.7927722 C21.523323,10.4311941 21.375477,9.95833323 21.4208044,9.48365188 C21.3826386,9.01054661 21.5330436,8.54166095 21.838413,8.18176245 C22.1437824,7.821864 22.5786651,7.6009486 23.0458912,7.5683775 C23.5119901,7.60257224 23.9452664,7.82418602 24.2492957,8.18389925 C24.553325,8.54361255 24.7028805,9.01157818 24.6646791,9.48365188 C24.7081864,9.95689479 24.5605307,10.4277961 24.2554525,10.7887504 C23.9503743,11.1497046 23.5139444,11.3698663 23.0458912,11.3989263 Z M23.0458912,6.29152792 C22.2011652,6.25890984 21.3812703,6.58473549 20.7835256,7.19059046 C20.1857808,7.79644544 19.8643168,8.62746467 19.8964983,9.48365188 C19.8226694,10.3510414 20.1306854,11.2071808 20.7380598,11.822796 C21.3454341,12.4384112 22.1901129,12.7506064 23.0458912,12.6757758 C23.8206418,12.6757758 24.6268864,13.0779835 24.6268864,13.9526254 C24.6160259,14.3539638 24.4377367,14.731803 24.1363068,14.9922859 C23.8348769,15.2527688 23.438592,15.3714522 23.0458912,15.3188545 C22.649197,15.3689259 22.2495168,15.2528144 21.9392224,14.9973547 C21.628928,14.7418952 21.4348736,14.3691962 21.4019081,13.9653939 L19.8776019,13.9653939 C19.8776019,15.6763724 21.2255421,16.8 23.0269948,16.8 C24.8284475,16.8 26.1448938,15.7210621 26.1448938,13.9717782 C26.2045833,13.0738708 25.7000116,12.2351458 24.8851366,11.8777449 C25.7362422,11.4074675 26.2456838,10.4839887 26.195284,9.50280463 C26.2255585,8.64716237 25.9034804,7.81728216 25.3061655,7.21186278 C24.7088505,6.60644346 23.8900794,6.27999548 23.0458912,6.31068066 L23.0458912,6.29152792 Z" id="Shape" fill="#FFFFFF"/>
                        </g>
                    </g>
                    <g id="values" transform="translate(138.600000, 46.200000)">
                        <g id="Group-4" transform="translate(0.000000, 6.300000)">
                            <g id="Rectangle">
                                <use fill="black" fill-opacity="1" filter="url(#filter-12)" xlink:href="#path-11"/>
                                <use fill="#FFFFFF" xlink:href="#path-11"/>
                            </g>
                            <g id="Group-3" transform="translate(41.700000, 21.600000)">
                                <path d="M13.4118756,0.439098613 L13.4118756,8.9 L11.8053754,8.9 L11.8053754,2.70009898 L9.81212505,3.50929912 L9.81212505,1.89089885 L13.4118756,0.439098613 Z M17.5411755,0.42124861 C19.2964258,0.42124861 20.492376,1.37324877 20.492376,2.813149 C20.492376,3.69374915 20.0223259,4.34229925 19.2488258,4.70524931 C20.1234759,5.05034937 20.676826,5.71674948 20.676826,6.61519963 C20.676826,8.25739989 19.1833758,9.04875002 17.6066255,9.04875002 C16.3571253,9.04875002 15.3277752,8.60249995 14.6970751,7.84089983 L15.6550252,6.78774965 C16.1369753,7.29349974 16.8331254,7.58504978 17.5471255,7.58504978 C18.3563257,7.58504978 19.0048758,7.23399973 19.0048758,6.50214961 C19.0048758,5.78814949 18.2730256,5.41329943 17.3745755,5.41329943 L16.4047253,5.41329943 L16.4047253,3.98529919 L17.3805255,3.98529919 C18.1897256,3.98529919 18.8382757,3.62829914 18.8382757,2.92619902 C18.8382757,2.25384891 18.2313756,1.88494885 17.4578755,1.88494885 C16.6843754,1.88494885 16.1131753,2.28359892 15.7740252,2.72984899 L14.7625251,1.71239882 C15.3099252,0.974598701 16.2143253,0.42124861 17.5411755,0.42124861 Z M25.1214756,0.439098613 L25.1214756,8.9 L23.5149754,8.9 L23.5149754,2.70009898 L21.5217251,3.50929912 L21.5217251,1.89089885 L25.1214756,0.439098613 Z" id="131" fill="#333333"/>
                                <path d="M5.089,15.816 L6.188,15.816 L3.948,20.8 L3.073,20.8 L0.833,15.816 L1.967,15.816 L3.521,19.435 L5.089,15.816 Z M6.58,20.8 L6.58,15.816 L7.672,15.816 L7.672,20.8 L6.58,20.8 Z M10.416,20.863 C10.0379981,20.863 9.67516841,20.8128338 9.3275,20.7125 C8.9798316,20.6121662 8.69166781,20.4710009 8.463,20.289 L8.813,19.505 C9.29366907,19.8410017 9.83033037,20.009 10.423,20.009 C10.7403349,20.009 10.9841658,19.9588338 11.1545,19.8585 C11.3248342,19.7581662 11.41,19.6170009 11.41,19.435 C11.41,19.2763325 11.3318341,19.1515005 11.1755,19.0605 C11.0191659,18.9694995 10.745002,18.8820004 10.353,18.798 C9.91433114,18.7093329 9.5655013,18.600834 9.3065,18.4725 C9.04749871,18.344166 8.8585006,18.1878343 8.7395,18.0035 C8.62049941,17.8191657 8.561,17.5893347 8.561,17.314 C8.561,17.0153318 8.64383251,16.7470012 8.8095,16.509 C8.9751675,16.2709988 9.20733184,16.0855007 9.506,15.9525 C9.80466816,15.8194993 10.149998,15.753 10.542,15.753 C10.8966684,15.753 11.2373317,15.8043328 11.564,15.907 C11.8906683,16.0096672 12.151999,16.1496658 12.348,16.327 L11.998,17.111 C11.5593311,16.7749983 11.076336,16.607 10.549,16.607 C10.2689986,16.607 10.0450008,16.6629994 9.877,16.775 C9.70899916,16.8870006 9.625,17.0386657 9.625,17.23 C9.625,17.3420006 9.65649969,17.435333 9.7195,17.51 C9.78250032,17.584667 9.88866592,17.6511664 10.038,17.7095 C10.1873341,17.7678336 10.3996653,17.8249997 10.675,17.881 C11.3143365,18.0210007 11.7751653,18.2029989 12.0575,18.427 C12.3398347,18.6510011 12.481,18.9566647 12.481,19.344 C12.481,19.810669 12.2990018,20.1804986 11.935,20.4535 C11.5709982,20.7265014 11.0646699,20.863 10.416,20.863 Z M13.272,20.8 L13.272,15.816 L14.364,15.816 L14.364,20.8 L13.272,20.8 Z M16.513,20.8 L16.513,16.705 L14.952,16.705 L14.952,15.816 L19.18,15.816 L19.18,16.705 L17.619,16.705 L17.619,20.8 L16.513,20.8 Z M21.763,20.863 C21.2683309,20.863 20.8378352,20.7591677 20.4715,20.5515 C20.1051648,20.3438323 19.8228343,20.0463353 19.6245,19.659 C19.4261657,19.2716647 19.327,18.8190026 19.327,18.301 C19.327,17.7829974 19.4261657,17.3326686 19.6245,16.95 C19.8228343,16.5673314 20.1051648,16.2721677 20.4715,16.0645 C20.8378352,15.8568323 21.2683309,15.753 21.763,15.753 C22.2576691,15.753 22.6869982,15.8568323 23.051,16.0645 C23.4150018,16.2721677 23.694999,16.5673314 23.891,16.95 C24.087001,17.3326686 24.185,17.7829974 24.185,18.301 C24.185,18.8190026 24.087001,19.2716647 23.891,19.659 C23.694999,20.0463353 23.4150018,20.3438323 23.051,20.5515 C22.6869982,20.7591677 22.2576691,20.863 21.763,20.863 Z M21.763,20.009 C22.1830021,20.009 22.5108322,19.8620015 22.7465,19.568 C22.9821678,19.2739985 23.1,18.8516694 23.1,18.301 C23.1,17.7503306 22.9821678,17.3303348 22.7465,17.041 C22.5108322,16.7516652 22.1830021,16.607 21.763,16.607 C21.3429979,16.607 21.0151678,16.7516652 20.7795,17.041 C20.5438322,17.3303348 20.426,17.7503306 20.426,18.301 C20.426,18.8563361 20.5438322,19.2798319 20.7795,19.5715 C21.0151678,19.8631681 21.3429979,20.009 21.763,20.009 Z M29.246,20.8 L28.091,20.8 L27.454,19.141 C27.4026664,19.0103327 27.3245005,18.9193336 27.2195,18.868 C27.1144995,18.8166664 26.9826675,18.791 26.824,18.791 L26.117,18.791 L26.117,20.8 L25.039,20.8 L25.039,15.816 L27.258,15.816 C27.8366696,15.816 28.2753318,15.9419987 28.574,16.194 C28.8726682,16.4460013 29.022,16.8076643 29.022,17.279 C29.022,17.610335 28.9345009,17.8949988 28.7595,18.133 C28.5844991,18.3710012 28.3336683,18.5413328 28.007,18.644 C28.3010015,18.704667 28.5133327,18.9076649 28.644,19.253 L29.246,20.8 Z M27.097,17.958 C27.4096682,17.958 27.6383326,17.9055005 27.783,17.8005 C27.9276674,17.6954995 28,17.5310011 28,17.307 C28,17.0829989 27.9276674,16.9185005 27.783,16.8135 C27.6383326,16.7084995 27.4096682,16.656 27.097,16.656 L26.103,16.656 L26.103,17.958 L27.097,17.958 Z M31.703,20.863 C31.3249981,20.863 30.9621684,20.8128338 30.6145,20.7125 C30.2668316,20.6121662 29.9786678,20.4710009 29.75,20.289 L30.1,19.505 C30.5806691,19.8410017 31.1173304,20.009 31.71,20.009 C32.0273349,20.009 32.2711658,19.9588338 32.4415,19.8585 C32.6118342,19.7581662 32.697,19.6170009 32.697,19.435 C32.697,19.2763325 32.6188341,19.1515005 32.4625,19.0605 C32.3061659,18.9694995 32.032002,18.8820004 31.64,18.798 C31.2013311,18.7093329 30.8525013,18.600834 30.5935,18.4725 C30.3344987,18.344166 30.1455006,18.1878343 30.0265,18.0035 C29.9074994,17.8191657 29.848,17.5893347 29.848,17.314 C29.848,17.0153318 29.9308325,16.7470012 30.0965,16.509 C30.2621675,16.2709988 30.4943318,16.0855007 30.793,15.9525 C31.0916682,15.8194993 31.436998,15.753 31.829,15.753 C32.1836684,15.753 32.5243317,15.8043328 32.851,15.907 C33.1776683,16.0096672 33.438999,16.1496658 33.635,16.327 L33.285,17.111 C32.8463311,16.7749983 32.363336,16.607 31.836,16.607 C31.5559986,16.607 31.3320008,16.6629994 31.164,16.775 C30.9959992,16.8870006 30.912,17.0386657 30.912,17.23 C30.912,17.3420006 30.9434997,17.435333 31.0065,17.51 C31.0695003,17.584667 31.1756659,17.6511664 31.325,17.7095 C31.4743341,17.7678336 31.6866653,17.8249997 31.962,17.881 C32.6013365,18.0210007 33.0621653,18.2029989 33.3445,18.427 C33.6268347,18.6510011 33.768,18.9566647 33.768,19.344 C33.768,19.810669 33.5860018,20.1804986 33.222,20.4535 C32.8579982,20.7265014 32.3516699,20.863 31.703,20.863 Z" id="VISITORS" fill="#AAAAAA"/>
                            </g>
                        </g>
                        <g id="Group-4-Copy-2" transform="translate(252.000000, 6.300000)">
                            <g id="Rectangle">
                                <use fill="black" fill-opacity="1" filter="url(#filter-14)" xlink:href="#path-13"/>
                                <use fill="#FFFFFF" xlink:href="#path-13"/>
                            </g>
                            <g id="Group-3" transform="translate(43.300000, 21.600000)">
                                <path d="M14.5042509,0.569998635 L12.4515006,3.46764911 C12.5645506,3.45574911 12.6954506,3.44384911 12.8382506,3.44384911 C14.5280509,3.44384911 15.7240011,4.6516993 15.7240011,6.21059956 C15.7240011,7.84089983 14.3793009,9.04875002 12.5883506,9.04875002 C10.8093003,9.04875002 9.46460006,7.85279983 9.46460006,6.24034956 C9.46460006,5.47874944 9.75020011,4.78854933 10.2559502,4.0269492 L12.5645506,0.569998635 L14.5042509,0.569998635 Z M12.5883506,4.85399934 C11.7613004,4.85399934 11.1365503,5.41924943 11.1365503,6.22249956 C11.1365503,7.03169969 11.7613004,7.59099979 12.5883506,7.59099979 C13.4273007,7.59099979 14.0520508,7.03169969 14.0520508,6.22249956 C14.0520508,5.41924943 13.4273007,4.85399934 12.5883506,4.85399934 Z M21.9001009,3.65804914 L21.9001009,5.8773995 L23.0603511,5.8773995 L23.0603511,7.37679975 L21.9001009,7.37679975 L21.9001009,8.9 L20.2936006,8.9 L20.2936006,7.37679975 L16.59865,7.37679975 L16.59865,6.21059956 L19.5201005,0.575948636 L21.3051008,0.575948636 L18.5205004,5.8773995 L20.2936006,5.8773995 L20.2936006,3.65804914 L21.9001009,3.65804914 Z" id="64" fill="#333333"/>
                                <path d="M3.8705,20.863 C3.37583086,20.863 2.94533516,20.7591677 2.579,20.5515 C2.21266483,20.3438323 1.93033432,20.0463353 1.732,19.659 C1.53366567,19.2716647 1.4345,18.8190026 1.4345,18.301 C1.4345,17.7829974 1.53366567,17.3326686 1.732,16.95 C1.93033432,16.5673314 2.21266483,16.2721677 2.579,16.0645 C2.94533516,15.8568323 3.37583086,15.753 3.8705,15.753 C4.36516914,15.753 4.79449818,15.8568323 5.1585,16.0645 C5.52250182,16.2721677 5.80249902,16.5673314 5.9985,16.95 C6.19450098,17.3326686 6.2925,17.7829974 6.2925,18.301 C6.2925,18.8190026 6.19450098,19.2716647 5.9985,19.659 C5.80249902,20.0463353 5.52250182,20.3438323 5.1585,20.5515 C4.79449818,20.7591677 4.36516914,20.863 3.8705,20.863 Z M3.8705,20.009 C4.2905021,20.009 4.61833215,19.8620015 4.854,19.568 C5.08966784,19.2739985 5.2075,18.8516694 5.2075,18.301 C5.2075,17.7503306 5.08966784,17.3303348 4.854,17.041 C4.61833215,16.7516652 4.2905021,16.607 3.8705,16.607 C3.4504979,16.607 3.12266784,16.7516652 2.887,17.041 C2.65133215,17.3303348 2.5335,17.7503306 2.5335,18.301 C2.5335,18.8563361 2.65133215,19.2798319 2.887,19.5715 C3.12266784,19.8631681 3.4504979,20.009 3.8705,20.009 Z M11.3535,20.8 L10.1985,20.8 L9.5615,19.141 C9.51016641,19.0103327 9.43200052,18.9193336 9.327,18.868 C9.22199947,18.8166664 9.09016746,18.791 8.9315,18.791 L8.2245,18.791 L8.2245,20.8 L7.1465,20.8 L7.1465,15.816 L9.3655,15.816 C9.94416956,15.816 10.3828318,15.9419987 10.6815,16.194 C10.9801682,16.4460013 11.1295,16.8076643 11.1295,17.279 C11.1295,17.610335 11.0420009,17.8949988 10.867,18.133 C10.6919991,18.3710012 10.4411683,18.5413328 10.1145,18.644 C10.4085015,18.704667 10.6208327,18.9076649 10.7515,19.253 L11.3535,20.8 Z M9.2045,17.958 C9.51716823,17.958 9.74583261,17.9055005 9.8905,17.8005 C10.0351674,17.6954995 10.1075,17.5310011 10.1075,17.307 C10.1075,17.0829989 10.0351674,16.9185005 9.8905,16.8135 C9.74583261,16.7084995 9.51716823,16.656 9.2045,16.656 L8.2105,16.656 L8.2105,17.958 L9.2045,17.958 Z M12.1025,15.816 L14.0275,15.816 C14.5735027,15.816 15.042498,15.913999 15.4345,16.11 C15.826502,16.306001 16.1263323,16.5906648 16.334,16.964 C16.5416677,17.3373352 16.6455,17.7829974 16.6455,18.301 C16.6455,18.8236693 16.5428344,19.2716648 16.3375,19.645 C16.1321656,20.0183352 15.833502,20.3041657 15.4415,20.5025 C15.049498,20.7008343 14.5781694,20.8 14.0275,20.8 L12.1025,20.8 L12.1025,15.816 Z M13.9575,19.918 C15.0215053,19.918 15.5535,19.3790054 15.5535,18.301 C15.5535,17.232328 15.0215053,16.698 13.9575,16.698 L13.1945,16.698 L13.1945,19.918 L13.9575,19.918 Z M17.4995,20.8 L17.4995,15.816 L20.9365,15.816 L20.9365,16.663 L18.5635,16.663 L18.5635,17.839 L20.7895,17.839 L20.7895,18.693 L18.5635,18.693 L18.5635,19.953 L20.9365,19.953 L20.9365,20.8 L17.4995,20.8 Z M25.8995,20.8 L24.7445,20.8 L24.1075,19.141 C24.0561664,19.0103327 23.9780005,18.9193336 23.873,18.868 C23.7679995,18.8166664 23.6361675,18.791 23.4775,18.791 L22.7705,18.791 L22.7705,20.8 L21.6925,20.8 L21.6925,15.816 L23.9115,15.816 C24.4901696,15.816 24.9288318,15.9419987 25.2275,16.194 C25.5261682,16.4460013 25.6755,16.8076643 25.6755,17.279 C25.6755,17.610335 25.5880009,17.8949988 25.413,18.133 C25.2379991,18.3710012 24.9871683,18.5413328 24.6605,18.644 C24.9545015,18.704667 25.1668327,18.9076649 25.2975,19.253 L25.8995,20.8 Z M23.7505,17.958 C24.0631682,17.958 24.2918326,17.9055005 24.4365,17.8005 C24.5811674,17.6954995 24.6535,17.5310011 24.6535,17.307 C24.6535,17.0829989 24.5811674,16.9185005 24.4365,16.8135 C24.2918326,16.7084995 24.0631682,16.656 23.7505,16.656 L22.7565,16.656 L22.7565,17.958 L23.7505,17.958 Z M28.3565,20.863 C27.9784981,20.863 27.6156684,20.8128338 27.268,20.7125 C26.9203316,20.6121662 26.6321678,20.4710009 26.4035,20.289 L26.7535,19.505 C27.2341691,19.8410017 27.7708304,20.009 28.3635,20.009 C28.6808349,20.009 28.9246658,19.9588338 29.095,19.8585 C29.2653342,19.7581662 29.3505,19.6170009 29.3505,19.435 C29.3505,19.2763325 29.2723341,19.1515005 29.116,19.0605 C28.9596659,18.9694995 28.685502,18.8820004 28.2935,18.798 C27.8548311,18.7093329 27.5060013,18.600834 27.247,18.4725 C26.9879987,18.344166 26.7990006,18.1878343 26.68,18.0035 C26.5609994,17.8191657 26.5015,17.5893347 26.5015,17.314 C26.5015,17.0153318 26.5843325,16.7470012 26.75,16.509 C26.9156675,16.2709988 27.1478318,16.0855007 27.4465,15.9525 C27.7451682,15.8194993 28.090498,15.753 28.4825,15.753 C28.8371684,15.753 29.1778317,15.8043328 29.5045,15.907 C29.8311683,16.0096672 30.092499,16.1496658 30.2885,16.327 L29.9385,17.111 C29.4998311,16.7749983 29.016836,16.607 28.4895,16.607 C28.2094986,16.607 27.9855008,16.6629994 27.8175,16.775 C27.6494992,16.8870006 27.5655,17.0386657 27.5655,17.23 C27.5655,17.3420006 27.5969997,17.435333 27.66,17.51 C27.7230003,17.584667 27.8291659,17.6511664 27.9785,17.7095 C28.1278341,17.7678336 28.3401653,17.8249997 28.6155,17.881 C29.2548365,18.0210007 29.7156653,18.2029989 29.998,18.427 C30.2803347,18.6510011 30.4215,18.9566647 30.4215,19.344 C30.4215,19.810669 30.2395018,20.1804986 29.8755,20.4535 C29.5114982,20.7265014 29.0051699,20.863 28.3565,20.863 Z" id="ORDERS" fill="#AAAAAA"/>
                            </g>
                        </g>
                        <g id="Group-4-Copy" transform="translate(113.400000, 0.000000)">
                            <g id="Rectangle">
                                <use fill="black" fill-opacity="1" filter="url(#filter-16)" xlink:href="#path-15"/>
                                <use fill="#FFFFFF" xlink:href="#path-15"/>
                            </g>
                            <g id="Group-3" transform="translate(41.422001, 25.716001)">
                                <path d="M7.21782364,5.84171597 L7.21782364,7.17362371 L3.56767646,7.17362371 C4.02124505,8.21755141 4.89238471,8.81511002 5.97950941,8.81511002 C6.92984359,8.81511002 7.63539472,8.39033944 8.16815782,7.79278083 L9.23368401,9.18948409 C8.41294086,10.0534242 7.36181367,10.5789878 5.99390841,10.5789878 C3.7548635,10.5789878 2.09177869,9.29027711 1.50141958,7.17362371 L0.248706347,7.17362371 L0.248706347,5.84171597 L1.28543454,5.84171597 C1.27103554,5.68332694 1.27103554,5.52493791 1.27103554,5.35934938 C1.27103554,5.20096035 1.27103554,5.03537182 1.28543454,4.87698279 L0.248706347,4.87698279 L0.248706347,3.54507504 L1.50141958,3.54507504 C2.09177869,1.42842165 3.7548635,0.139710908 5.99390841,0.139710908 C7.33301566,0.139710908 8.42733987,0.643676002 9.26248202,1.50761616 L8.15375881,2.93311743 C7.62099572,2.32835931 6.92264409,1.90358874 5.97230991,1.90358874 C4.8635867,1.90358874 4.00684604,2.52274585 3.56047696,3.54507504 L7.21782364,3.54507504 L7.21782364,4.87698279 L3.2436989,4.87698279 C3.2292999,5.03537182 3.2221004,5.19376085 3.2221004,5.35934938 C3.2221004,5.52493791 3.2292999,5.69052644 3.2436989,5.84171597 L7.21782364,5.84171597 Z M11.5231238,3.10590546 L10.2704106,1.87479073 C10.8175727,1.1620401 11.8399018,0.139710908 13.7117722,0.139710908 C15.8212261,0.139710908 17.1315353,1.46441915 17.1315353,3.39388551 C17.1315353,4.62500024 16.5051787,5.4817409 15.6772361,6.33848156 L13.5245852,8.57752647 L17.3763184,8.57752647 L17.3763184,10.3990003 L10.7167796,10.3990003 L10.7167796,8.87990553 L14.2805328,5.22975835 C14.8132959,4.68979575 15.1084755,4.13543415 15.1084755,3.50187803 C15.1084755,2.62353887 14.4965178,1.99718225 13.5677822,1.99718225 C12.6102485,1.99718225 12.0414879,2.51554635 11.5231238,3.10590546 Z M20.1121275,7.78558133 C20.8536762,7.78558133 21.5016313,8.42633695 21.5016313,9.17508508 C21.5016313,9.93103273 20.8536762,10.5789878 20.1121275,10.5789878 C19.3633794,10.5789878 18.7082248,9.93103273 18.7082248,9.17508508 C18.7082248,8.42633695 19.3633794,7.78558133 20.1121275,7.78558133 Z M26.0661146,0.161309412 L26.0661146,10.3990003 L24.1222492,10.3990003 L24.1222492,2.89711992 L21.7104163,3.8762521 L21.7104163,1.91798774 L26.0661146,0.161309412 Z M33.9567671,4.05623963 L33.9567671,6.74165363 L35.3606698,6.74165363 L35.3606698,8.55592797 L33.9567671,8.55592797 L33.9567671,10.3990003 L32.0129017,10.3990003 L32.0129017,8.55592797 L27.5420114,8.55592797 L27.5420114,7.14482571 L31.0769666,0.326897943 L33.236817,0.326897943 L29.8674503,6.74165363 L32.0129017,6.74165363 L32.0129017,4.05623963 L33.9567671,4.05623963 Z M42.8265514,0.319698442 L42.8265514,2.12677328 L38.7444341,2.12677328 L38.7012371,4.14263365 L39.8603568,4.14263365 C42.2073942,4.14263365 43.3881125,5.4889404 43.3881125,7.17362371 C43.3881125,9.34067362 41.7466262,10.5789878 39.7091673,10.5789878 C38.2044715,10.5789878 36.9733568,10.0174267 36.1382146,9.07429207 L37.2325388,7.71358631 C37.7797009,8.31114492 38.7660326,8.77911251 39.6947683,8.77911251 C40.8178905,8.77911251 41.3722521,8.11675839 41.3722521,7.31761374 C41.3722521,6.5616661 40.897085,5.89931198 39.3203942,5.89931198 L36.9229603,5.89931198 L37.0309528,0.319698442 L42.8265514,0.319698442 Z M45.1375899,8.12395789 L47.2470438,8.12395789 L46.2391136,12.4148607 L44.6552233,12.4148607 L45.1375899,8.12395789 Z M51.8619237,0.161309412 L51.8619237,10.3990003 L49.9180583,10.3990003 L49.9180583,2.89711992 L47.5062253,3.8762521 L47.5062253,1.91798774 L51.8619237,0.161309412 Z M60.2133442,0.319698442 L60.2133442,2.12677328 L56.131227,2.12677328 L56.08803,4.14263365 L57.2471497,4.14263365 C59.5941871,4.14263365 60.7749053,5.4889404 60.7749053,7.17362371 C60.7749053,9.34067362 59.133419,10.5789878 57.0959602,10.5789878 C55.5912644,10.5789878 54.3601496,10.0174267 53.5250075,9.07429207 L54.6193317,7.71358631 C55.1664938,8.31114492 56.1528255,8.77911251 57.0815612,8.77911251 C58.2046834,8.77911251 58.759045,8.11675839 58.759045,7.31761374 C58.759045,6.5616661 58.2838779,5.89931198 56.7071871,5.89931198 L54.3097531,5.89931198 L54.4177457,0.319698442 L60.2133442,0.319698442 Z" id="€2.145,15" fill="#333333"/>
                                <path d="M16.1555906,25.7980006 L14.7580406,25.7980006 L13.9872705,23.7906106 C13.9251569,23.6325031 13.8305762,23.5223942 13.7035255,23.4602806 C13.5764749,23.3981669 13.4169582,23.3671106 13.2249705,23.3671106 L12.3695005,23.3671106 L12.3695005,25.7980006 L11.0651205,25.7980006 L11.0651205,19.7673605 L13.7501105,19.7673605 C14.4503007,19.7673605 14.9810821,19.919819 15.3424706,20.2247405 C15.7038591,20.529662 15.8845506,20.9672743 15.8845506,21.5375905 C15.8845506,21.9385059 15.7786766,22.2829491 15.5669256,22.5709306 C15.3551745,22.858912 15.0516692,23.0650133 14.6564006,23.1892406 C15.0121423,23.2626476 15.2690631,23.5082752 15.4271706,23.9261306 L16.1555906,25.7980006 Z M13.5553005,22.3591805 C13.9336291,22.3591805 14.210313,22.2956562 14.3853606,22.1686055 C14.5604081,22.0415549 14.6479306,21.8425119 14.6479306,21.5714705 C14.6479306,21.3004292 14.5604081,21.1013862 14.3853606,20.9743355 C14.210313,20.8472849 13.9336291,20.7837605 13.5553005,20.7837605 L12.3525605,20.7837605 L12.3525605,22.3591805 L13.5553005,22.3591805 Z M17.0618806,25.7980006 L17.0618806,19.7673605 L21.2206507,19.7673605 L21.2206507,20.7922305 L18.3493206,20.7922305 L18.3493206,22.2151905 L21.0427807,22.2151905 L21.0427807,23.2485306 L18.3493206,23.2485306 L18.3493206,24.7731306 L21.2206507,24.7731306 L21.2206507,25.7980006 L17.0618806,25.7980006 Z M26.5906308,19.7673605 L27.9204208,19.7673605 L25.2100208,25.7980006 L24.1512708,25.7980006 L21.4408707,19.7673605 L22.8130107,19.7673605 L24.6933508,24.1463506 L26.5906308,19.7673605 Z M28.3947409,25.7980006 L28.3947409,19.7673605 L32.5535109,19.7673605 L32.5535109,20.7922305 L29.6821809,20.7922305 L29.6821809,22.2151905 L32.3756409,22.2151905 L32.3756409,23.2485306 L29.6821809,23.2485306 L29.6821809,24.7731306 L32.5535109,24.7731306 L32.5535109,25.7980006 L28.3947409,25.7980006 Z M37.4491711,19.7673605 L38.6942611,19.7673605 L38.6942611,25.7980006 L37.7117411,25.7980006 L34.704891,21.9526205 L34.704891,25.7980006 L33.468271,25.7980006 L33.468271,19.7673605 L34.442321,19.7673605 L37.4491711,23.6042706 L37.4491711,19.7673605 Z M42.4634112,25.8742306 C41.6164069,25.8742306 40.9726933,25.6568361 40.5322511,25.2220406 C40.0918089,24.7872451 39.8715911,24.1491781 39.8715911,23.3078206 L39.8715911,19.7673605 L41.1675011,19.7673605 L41.1675011,23.3671106 C41.1675011,23.8470796 41.2790217,24.2126977 41.5020661,24.4639756 C41.7251106,24.7152535 42.0455557,24.8408906 42.4634112,24.8408906 C42.8812666,24.8408906 43.2003001,24.7152535 43.4205212,24.4639756 C43.6407423,24.2126977 43.7508512,23.8470796 43.7508512,23.3671106 L43.7508512,19.7673605 L45.0552312,19.7673605 L45.0552312,23.3078206 C45.0552312,24.1435314 44.8336018,24.7801867 44.3903362,25.2178056 C43.9470706,25.6554245 43.3047687,25.8742306 42.4634112,25.8742306 Z M46.2240912,25.7980006 L46.2240912,19.7673605 L50.3828613,19.7673605 L50.3828613,20.7922305 L47.5115313,20.7922305 L47.5115313,22.2151905 L50.2049913,22.2151905 L50.2049913,23.2485306 L47.5115313,23.2485306 L47.5115313,24.7731306 L50.3828613,24.7731306 L50.3828613,25.7980006 L46.2240912,25.7980006 Z" id="REVENUE" fill="#AAAAAA"/>
                            </g>
                        </g>
                    </g>
                    <g id="stats" transform="translate(138.600000, 143.500000)">
                        <rect id="Rectangle" stroke="#EEEEEE" stroke-width="0.7" fill="#FFFFFF" x="0.35" y="0.35" width="256.9" height="77.7" rx="3.5"/>
                        <rect id="Rectangle" fill="#EEEEEE" x="21" y="0" width="1" height="64.4"/>
                        <rect id="Rectangle-Copy-11" fill="#EEEEEE" x="64.4" y="0" width="1" height="64.4"/>
                        <rect id="Rectangle-Copy-12" fill="#EEEEEE" x="106.4" y="0" width="1" height="64.4"/>
                        <rect id="Rectangle-Copy-13" fill="#EEEEEE" x="149.8" y="0" width="1" height="64.4"/>
                        <rect id="Rectangle-Copy-14" fill="#EEEEEE" x="193.2" y="0" width="1" height="64.4"/>
                        <rect id="Rectangle-Copy-15" fill="#EEEEEE" x="235.9" y="0" width="1" height="64.4"/>
                        <path d="" id="Path-2" stroke="#EEEEEE" stroke-width="0.7"/>
                        <polyline id="Path-3" stroke="#5187E0" stroke-width="1.4" points="21.7 49 64.4 53.2 107.1 42 150.5 43.4 193.2 22.4 235.9 18.2"/>
                        <circle id="Oval" stroke="#5187E0" stroke-width="1.4" fill="#F7F7F7" cx="21.7" cy="49" r="3.5"/>
                        <circle id="Oval-Copy" stroke="#5187E0" stroke-width="1.4" fill="#F7F7F7" cx="107.1" cy="42" r="3.5"/>
                        <circle id="Oval-Copy-3" stroke="#5187E0" stroke-width="1.4" fill="#F7F7F7" cx="193.2" cy="22.4" r="3.5"/>
                        <circle id="Oval" stroke="#5187E0" stroke-width="1.4" fill="#F7F7F7" cx="64.4" cy="53.2" r="3.5"/>
                        <circle id="Oval-Copy-2" stroke="#5187E0" stroke-width="1.4" fill="#F7F7F7" cx="150.5" cy="43.4" r="3.5"/>
                        <circle id="Oval-Copy-4" stroke="#5187E0" stroke-width="1.4" fill="#F7F7F7" cx="235.9" cy="18.2" r="3.5"/>
                        <path d="M19.0064004,69.9799994 L19.0064004,72.4719998 C19.0064004,73.4547999 18.4184004,73.97 17.6008002,73.97 C16.9512001,73.97 16.562,73.6872 16.3492,73.4267999 L16.8028001,72.8583998 C16.9624001,73.0543999 17.2032002,73.2223999 17.5644002,73.2223999 C17.9788003,73.2223999 18.2252003,72.9647998 18.2252003,72.3991998 L18.2252003,69.9799994 L19.0064004,69.9799994 Z M21.8512004,69.9799994 L23.3772007,73.9 L22.5428005,73.9 L22.2012005,72.9871999 L20.5296002,72.9871999 L20.1880001,73.9 L19.3732,73.9 L20.8992003,69.9799994 L21.8512004,69.9799994 Z M21.3668003,70.7527995 L20.7984002,72.2675997 L21.9324004,72.2675997 L21.3668003,70.7527995 Z M27.3868006,69.9799994 L27.3868006,73.9 L26.6532005,73.9 L24.6652002,71.2819996 L24.6624002,73.9 L23.8812001,73.9 L23.8812001,69.9799994 L24.6120002,69.9799994 L26.6028005,72.5979998 L26.6028005,69.9799994 L27.3868006,69.9799994 Z" id="JAN" fill="#555555"/>
                        <path d="M62.3448005,71.5927996 L62.3448005,72.3123997 L60.3792002,72.3123997 L60.3792002,73.9 L59.5980001,73.9 L59.5980001,69.9799994 L62.4764005,69.9799994 L62.4764005,70.6995995 L60.3792002,70.6995995 L60.3792002,71.5927996 L62.3448005,71.5927996 Z M66.1164006,73.1831999 L66.1164006,73.9 L63.1876001,73.9 L63.1876001,69.9799994 L66.0940005,69.9799994 L66.0940005,70.6967995 L63.9688002,70.6967995 L63.9688002,71.5647996 L65.9960005,71.5647996 L65.9960005,72.2815997 L63.9688002,72.2815997 L63.9688002,73.1831999 L66.1164006,73.1831999 Z M66.9172001,69.9799994 L68.5188003,69.9799994 C69.4316005,69.9799994 70.0056006,70.3187994 70.0056006,71.0663995 C70.0056006,71.4611996 69.7648005,71.7775997 69.4372005,71.8979997 C69.7956005,72.0183997 70.0896006,72.3543997 70.0896006,72.7771998 C70.0896006,73.5303999 69.5548005,73.9 68.6140004,73.9 L66.9172001,73.9 L66.9172001,69.9799994 Z M68.5748003,72.2703997 L67.6984002,72.2703997 L67.6984002,73.2111999 L68.5748003,73.2139999 C69.0060004,73.2139999 69.2776005,73.1131999 69.2776005,72.7379998 C69.2776005,72.3711997 69.0060004,72.2703997 68.5748003,72.2703997 Z M68.4964003,70.6687995 L67.6984002,70.6687995 L67.6984002,71.5843996 L68.4992003,71.5843996 C68.8884004,71.5843996 69.1908004,71.5031996 69.1908004,71.1223995 C69.1908004,70.7527995 68.8828004,70.6687995 68.4964003,70.6687995 Z" id="FEB" fill="#555555"/>
                        <path d="M104.948201,69.9799994 L104.948201,73.9 L104.167001,73.9 L104.167001,70.9403995 L103.1982,73.5219999 L102.3722,73.5219999 L101.4034,70.9627995 L101.4034,73.9 L100.6222,73.9 L100.6222,69.9799994 L101.7674,69.9799994 L102.7866,72.6259998 L103.803001,69.9799994 L104.948201,69.9799994 Z M107.9302,69.9799994 L109.456201,73.9 L108.621801,73.9 L108.2802,72.9871999 L106.6086,72.9871999 L106.267,73.9 L105.4522,73.9 L106.9782,69.9799994 L107.9302,69.9799994 Z M107.4458,70.7527995 L106.8774,72.2675997 L108.0114,72.2675997 L107.4458,70.7527995 Z M109.9602,69.9799994 L111.6178,69.9799994 C112.553,69.9799994 113.054201,70.4223994 113.054201,71.1727996 C113.054201,71.8167997 112.606201,72.2563997 111.853,72.3291997 L113.059801,73.9 L112.1134,73.9 L110.971,72.3403997 L110.7414,72.3403997 L110.7414,73.9 L109.9602,73.9 L109.9602,69.9799994 Z M111.6038,70.6995995 L110.7414,70.6995995 L110.7414,71.6599996 L111.6038,71.6599996 C112.0294,71.6599996 112.2506,71.5031996 112.2506,71.1727996 C112.2506,70.8479995 112.0182,70.6995995 111.6038,70.6995995 Z" id="MAR" fill="#555555"/>
                        <path d="M146.8726,69.9799994 L148.398601,73.9 L147.564201,73.9 L147.2226,72.9871999 L145.551,72.9871999 L145.2094,73.9 L144.3946,73.9 L145.9206,69.9799994 L146.8726,69.9799994 Z M146.3882,70.7527995 L145.8198,72.2675997 L146.9538,72.2675997 L146.3882,70.7527995 Z M150.507,72.4663998 L149.6838,72.4663998 L149.6838,73.9 L148.9026,73.9 L148.9026,69.9799994 L150.5014,69.9799994 C151.4366,69.9799994 151.935001,70.4671994 151.935001,71.2259996 C151.935001,71.9791997 151.4366,72.4663998 150.507,72.4663998 Z M150.4874,70.6995995 L149.6838,70.6995995 L149.6838,71.7523996 L150.4874,71.7523996 C150.913,71.7523996 151.1342,71.5787996 151.1342,71.2259996 C151.1342,70.8759995 150.913,70.6995995 150.4874,70.6995995 Z M152.6014,69.9799994 L154.259,69.9799994 C155.1942,69.9799994 155.695401,70.4223994 155.695401,71.1727996 C155.695401,71.8167997 155.247401,72.2563997 154.4942,72.3291997 L155.701001,73.9 L154.7546,73.9 L153.6122,72.3403997 L153.3826,72.3403997 L153.3826,73.9 L152.6014,73.9 L152.6014,69.9799994 Z M154.245,70.6995995 L153.3826,70.6995995 L153.3826,71.6599996 L154.245,71.6599996 C154.6706,71.6599996 154.8918,71.5031996 154.8918,71.1727996 C154.8918,70.8479995 154.6594,70.6995995 154.245,70.6995995 Z" id="APR" fill="#555555"/>
                        <path d="M192.658201,69.9799994 L192.658201,73.9 L191.877001,73.9 L191.877001,70.9403995 L190.9082,73.5219999 L190.0822,73.5219999 L189.1134,70.9627995 L189.1134,73.9 L188.3322,73.9 L188.3322,69.9799994 L189.4774,69.9799994 L190.4966,72.6259998 L191.513001,69.9799994 L192.658201,69.9799994 Z M195.6402,69.9799994 L197.166201,73.9 L196.331801,73.9 L195.9902,72.9871999 L194.3186,72.9871999 L193.977,73.9 L193.1622,73.9 L194.6882,69.9799994 L195.6402,69.9799994 Z M195.1558,70.7527995 L194.5874,72.2675997 L195.7214,72.2675997 L195.1558,70.7527995 Z M200.596201,69.9799994 L199.1066,72.3543997 L199.1066,73.9 L198.3254,73.9 L198.3254,72.3515997 L196.8162,69.9799994 L197.7346,69.9799994 L198.7202,71.6431996 L199.7058,69.9799994 L200.596201,69.9799994 Z" id="MAY" fill="#555555"/>
                        <path d="M233.121,69.9799994 L233.121,72.4719998 C233.121,73.4547999 232.533,73.97 231.7154,73.97 C231.0658,73.97 230.6766,73.6872 230.4638,73.4267999 L230.9174,72.8583998 C231.077,73.0543999 231.3178,73.2223999 231.679,73.2223999 C232.0934,73.2223999 232.3398,72.9647998 232.3398,72.3991998 L232.3398,69.9799994 L233.121,69.9799994 Z M237.321001,69.9799994 L237.321001,72.3347997 C237.321001,73.4183999 236.629401,73.97 235.6326,73.97 C234.6358,73.97 233.9442,73.4183999 233.9442,72.3347997 L233.9442,69.9799994 L234.7282,69.9799994 L234.7282,72.2955997 C234.7282,72.9395998 235.0922,73.2223999 235.6326,73.2223999 C236.173,73.2223999 236.537,72.9395998 236.537,72.2955997 L236.537,69.9799994 L237.321001,69.9799994 Z M241.672201,69.9799994 L241.672201,73.9 L240.938601,73.9 L238.9506,71.2819996 L238.9478,73.9 L238.1666,73.9 L238.1666,69.9799994 L238.8974,69.9799994 L240.888201,72.5979998 L240.888201,69.9799994 L241.672201,69.9799994 Z" id="JUN" fill="#555555"/>
                    </g>
                    <g id="banner" transform="translate(403.200000, 143.500000)">
                        <rect id="Rectangle" fill="#F7F7F7" x="0" y="0" width="106.4" height="78.4" rx="3.5"/>
                        <g id="Group-2" transform="translate(7.000000, 57.400000)" fill="#000000" fill-opacity="0.05">
                            <rect id="Rectangle" x="0" y="0" width="56" height="5.6" rx="2.1"/>
                            <rect id="Rectangle-Copy" x="0" y="8.4" width="88.9" height="5.6" rx="2.1"/>
                        </g>
                    </g>
                    <g id="bugfixes" transform="translate(138.600000, 228.900000)">
                        <rect id="Rectangle" fill="#F7F7F7" x="0" y="0" width="371" height="76.3" rx="3.5"/>
                        <rect id="Rectangle" fill-opacity="0.07" fill="#000000" x="0" y="34.3" width="371" height="1"/>
                        <rect id="Rectangle-Copy-17" fill-opacity="0.07" fill="#000000" x="0" y="55.3" width="371" height="1"/>
                        <path d="M3.5,0 L367.5,0 C369.432997,-3.55085719e-16 371,1.56700338 371,3.5 L371,14 L0,14 L0,3.5 C-2.36723813e-16,1.56700338 1.56700338,3.55085719e-16 3.5,0 Z" id="Rectangle" fill-opacity="0.04" fill="#000000"/>
                        <rect id="Rectangle" fill-opacity="0.08" fill="#000000" x="6.3" y="21" width="17.5" height="6.3" rx="2.1"/>
                        <rect id="Rectangle-Copy-16" fill-opacity="0.05" fill="#000000" x="79.8" y="21" width="244.3" height="6.3" rx="2.1"/>
                        <rect id="Rectangle" fill-opacity="0.08" fill="#000000" x="6.3" y="42" width="17.5" height="6.3" rx="2.1"/>
                        <rect id="Rectangle-Copy-16" fill-opacity="0.05" fill="#000000" x="79.8" y="42" width="244.3" height="6.3" rx="2.1"/>
                        <rect id="Rectangle" fill-opacity="0.08" fill="#000000" x="6.3" y="63" width="17.5" height="6.3" rx="2.1"/>
                        <rect id="Rectangle-Copy-16" fill-opacity="0.05" fill="#000000" x="79.8" y="63" width="244.3" height="6.3" rx="2.1"/>
                    </g>
                </g>
            </g>
        </g>
    </g>
</g>
</svg>
