<svg width="194" height="55" viewBox="0 0 194 55" fill="none" xmlns="http://www.w3.org/2000/svg">
<g clip-path="url(#clip0_674_1340)">
<path d="M41.8143 10.417C41.7767 10.1438 41.5381 9.99224 41.34 9.97574C41.1434 9.95924 37.2922 9.90072 37.2922 9.90072C37.2922 9.90072 34.0712 6.77289 33.7531 6.4547C33.435 6.13652 32.8135 6.23257 32.5719 6.30461C32.5689 6.30612 31.9671 6.49223 30.954 6.80591C30.7844 6.25659 30.5352 5.58119 30.1795 4.9028C29.0329 2.71453 27.3534 1.55736 25.3242 1.55436C25.3212 1.55436 25.3197 1.55436 25.3167 1.55436C25.1756 1.55436 25.036 1.56787 24.895 1.57987C24.8349 1.50783 24.7749 1.43729 24.7119 1.36825C23.8278 0.422702 22.6947 -0.0380655 21.3364 0.00245798C18.7159 0.0775016 16.1059 1.9701 13.9897 5.33205C12.5008 7.69742 11.3676 10.6692 11.0464 12.97C8.03717 13.902 5.93294 14.5534 5.88642 14.5684C4.36753 15.0457 4.31951 15.0922 4.12139 16.5241C3.97431 17.6061 0 48.3381 0 48.3381L33.3058 54.0984L47.7412 50.5097C47.7412 50.5097 41.8518 10.6902 41.8143 10.417ZM29.2865 7.3222C28.5196 7.55934 27.6475 7.8295 26.702 8.12218C26.6825 6.7954 26.5249 4.94933 25.9065 3.3539C27.8952 3.73062 28.8737 5.98043 29.2865 7.3222ZM24.9595 8.66248C23.214 9.20276 21.3093 9.79261 19.3988 10.384C19.9361 8.32629 20.9552 6.2776 22.2069 4.93432C22.6722 4.43453 23.3235 3.87771 24.095 3.55952C24.8199 5.0724 24.9775 7.21414 24.9595 8.66248ZM21.3889 1.74647C22.0042 1.73296 22.5221 1.86804 22.9648 2.15921C22.2564 2.52693 21.572 3.05523 20.9297 3.74413C19.2651 5.53017 17.9894 8.30228 17.4806 10.9768C15.8942 11.4676 14.3423 11.9494 12.9135 12.3907C13.8155 8.18071 17.344 1.86354 21.3889 1.74647Z" fill="#95BF47"/>
<path d="M41.3418 9.97727C41.1452 9.96077 37.2939 9.90225 37.2939 9.90225C37.2939 9.90225 34.0731 6.77441 33.7549 6.45623C33.6364 6.33765 33.4758 6.27612 33.3076 6.25061L33.3092 54.0969L47.743 50.5098C47.743 50.5098 41.8536 10.6917 41.8161 10.4185C41.7785 10.1453 41.5384 9.99377 41.3418 9.97727Z" fill="#5E8E3E"/>
<path d="M25.3061 17.3991L23.6296 23.6712C23.6296 23.6712 21.7596 22.8202 19.5428 22.9598C16.2918 23.1654 16.2573 25.2156 16.2904 25.7304C16.4675 28.5355 23.8472 29.1479 24.2615 35.7187C24.5872 40.8877 21.5194 44.4238 17.0993 44.7029C11.7937 45.0376 8.87305 41.9083 8.87305 41.9083L9.99722 37.1265C9.99722 37.1265 12.9374 39.3448 15.2907 39.1962C16.8277 39.0987 17.377 37.8485 17.3214 36.9644C17.0903 33.3053 11.0808 33.5214 10.7011 27.5089C10.3814 22.4495 13.7044 17.3226 21.0361 16.8603C23.8607 16.6787 25.3061 17.3991 25.3061 17.3991Z" fill="white"/>
<path d="M66.75 30.5328C65.0901 29.6322 64.2371 28.873 64.2371 27.8295C64.2371 26.5016 65.422 25.6486 67.2725 25.6486C69.4265 25.6486 71.3498 26.5492 71.3498 26.5492L72.8667 21.9017C72.8667 21.9017 71.4718 20.8105 67.3662 20.8105C61.6528 20.8105 57.6931 24.0825 57.6931 28.6824C57.6931 31.2905 59.542 33.2823 62.0086 34.7039C64.0004 35.8412 64.712 36.6481 64.712 37.833C64.712 39.0657 63.7161 40.0615 61.8672 40.0615C59.1117 40.0615 56.5096 38.6384 56.5096 38.6384L54.8975 43.2859C54.8975 43.2859 57.3016 44.8981 61.3462 44.8981C67.2263 44.8981 71.4466 42.0057 71.4466 36.7895C71.4451 33.9939 69.3119 32.0021 66.75 30.5328Z" fill="black"/>
<path d="M90.1758 20.7644C87.2832 20.7644 85.0071 22.1399 83.2535 24.2255L83.1582 24.1778L85.6709 11.0436H79.1269L72.7734 44.4724H79.3174L81.4983 33.0456C82.3513 28.7301 84.5798 26.0759 86.6669 26.0759C88.1361 26.0759 88.7063 27.0717 88.7063 28.4949C88.7063 29.3955 88.611 30.4867 88.4219 31.3873L85.9568 44.4739H92.5011L95.0609 30.96C95.3458 29.5369 95.536 27.831 95.536 26.6921C95.5333 22.9929 93.5894 20.7644 90.1758 20.7644Z" fill="black"/>
<path d="M110.328 20.7644C102.455 20.7644 97.2412 27.8772 97.2412 35.7952C97.2412 40.8684 100.37 44.9458 106.25 44.9458C113.979 44.9458 119.195 38.0237 119.195 29.9151C119.195 25.2214 116.444 20.7644 110.328 20.7644ZM107.103 39.9216C104.874 39.9216 103.926 38.0251 103.926 35.6537C103.926 31.9083 105.871 25.7916 109.427 25.7916C111.75 25.7916 112.508 27.7833 112.508 29.7275C112.508 33.7572 110.566 39.9216 107.103 39.9216Z" fill="black"/>
<path d="M135.933 20.7644C131.516 20.7644 129.01 24.6527 129.01 24.6527H128.916L129.295 21.144H123.51C123.226 23.5154 122.703 27.1179 122.183 29.8213L117.631 53.7659H124.175L125.976 44.0928H126.119C126.119 44.0928 127.461 44.9458 129.96 44.9458C137.641 44.9458 142.667 37.0754 142.667 29.1083C142.667 24.7004 140.722 20.7644 135.933 20.7644ZM129.674 40.0154C127.975 40.0154 126.97 39.0671 126.97 39.0671L128.061 32.9504C128.82 28.873 130.953 26.1696 133.23 26.1696C135.222 26.1696 135.838 28.0185 135.838 29.7737C135.838 33.9939 133.325 40.0154 129.674 40.0154Z" fill="black"/>
<path d="M152.007 11.3756C149.922 11.3756 148.262 13.0354 148.262 15.1686C148.262 17.1128 149.494 18.4407 151.344 18.4407H151.438C153.478 18.4407 155.231 17.0651 155.279 14.6477C155.279 12.7511 153.999 11.3756 152.007 11.3756Z" fill="black"/>
<path d="M142.856 44.4723H149.399L153.857 21.2869H147.265L142.856 44.4723Z" fill="black"/>
<path d="M170.501 21.2393H165.948L166.185 20.1481C166.564 17.9196 167.892 15.9278 170.073 15.9278C171.237 15.9278 172.159 16.2598 172.159 16.2598L173.439 11.1389C173.439 11.1389 172.301 10.5703 169.882 10.5703C167.559 10.5703 165.237 11.2341 163.481 12.751C161.253 14.6476 160.209 17.3971 159.688 20.1481L159.5 21.2393H156.464L155.515 26.1711H158.551L155.09 44.4739H161.634L165.095 26.1711H169.6L170.501 21.2393Z" fill="black"/>
<path d="M186.243 21.287C186.243 21.287 182.152 31.5927 180.316 37.2183H180.22C180.096 35.4067 178.608 21.287 178.608 21.287H171.732L175.67 42.5759C175.765 43.0493 175.717 43.3351 175.527 43.667C174.767 45.1363 173.488 46.5595 171.97 47.6031C170.738 48.5036 169.363 49.0723 168.272 49.4519L170.074 55C171.402 54.7157 174.151 53.6246 176.475 51.4437C179.463 48.6465 182.212 44.331 185.056 38.4509L193.07 21.2855H186.243V21.287Z" fill="black"/>
</g>
<defs>
<clipPath id="clip0_674_1340">
<rect width="193.852" height="55" fill="white"/>
</clipPath>
</defs>
</svg>
