<svg width="599" height="427" viewBox="0 0 599 427" fill="none" xmlns="http://www.w3.org/2000/svg">
<rect x="10" y="7" width="579" height="410" fill="white"/>
<g filter="url(#filter0_d_1151_4426)">
<rect x="10" y="89" width="115" height="115" rx="57.5" fill="#1E1E1E"/>
</g>
<g clip-path="url(#clip0_1151_4426)">
<path d="M67.1172 146.5C67.1172 143.958 68.1269 141.521 69.9241 139.724C71.7213 137.926 74.1589 136.917 76.7005 136.917C79.2422 136.917 81.6797 137.926 83.477 139.724C85.2742 141.521 86.2839 143.958 86.2839 146.5C86.2839 149.042 85.2742 151.479 83.477 153.276C81.6797 155.074 79.2422 156.083 76.7005 156.083C74.1589 156.083 71.7213 155.074 69.9241 153.276C68.1269 151.479 67.1172 149.042 67.1172 146.5Z" fill="#1ABCFE"/>
<path d="M47.9492 165.667C47.9492 163.125 48.9589 160.687 50.7561 158.89C52.5533 157.093 54.9909 156.083 57.5326 156.083H67.1159V165.667C67.1159 168.208 66.1062 170.646 64.309 172.443C62.5118 174.24 60.0742 175.25 57.5326 175.25C54.9909 175.25 52.5533 174.24 50.7561 172.443C48.9589 170.646 47.9492 168.208 47.9492 165.667V165.667Z" fill="#0ACF83"/>
<path d="M67.1172 117.75V136.917H76.7005C79.2422 136.917 81.6797 135.907 83.477 134.11C85.2742 132.313 86.2839 129.875 86.2839 127.333C86.2839 124.792 85.2742 122.354 83.477 120.557C81.6797 118.76 79.2422 117.75 76.7005 117.75H67.1172Z" fill="#FF7262"/>
<path d="M47.9492 127.333C47.9492 129.875 48.9589 132.313 50.7561 134.11C52.5533 135.907 54.9909 136.917 57.5326 136.917H67.1159V117.75H57.5326C54.9909 117.75 52.5533 118.76 50.7561 120.557C48.9589 122.354 47.9492 124.792 47.9492 127.333V127.333Z" fill="#F24E1E"/>
<path d="M47.9492 146.5C47.9492 149.042 48.9589 151.479 50.7561 153.276C52.5533 155.074 54.9909 156.083 57.5326 156.083H67.1159V136.917H57.5326C54.9909 136.917 52.5533 137.926 50.7561 139.724C48.9589 141.521 47.9492 143.958 47.9492 146.5V146.5Z" fill="#A259FF"/>
</g>
<g filter="url(#filter1_d_1151_4426)">
<rect x="277" y="10" width="112" height="112" rx="56" fill="#E44F26"/>
</g>
<path d="M322.207 77.1557L325.123 73.511L315.734 66L325.123 58.489L322.207 54.8443L310.54 64.1777C310.267 64.3963 310.046 64.6736 309.894 64.989C309.743 65.3045 309.664 65.65 309.664 66C309.664 66.35 309.743 66.6955 309.894 67.011C310.046 67.3264 310.267 67.6037 310.54 67.8223L322.207 77.1557ZM343.79 54.8443L340.873 58.489L350.263 66L340.873 73.511L343.79 77.1557L355.457 67.8223C355.73 67.6037 355.951 67.3264 356.103 67.011C356.254 66.6955 356.333 66.35 356.333 66C356.333 65.65 356.254 65.3045 356.103 64.989C355.951 64.6736 355.73 64.3963 355.457 64.1777L343.79 54.8443ZM339.942 45.504L330.609 87.504L326.052 86.4913L335.385 44.4913L339.942 45.504Z" fill="white"/>
<g filter="url(#filter2_d_1151_4426)">
<rect x="206" y="158" width="121" height="121" rx="60.5" fill="#1572B6"/>
</g>
<path d="M246.816 198.593H286.179L282.6 239.012L266.456 243.58L250.401 239.01L246.816 198.593ZM278.851 206.864L254.147 206.859L254.545 211.772L273.525 211.777L273.048 216.869H260.6L261.052 221.691H272.64L271.954 228.296L266.499 229.803L260.961 228.283L260.605 224.328H255.715L256.259 231.555L266.499 234.744L276.57 231.878L278.851 206.864Z" fill="white"/>
<g filter="url(#filter3_d_1151_4426)">
<rect x="100" y="303" width="114" height="114" rx="57" fill="#F4B400"/>
</g>
<path d="M176.671 356.096H156.894V364.292H168.275C167.216 369.5 162.782 372.493 156.894 372.493C155.247 372.495 153.615 372.173 152.092 371.544C150.57 370.914 149.186 369.991 148.022 368.826C146.857 367.661 145.933 366.277 145.304 364.755C144.676 363.232 144.353 361.6 144.357 359.953C144.354 358.305 144.676 356.674 145.305 355.151C145.934 353.629 146.858 352.246 148.022 351.081C149.187 349.916 150.57 348.993 152.093 348.364C153.615 347.734 155.247 347.412 156.894 347.415C159.884 347.415 162.587 348.477 164.708 350.213L170.883 344.04C167.121 340.76 162.297 338.737 156.894 338.737C154.105 338.728 151.343 339.272 148.765 340.335C146.187 341.399 143.844 342.961 141.872 344.933C139.9 346.905 138.338 349.247 137.274 351.825C136.211 354.403 135.668 357.166 135.676 359.955C135.667 362.744 136.21 365.507 137.274 368.085C138.337 370.663 139.9 373.005 141.872 374.977C143.844 376.949 146.186 378.512 148.764 379.575C151.342 380.639 154.105 381.182 156.894 381.173C167.503 381.173 177.15 373.457 177.15 359.955C177.15 358.701 176.958 357.35 176.671 356.096Z" fill="white"/>
<g filter="url(#filter4_d_1151_4426)">
<rect x="464" y="96" width="125" height="125" rx="62.5" fill="#F7DF1E"/>
</g>
<path d="M503.062 135.062H549.938V181.938H503.062V135.062ZM546.096 170.758C545.755 168.62 544.362 166.823 540.232 165.146C538.794 164.471 537.198 164.005 536.719 162.922C536.542 162.276 536.516 161.927 536.63 161.544C536.924 160.284 538.419 159.906 539.591 160.255C540.354 160.49 541.057 161.076 541.497 162.016C543.516 160.695 543.516 160.695 544.924 159.818C544.396 159 544.133 158.643 543.781 158.292C542.549 156.917 540.909 156.214 538.245 156.273L536.87 156.448C535.549 156.771 534.289 157.477 533.529 158.411C531.302 160.932 531.945 165.326 534.641 167.146C537.305 169.138 541.206 169.576 541.703 171.451C542.172 173.737 540.005 174.469 537.862 174.206C536.281 173.852 535.401 173.062 534.435 171.596L530.862 173.648C531.271 174.583 531.74 174.995 532.443 175.815C535.841 179.242 544.339 179.068 545.862 173.852C545.917 173.677 546.331 172.477 546.008 170.63L546.096 170.758ZM528.552 156.607H524.161C524.161 160.391 524.143 164.154 524.143 167.945C524.143 170.352 524.266 172.56 523.872 173.24C523.229 174.586 521.565 174.414 520.812 174.174C520.039 173.794 519.646 173.266 519.19 172.505C519.068 172.302 518.977 172.125 518.943 172.125L515.38 174.323C515.977 175.555 516.846 176.612 517.969 177.284C519.638 178.281 521.88 178.604 524.229 178.078C525.76 177.635 527.081 176.727 527.766 175.32C528.766 173.505 528.552 171.276 528.544 168.786C528.565 164.773 528.544 160.758 528.544 156.716L528.552 156.607Z" fill="black"/>
<g filter="url(#filter5_d_1151_4426)">
<rect x="374" y="264" width="115" height="115" rx="57.5" fill="#41B883"/>
</g>
<path d="M431.499 325.633L444.897 303.023H437.048L431.499 312.611V312.616L425.96 303.023H418.102L431.499 325.633Z" fill="white"/>
<path d="M446.98 303.033L431.501 329.155L416.021 303.033H407.523L431.501 344.577L455.478 303.033H446.98Z" fill="white"/>
<defs>
<filter id="filter0_d_1151_4426" x="0" y="79" width="135" height="135" filterUnits="userSpaceOnUse" color-interpolation-filters="sRGB">
<feFlood flood-opacity="0" result="BackgroundImageFix"/>
<feColorMatrix in="SourceAlpha" type="matrix" values="0 0 0 0 0 0 0 0 0 0 0 0 0 0 0 0 0 0 127 0" result="hardAlpha"/>
<feOffset/>
<feGaussianBlur stdDeviation="5"/>
<feComposite in2="hardAlpha" operator="out"/>
<feColorMatrix type="matrix" values="0 0 0 0 0 0 0 0 0 0 0 0 0 0 0 0 0 0 0.1 0"/>
<feBlend mode="normal" in2="BackgroundImageFix" result="effect1_dropShadow_1151_4426"/>
<feBlend mode="normal" in="SourceGraphic" in2="effect1_dropShadow_1151_4426" result="shape"/>
</filter>
<filter id="filter1_d_1151_4426" x="267" y="0" width="132" height="132" filterUnits="userSpaceOnUse" color-interpolation-filters="sRGB">
<feFlood flood-opacity="0" result="BackgroundImageFix"/>
<feColorMatrix in="SourceAlpha" type="matrix" values="0 0 0 0 0 0 0 0 0 0 0 0 0 0 0 0 0 0 127 0" result="hardAlpha"/>
<feOffset/>
<feGaussianBlur stdDeviation="5"/>
<feComposite in2="hardAlpha" operator="out"/>
<feColorMatrix type="matrix" values="0 0 0 0 0 0 0 0 0 0 0 0 0 0 0 0 0 0 0.1 0"/>
<feBlend mode="normal" in2="BackgroundImageFix" result="effect1_dropShadow_1151_4426"/>
<feBlend mode="normal" in="SourceGraphic" in2="effect1_dropShadow_1151_4426" result="shape"/>
</filter>
<filter id="filter2_d_1151_4426" x="196" y="148" width="141" height="141" filterUnits="userSpaceOnUse" color-interpolation-filters="sRGB">
<feFlood flood-opacity="0" result="BackgroundImageFix"/>
<feColorMatrix in="SourceAlpha" type="matrix" values="0 0 0 0 0 0 0 0 0 0 0 0 0 0 0 0 0 0 127 0" result="hardAlpha"/>
<feOffset/>
<feGaussianBlur stdDeviation="5"/>
<feComposite in2="hardAlpha" operator="out"/>
<feColorMatrix type="matrix" values="0 0 0 0 0 0 0 0 0 0 0 0 0 0 0 0 0 0 0.1 0"/>
<feBlend mode="normal" in2="BackgroundImageFix" result="effect1_dropShadow_1151_4426"/>
<feBlend mode="normal" in="SourceGraphic" in2="effect1_dropShadow_1151_4426" result="shape"/>
</filter>
<filter id="filter3_d_1151_4426" x="90" y="293" width="134" height="134" filterUnits="userSpaceOnUse" color-interpolation-filters="sRGB">
<feFlood flood-opacity="0" result="BackgroundImageFix"/>
<feColorMatrix in="SourceAlpha" type="matrix" values="0 0 0 0 0 0 0 0 0 0 0 0 0 0 0 0 0 0 127 0" result="hardAlpha"/>
<feOffset/>
<feGaussianBlur stdDeviation="5"/>
<feComposite in2="hardAlpha" operator="out"/>
<feColorMatrix type="matrix" values="0 0 0 0 0 0 0 0 0 0 0 0 0 0 0 0 0 0 0.1 0"/>
<feBlend mode="normal" in2="BackgroundImageFix" result="effect1_dropShadow_1151_4426"/>
<feBlend mode="normal" in="SourceGraphic" in2="effect1_dropShadow_1151_4426" result="shape"/>
</filter>
<filter id="filter4_d_1151_4426" x="454" y="86" width="145" height="145" filterUnits="userSpaceOnUse" color-interpolation-filters="sRGB">
<feFlood flood-opacity="0" result="BackgroundImageFix"/>
<feColorMatrix in="SourceAlpha" type="matrix" values="0 0 0 0 0 0 0 0 0 0 0 0 0 0 0 0 0 0 127 0" result="hardAlpha"/>
<feOffset/>
<feGaussianBlur stdDeviation="5"/>
<feComposite in2="hardAlpha" operator="out"/>
<feColorMatrix type="matrix" values="0 0 0 0 0 0 0 0 0 0 0 0 0 0 0 0 0 0 0.1 0"/>
<feBlend mode="normal" in2="BackgroundImageFix" result="effect1_dropShadow_1151_4426"/>
<feBlend mode="normal" in="SourceGraphic" in2="effect1_dropShadow_1151_4426" result="shape"/>
</filter>
<filter id="filter5_d_1151_4426" x="364" y="254" width="135" height="135" filterUnits="userSpaceOnUse" color-interpolation-filters="sRGB">
<feFlood flood-opacity="0" result="BackgroundImageFix"/>
<feColorMatrix in="SourceAlpha" type="matrix" values="0 0 0 0 0 0 0 0 0 0 0 0 0 0 0 0 0 0 127 0" result="hardAlpha"/>
<feOffset/>
<feGaussianBlur stdDeviation="5"/>
<feComposite in2="hardAlpha" operator="out"/>
<feColorMatrix type="matrix" values="0 0 0 0 0 0 0 0 0 0 0 0 0 0 0 0 0 0 0.1 0"/>
<feBlend mode="normal" in2="BackgroundImageFix" result="effect1_dropShadow_1151_4426"/>
<feBlend mode="normal" in="SourceGraphic" in2="effect1_dropShadow_1151_4426" result="shape"/>
</filter>
<clipPath id="clip0_1151_4426">
<rect width="38.3333" height="57.5" fill="white" transform="translate(47.9492 117.75)"/>
</clipPath>
</defs>
</svg>
